EESchema Schematic File Version 4
EELAYER 30 0
EELAYER END
$Descr A4 11693 8268
encoding utf-8
Sheet 1 10
Title ""
Date "2021-03-25"
Rev "V_A.0"
Comp "THI"
Comment1 ""
Comment2 "HT3H5796-12"
Comment3 "HT3H5796-5"
Comment4 "HT3H5796-1"
$EndDescr
$Sheet
S 5500 3700 1700 1850
U 61CC7676
F0 "MCU" 50
F1 "MCU.sch" 50
F2 "ADC_PWR1_V" I R 7200 4000 50 
F3 "+3.3V" I L 5500 3850 50 
F4 "IN_1" I L 5500 4550 50 
F5 "IN_2" I L 5500 4650 50 
F6 "IN_3" I L 5500 4750 50 
F7 "IN_4" I L 5500 4850 50 
F8 "IN_5" I L 5500 4950 50 
F9 "IN_6" I L 5500 5050 50 
F10 "AIN" I L 5500 4350 50 
F11 "USB_N" I R 7200 5200 50 
F12 "USB_P" I R 7200 5300 50 
F13 "USBV" I R 7200 5100 50 
F14 "+5V" I R 7200 3850 50 
F15 "SDA" B R 7200 4500 50 
F16 "SCL" B R 7200 4600 50 
F17 "I2C_ON" I R 7200 4300 50 
$EndSheet
$Sheet
S 8450 1600 1300 1350
U 62861DD1
F0 "ext_int" 50
F1 "ext_int.sch" 50
F2 "+5V" I L 8450 1800 50 
F3 "SDA" B L 8450 2450 50 
F4 "SCL" B L 8450 2550 50 
F5 "I2C_ON" I L 8450 2000 50 
$EndSheet
$Sheet
S 5500 1650 1700 1150
U 62863B64
F0 "power_supply" 50
F1 "power_supply.sch" 50
F2 "+3.3V" O L 5500 2250 50 
F3 "ADC_PWR_V" O R 7200 2450 50 
F4 "+24V_IN" I L 5500 1800 50 
F5 "+5V" O R 7200 1800 50 
$EndSheet
Text Notes 5500 3550 0    79   Italic 16
Main MCU, RTC, memory
Text Notes 3300 2000 0    79   Italic 16
INs
Text Notes 5600 1450 0    79   Italic 16
DCDC, LDO, Ionistors, etc
Text Notes 8400 1400 0    79   Italic 16
Connection to external sensor
Text Notes 1500 2025 0    50   ~ 0
AIN
Text Notes 1500 1825 0    50   ~ 0
GND
Wire Wire Line
	3450 1700 3450 1800
$Comp
L power:PWR_FLAG #FLG?
U 1 1 60FE943C
P 3450 1700
AR Path="/5D3600C7/60FE943C" Ref="#FLG?"  Part="1" 
AR Path="/60FE943C" Ref="#FLG01"  Part="1" 
AR Path="/607681B9/60FE943C" Ref="#FLG?"  Part="1" 
AR Path="/60EE5585/60FE943C" Ref="#FLG?"  Part="1" 
AR Path="/62863B64/60FE943C" Ref="#FLG?"  Part="1" 
F 0 "#FLG01" H 3450 1775 50  0001 C CNN
F 1 "PWR_FLAG" V 3450 2000 50  0000 C CNN
F 2 "" H 3450 1700 50  0001 C CNN
F 3 "~" H 3450 1700 50  0001 C CNN
	1    3450 1700
	1    0    0    -1  
$EndComp
$Comp
L power:GND #PWR01
U 1 1 60FE9442
P 2200 3000
AR Path="/60FE9442" Ref="#PWR01"  Part="1" 
AR Path="/698A2E9A/60FE9442" Ref="#PWR?"  Part="1" 
AR Path="/5CF802FC/60FE9442" Ref="#PWR?"  Part="1" 
AR Path="/607681B9/60FE9442" Ref="#PWR?"  Part="1" 
AR Path="/60EE5585/60FE9442" Ref="#PWR?"  Part="1" 
AR Path="/62863B64/60FE9442" Ref="#PWR?"  Part="1" 
F 0 "#PWR01" H 2200 2750 50  0001 C CNN
F 1 "GND" H 2205 2827 50  0000 C CNN
F 2 "" H 2200 3000 50  0001 C CNN
F 3 "" H 2200 3000 50  0001 C CNN
	1    2200 3000
	1    0    0    -1  
$EndComp
Text Notes 1400 2800 0    50   ~ 0
Wires connect ?
Wire Wire Line
	4200 2250 4200 2950
Wire Wire Line
	7200 4000 7350 4000
Wire Wire Line
	7350 4000 7350 2450
Wire Wire Line
	5500 3850 4200 3850
Connection ~ 4200 3850
Wire Wire Line
	4200 2250 3700 2250
$Sheet
S 3150 2850 550  400 
U 612C8AD4
F0 "DIN2" 50
F1 "DIN.sch" 50
F2 "+3.3V" I R 3700 2950 50 
F3 "IN" I L 3150 3050 50 
F4 "OUT" I R 3700 3050 50 
$EndSheet
$Sheet
S 3150 2150 550  400 
U 612C96BD
F0 "DIN1" 50
F1 "DIN.sch" 50
F2 "+3.3V" I R 3700 2250 50 
F3 "IN" I L 3150 2350 50 
F4 "OUT" I R 3700 2350 50 
$EndSheet
Wire Wire Line
	3700 2950 4200 2950
Wire Wire Line
	4200 3650 3700 3650
$Sheet
S 3150 3550 550  400 
U 612CBD5E
F0 "DIN3" 50
F1 "DIN.sch" 50
F2 "+3.3V" I R 3700 3650 50 
F3 "IN" I L 3150 3750 50 
F4 "OUT" I R 3700 3750 50 
$EndSheet
Wire Wire Line
	3700 5750 4200 5750
$Sheet
S 3150 4950 550  400 
U 60B99431
F0 "DIN5" 50
F1 "DIN.sch" 50
F2 "+3.3V" I R 3700 5050 50 
F3 "IN" I L 3150 5150 50 
F4 "OUT" I R 3700 5150 50 
$EndSheet
Wire Wire Line
	3150 5850 3050 5850
$Sheet
S 3150 5650 550  400 
U 60B9942B
F0 "DIN6" 50
F1 "DIN.sch" 50
F2 "+3.3V" I R 3700 5750 50 
F3 "IN" I L 3150 5850 50 
F4 "OUT" I R 3700 5850 50 
$EndSheet
Wire Wire Line
	4200 5050 3700 5050
Wire Wire Line
	3700 4350 4200 4350
$Sheet
S 3150 4250 550  400 
U 612CBD47
F0 "DIN4" 50
F1 "DIN.sch" 50
F2 "+3.3V" I R 3700 4350 50 
F3 "IN" I L 3150 4450 50 
F4 "OUT" I R 3700 4450 50 
$EndSheet
Wire Wire Line
	7200 2450 7350 2450
Wire Wire Line
	4200 2250 5500 2250
Wire Wire Line
	3450 1800 5500 1800
Connection ~ 3450 1800
Wire Wire Line
	3700 2350 4600 2350
Connection ~ 4200 2250
Connection ~ 4200 2950
Wire Wire Line
	4200 2950 4200 3650
Connection ~ 4200 3650
Wire Wire Line
	4200 3650 4200 3850
Connection ~ 4200 4350
Wire Wire Line
	4200 4350 4200 3850
Connection ~ 4200 5050
Wire Wire Line
	4200 4350 4200 5050
Wire Wire Line
	4200 5050 4200 5750
Wire Wire Line
	5500 4550 4600 4550
Wire Wire Line
	4600 4550 4600 2350
Wire Wire Line
	3700 3050 4500 3050
Wire Wire Line
	4500 3050 4500 4650
Wire Wire Line
	4500 4650 5500 4650
Wire Wire Line
	4400 3750 4400 4750
Wire Wire Line
	4400 4750 5500 4750
Wire Wire Line
	3700 3750 4400 3750
Wire Wire Line
	4300 4450 4300 4850
Wire Wire Line
	4300 4850 5500 4850
Wire Wire Line
	3700 5150 4300 5150
Wire Wire Line
	4300 5150 4300 4950
Wire Wire Line
	4300 4950 5500 4950
Wire Wire Line
	3700 5850 4400 5850
Wire Wire Line
	4400 5850 4400 5050
Wire Wire Line
	4400 5050 5500 5050
Wire Wire Line
	1900 1800 2200 1800
Wire Wire Line
	2200 1800 2200 3000
Text Notes 1300 2625 0    50   ~ 0
+6/+24V
Text Notes 1450 1925 0    50   ~ 0
DIN6
Text Notes 1450 2525 0    50   ~ 0
DIN4
Text Notes 1450 2425 0    50   ~ 0
DIN3
Text Notes 1450 2325 0    50   ~ 0
DIN5
Text Notes 1450 2225 0    50   ~ 0
DIN2
Text Notes 1450 2125 0    50   ~ 0
DIN1
Wire Wire Line
	1900 2600 2950 2600
Wire Wire Line
	2950 2600 2950 1800
Wire Wire Line
	2950 1800 3450 1800
$Comp
L !ht3_connector:USB-4S X2
U 1 1 609F70D7
P 9200 5000
F 0 "X2" H 9850 5050 45  0000 R CNN
F 1 "KLS1-181B" H 9700 4250 45  0001 R CNN
F 2 "!ht3_connector:KLS1-181B" H 9230 5150 20  0001 C CNN
F 3 "" H 9200 5000 50  0001 C CNN
F 4 "00-00051844" H 9200 5000 50  0001 C CNN "KOSMODROM"
	1    9200 5000
	-1   0    0    -1  
$EndComp
$Comp
L power:GND #PWR02
U 1 1 609F86C2
P 7600 5600
AR Path="/609F86C2" Ref="#PWR02"  Part="1" 
AR Path="/600324FE/609F86C2" Ref="#PWR?"  Part="1" 
AR Path="/5F67C9A9/609F86C2" Ref="#PWR?"  Part="1" 
AR Path="/60F147D6/609F86C2" Ref="#PWR?"  Part="1" 
AR Path="/60EBFB95/609F86C2" Ref="#PWR?"  Part="1" 
F 0 "#PWR02" H 7600 5350 50  0001 C CNN
F 1 "GND" H 7605 5427 50  0000 C CNN
F 2 "" H 7600 5600 50  0001 C CNN
F 3 "" H 7600 5600 50  0001 C CNN
	1    7600 5600
	1    0    0    -1  
$EndComp
Wire Wire Line
	1900 2100 2850 2100
Wire Wire Line
	2850 2100 2850 2350
Wire Wire Line
	2850 2350 3150 2350
Wire Wire Line
	1900 2200 2750 2200
Wire Wire Line
	2750 2200 2750 3050
Wire Wire Line
	2750 3050 3150 3050
Wire Wire Line
	1900 1900 3050 1900
Wire Wire Line
	3050 1900 3050 5850
Wire Wire Line
	1900 2000 2350 2000
Wire Wire Line
	2350 2000 2350 1100
Wire Wire Line
	2350 1100 5000 1100
Wire Wire Line
	5000 1100 5000 4350
Wire Wire Line
	5000 4350 5500 4350
Wire Wire Line
	1900 2300 2650 2300
Wire Wire Line
	2650 2300 2650 5150
Wire Wire Line
	2650 5150 3150 5150
Wire Wire Line
	1900 2400 2550 2400
Wire Wire Line
	2550 2400 2550 3750
Wire Wire Line
	2550 3750 3150 3750
Wire Wire Line
	1900 2500 2450 2500
Wire Wire Line
	2450 2500 2450 4450
Wire Wire Line
	2450 4450 3150 4450
$Comp
L !ht3_passive:R R1
U 1 1 60A1E6ED
P 7950 5500
AR Path="/60A1E6ED" Ref="R1"  Part="1" 
AR Path="/61CC7676/60A1E6ED" Ref="R?"  Part="1" 
F 0 "R1" H 7750 5550 45  0000 C CNN
F 1 "100K/0603" H 7950 5400 45  0000 C CNN
F 2 "!ht3_smd:R_0603(1608)" H 7980 5650 20  0001 C CNN
F 3 "" H 7950 5500 50  0001 C CNN
	1    7950 5500
	1    0    0    -1  
$EndComp
Wire Wire Line
	7600 5400 7600 5500
Wire Wire Line
	7800 5500 7600 5500
Wire Wire Line
	7200 1800 7450 1800
$Comp
L !ht3_connector:CON-9P X1
U 1 1 60A0F1E8
P 1800 1700
F 0 "X1" H 1850 1750 45  0000 C CNN
F 1 "Molex_SL_171971-0009_1x09_P2.54mm_Vertical" H 1850 650 45  0001 C CNN
F 2 "!ht3_connector:Molex_SL_171971-0009_1x09_P2.54mm_Vertical" H 1830 1850 20  0001 C CNN
F 3 "" H 1800 1700 50  0001 C CNN
	1    1800 1700
	-1   0    0    -1  
$EndComp
Connection ~ 7600 5500
Wire Wire Line
	7600 5500 7600 5600
Wire Wire Line
	8400 5600 8300 5600
Wire Wire Line
	8300 5600 8300 5500
Wire Wire Line
	7200 3850 7450 3850
Wire Wire Line
	7450 3850 7450 1800
Connection ~ 7450 1800
Wire Wire Line
	7450 1800 8450 1800
Wire Wire Line
	7600 5400 8400 5400
Wire Wire Line
	7200 5100 8400 5100
Wire Wire Line
	7200 5200 8400 5200
Wire Wire Line
	7200 5300 8400 5300
Wire Wire Line
	8100 5500 8300 5500
Wire Wire Line
	3700 4450 4300 4450
Text Notes 850  7250 0    50   ~ 0
1) Корпус - https://www.rcscomponents.kiev.ua/modules.php?name=Asers_Shop&s_op=search&query=G212
Wire Wire Line
	8450 2450 8000 2450
Wire Wire Line
	8100 2550 8450 2550
Wire Wire Line
	7200 4500 8000 4500
Wire Wire Line
	7200 4600 8100 4600
Wire Wire Line
	8100 2550 8100 4600
Wire Wire Line
	8000 2450 8000 4500
Wire Wire Line
	7200 4300 7900 4300
Wire Wire Line
	7900 4300 7900 2000
Wire Wire Line
	7900 2000 8450 2000
Text Notes 1350 2900 0    50   ~ 0
00-00050229
Text Notes 1050 3000 0    50   ~ 0
NS25-G9 - 00-00040544
$EndSCHEMATC
