EESchema Schematic File Version 4
EELAYER 30 0
EELAYER END
$Descr A4 11693 8268
encoding utf-8
Sheet 10 10
Title ""
Date ""
Rev ""
Comp ""
Comment1 ""
Comment2 ""
Comment3 ""
Comment4 ""
$EndDescr
$Comp
L !ht3_passive:R R?
U 1 1 612C0B4E
P 5050 3250
AR Path="/600B9C6A/612C0B4E" Ref="R?"  Part="1" 
AR Path="/5FF89635/612C0B4E" Ref="R?"  Part="1" 
AR Path="/60EBFB95/612C0B4E" Ref="R?"  Part="1" 
AR Path="/612BBFB4/612C0B4E" Ref="R?"  Part="1" 
AR Path="/612C8AD4/612C0B4E" Ref="R68"  Part="1" 
AR Path="/612C96BD/612C0B4E" Ref="R70"  Part="1" 
AR Path="/612CBD47/612C0B4E" Ref="R78"  Part="1" 
AR Path="/612CBD5E/612C0B4E" Ref="R72"  Part="1" 
AR Path="/60B9942B/612C0B4E" Ref="R76"  Part="1" 
AR Path="/60B99431/612C0B4E" Ref="R74"  Part="1" 
F 0 "R78" H 5050 3150 45  0000 C CNN
F 1 "4.7K/0603" H 5050 3350 45  0000 C CNN
F 2 "!ht3_smd:R_0603(1608)" H 5080 3400 20  0001 C CNN
F 3 "" H 5050 3250 50  0001 C CNN
F 4 "C100048" H 5050 3250 50  0001 C CNN "LCSC"
	1    5050 3250
	0    1    1    0   
$EndComp
$Comp
L power:GND #PWR?
U 1 1 612C0B5C
P 4800 4600
AR Path="/612C0B5C" Ref="#PWR?"  Part="1" 
AR Path="/61CC7676/612C0B5C" Ref="#PWR?"  Part="1" 
AR Path="/60EBFB95/612C0B5C" Ref="#PWR?"  Part="1" 
AR Path="/612BBFB4/612C0B5C" Ref="#PWR?"  Part="1" 
AR Path="/612C8AD4/612C0B5C" Ref="#PWR0123"  Part="1" 
AR Path="/612C96BD/612C0B5C" Ref="#PWR0126"  Part="1" 
AR Path="/612CBD47/612C0B5C" Ref="#PWR0138"  Part="1" 
AR Path="/612CBD5E/612C0B5C" Ref="#PWR0129"  Part="1" 
AR Path="/60B9942B/612C0B5C" Ref="#PWR0135"  Part="1" 
AR Path="/60B99431/612C0B5C" Ref="#PWR0132"  Part="1" 
F 0 "#PWR0138" H 4800 4350 50  0001 C CNN
F 1 "GND" H 4805 4427 50  0000 C CNN
F 2 "" H 4800 4600 50  0001 C CNN
F 3 "" H 4800 4600 50  0001 C CNN
	1    4800 4600
	1    0    0    -1  
$EndComp
Wire Wire Line
	4800 4600 4800 4450
Wire Wire Line
	5050 4600 5050 4500
$Comp
L power:GND #PWR?
U 1 1 612C0B6D
P 5050 4600
AR Path="/612C0B6D" Ref="#PWR?"  Part="1" 
AR Path="/698A2E9A/612C0B6D" Ref="#PWR?"  Part="1" 
AR Path="/5CF802FC/612C0B6D" Ref="#PWR?"  Part="1" 
AR Path="/697F25D5/612C0B6D" Ref="#PWR?"  Part="1" 
AR Path="/60299051/612C0B6D" Ref="#PWR?"  Part="1" 
AR Path="/62863B64/612C0B6D" Ref="#PWR?"  Part="1" 
AR Path="/60EBFB95/612C0B6D" Ref="#PWR?"  Part="1" 
AR Path="/612BBFB4/612C0B6D" Ref="#PWR?"  Part="1" 
AR Path="/612C8AD4/612C0B6D" Ref="#PWR0124"  Part="1" 
AR Path="/612C96BD/612C0B6D" Ref="#PWR0127"  Part="1" 
AR Path="/612CBD47/612C0B6D" Ref="#PWR0139"  Part="1" 
AR Path="/612CBD5E/612C0B6D" Ref="#PWR0130"  Part="1" 
AR Path="/60B9942B/612C0B6D" Ref="#PWR0136"  Part="1" 
AR Path="/60B99431/612C0B6D" Ref="#PWR0133"  Part="1" 
F 0 "#PWR0139" H 5050 4350 50  0001 C CNN
F 1 "GND" H 5055 4427 50  0000 C CNN
F 2 "" H 5050 4600 50  0001 C CNN
F 3 "" H 5050 4600 50  0001 C CNN
	1    5050 4600
	1    0    0    -1  
$EndComp
$Comp
L !ht3_diode:SUPPRESSOR-UNI D?
U 1 1 612C0B73
P 4800 4350
AR Path="/612C0B73" Ref="D?"  Part="1" 
AR Path="/5E6509AE/612C0B73" Ref="D?"  Part="1" 
AR Path="/5D0EB132/612C0B73" Ref="D?"  Part="1" 
AR Path="/5CF802FC/612C0B73" Ref="D?"  Part="1" 
AR Path="/697F25D5/612C0B73" Ref="D?"  Part="1" 
AR Path="/60299051/612C0B73" Ref="D?"  Part="1" 
AR Path="/62863B64/612C0B73" Ref="D?"  Part="1" 
AR Path="/60EBFB95/612C0B73" Ref="D?"  Part="1" 
AR Path="/612BBFB4/612C0B73" Ref="D?"  Part="1" 
AR Path="/612C8AD4/612C0B73" Ref="D31"  Part="1" 
AR Path="/612C96BD/612C0B73" Ref="D34"  Part="1" 
AR Path="/612CBD47/612C0B73" Ref="D46"  Part="1" 
AR Path="/612CBD5E/612C0B73" Ref="D37"  Part="1" 
AR Path="/60B9942B/612C0B73" Ref="D43"  Part="1" 
AR Path="/60B99431/612C0B73" Ref="D40"  Part="1" 
F 0 "D46" V 4750 4150 45  0000 L CNN
F 1 "BZX384-B3V3.115" V 4750 4450 45  0000 L CNN
F 2 "!ht3_diode:D_SOD-323F" H 4830 4500 20  0001 C CNN
F 3 "" H 4800 4350 50  0001 C CNN
F 4 "00-00054413" V 4800 4350 50  0001 C CNN "Field4"
	1    4800 4350
	1    0    0    -1  
$EndComp
Text HLabel 4950 2900 0    50   Input ~ 0
+3.3V
Wire Wire Line
	5050 3100 5050 2900
Wire Wire Line
	5050 2900 4950 2900
$Comp
L !ht3_passive:R R?
U 1 1 612C0BA1
P 3650 3600
AR Path="/600B9C6A/612C0BA1" Ref="R?"  Part="1" 
AR Path="/5FF89635/612C0BA1" Ref="R?"  Part="1" 
AR Path="/60EBFB95/612C0BA1" Ref="R?"  Part="1" 
AR Path="/612BBFB4/612C0BA1" Ref="R?"  Part="1" 
AR Path="/612C8AD4/612C0BA1" Ref="R69"  Part="1" 
AR Path="/612C96BD/612C0BA1" Ref="R71"  Part="1" 
AR Path="/612CBD47/612C0BA1" Ref="R79"  Part="1" 
AR Path="/612CBD5E/612C0BA1" Ref="R73"  Part="1" 
AR Path="/60B9942B/612C0BA1" Ref="R77"  Part="1" 
AR Path="/60B99431/612C0BA1" Ref="R75"  Part="1" 
F 0 "R79" H 3650 3500 45  0000 C CNN
F 1 "100/0603" H 3650 3700 45  0000 C CNN
F 2 "!ht3_smd:R_0603(1608)" H 3680 3750 20  0001 C CNN
F 3 "" H 3650 3600 50  0001 C CNN
F 4 "C269701" H 3650 3600 50  0001 C CNN "LCSC"
	1    3650 3600
	-1   0    0    1   
$EndComp
Text HLabel 3300 3600 0    50   Input ~ 0
IN
Text HLabel 5850 3600 2    50   Input ~ 0
OUT
$Comp
L !ht3_diode:SUPPRESSOR-UNI D33
U 1 1 605F2273
P 4000 4350
AR Path="/612C96BD/605F2273" Ref="D33"  Part="1" 
AR Path="/612C8AD4/605F2273" Ref="D30"  Part="1" 
AR Path="/612CBD5E/605F2273" Ref="D36"  Part="1" 
AR Path="/60B99431/605F2273" Ref="D39"  Part="1" 
AR Path="/60B9942B/605F2273" Ref="D42"  Part="1" 
AR Path="/612CBD47/605F2273" Ref="D45"  Part="1" 
F 0 "D45" H 4078 4392 45  0000 L CNN
F 1 "ESD5Z5.0T1G" H 4078 4308 45  0000 L CNN
F 2 "!ht3_diode:D_SOD-523" H 4030 4500 20  0001 C CNN
F 3 "" H 4000 4350 50  0001 C CNN
	1    4000 4350
	1    0    0    -1  
$EndComp
$Comp
L power:GND #PWR?
U 1 1 605F2B4E
P 4000 4600
AR Path="/605F2B4E" Ref="#PWR?"  Part="1" 
AR Path="/61CC7676/605F2B4E" Ref="#PWR?"  Part="1" 
AR Path="/60EBFB95/605F2B4E" Ref="#PWR?"  Part="1" 
AR Path="/612BBFB4/605F2B4E" Ref="#PWR?"  Part="1" 
AR Path="/612C8AD4/605F2B4E" Ref="#PWR0122"  Part="1" 
AR Path="/612C96BD/605F2B4E" Ref="#PWR0125"  Part="1" 
AR Path="/612CBD47/605F2B4E" Ref="#PWR0137"  Part="1" 
AR Path="/612CBD5E/605F2B4E" Ref="#PWR0128"  Part="1" 
AR Path="/60B9942B/605F2B4E" Ref="#PWR0134"  Part="1" 
AR Path="/60B99431/605F2B4E" Ref="#PWR0131"  Part="1" 
F 0 "#PWR0137" H 4000 4350 50  0001 C CNN
F 1 "GND" H 4005 4427 50  0000 C CNN
F 2 "" H 4000 4600 50  0001 C CNN
F 3 "" H 4000 4600 50  0001 C CNN
	1    4000 4600
	1    0    0    -1  
$EndComp
Wire Wire Line
	4000 4600 4000 4450
Wire Wire Line
	4000 4250 4000 3600
Connection ~ 4800 3600
$Comp
L !ht3_passive:C C?
U 1 1 612C0B56
P 5050 4300
AR Path="/612C0B56" Ref="C?"  Part="1" 
AR Path="/61CC7676/612C0B56" Ref="C?"  Part="1" 
AR Path="/60EBFB95/612C0B56" Ref="C?"  Part="1" 
AR Path="/612BBFB4/612C0B56" Ref="C?"  Part="1" 
AR Path="/612C8AD4/612C0B56" Ref="C43"  Part="1" 
AR Path="/612C96BD/612C0B56" Ref="C44"  Part="1" 
AR Path="/612CBD47/612C0B56" Ref="C48"  Part="1" 
AR Path="/612CBD5E/612C0B56" Ref="C45"  Part="1" 
AR Path="/60B9942B/612C0B56" Ref="C47"  Part="1" 
AR Path="/60B99431/612C0B56" Ref="C46"  Part="1" 
F 0 "C48" V 5000 4050 45  0000 L CNN
F 1 "10n/0603" V 5000 4300 45  0000 L CNN
F 2 "!ht3_smd:C_0603(1608)" H 5080 4450 20  0001 C CNN
F 3 "" H 5050 4300 50  0001 C CNN
F 4 "C30926" H 5050 4300 50  0001 C CNN "LCSC"
	1    5050 4300
	1    0    0    -1  
$EndComp
Wire Wire Line
	4800 3600 4800 4250
Wire Wire Line
	4800 3600 5050 3600
Wire Wire Line
	5050 4200 5050 3600
Connection ~ 5050 3600
Wire Wire Line
	5050 3400 5050 3600
Wire Wire Line
	5050 3600 5850 3600
Wire Wire Line
	4450 3600 4800 3600
Connection ~ 4000 3600
Wire Wire Line
	3800 3600 4000 3600
$Comp
L !ht3_diode:DIODE D?
U 1 1 612C0B90
P 4350 3600
AR Path="/60EBFB95/612C0B90" Ref="D?"  Part="1" 
AR Path="/612BBFB4/612C0B90" Ref="D?"  Part="1" 
AR Path="/612C8AD4/612C0B90" Ref="D29"  Part="1" 
AR Path="/612C96BD/612C0B90" Ref="D32"  Part="1" 
AR Path="/612CBD47/612C0B90" Ref="D44"  Part="1" 
AR Path="/612CBD5E/612C0B90" Ref="D35"  Part="1" 
AR Path="/60B9942B/612C0B90" Ref="D41"  Part="1" 
AR Path="/60B99431/612C0B90" Ref="D38"  Part="1" 
F 0 "D44" H 4350 3500 45  0000 C CNN
F 1 "1N4148W" H 4350 3750 45  0000 C CNN
F 2 "!ht3_diode:D_SOD-123" H 4380 3750 20  0001 C CNN
F 3 "" H 4350 3600 50  0001 C CNN
F 4 "00-00058874" H 4350 3600 50  0001 C CNN "Field4"
	1    4350 3600
	-1   0    0    1   
$EndComp
Wire Wire Line
	3500 3600 3300 3600
Wire Wire Line
	4000 3600 4250 3600
$EndSCHEMATC
