EESchema Schematic File Version 4
EELAYER 30 0
EELAYER END
$Descr A4 8268 11693 portrait
encoding utf-8
Sheet 3 10
Title ""
Date "2021-03-25"
Rev "V_A.0"
Comp "THI"
Comment1 ""
Comment2 "HT3H5796-12"
Comment3 "HT3H5796-5"
Comment4 "HT3H5796-1"
$EndDescr
$Comp
L !ht3_passive:R R?
U 1 1 62897BCB
P 5050 2850
AR Path="/62897BCB" Ref="R?"  Part="1" 
AR Path="/62861DD1/62897BCB" Ref="R38"  Part="1" 
F 0 "R38" H 4850 2900 45  0000 C CNN
F 1 "2/0603" H 5350 2900 45  0000 C CNN
F 2 "!ht3_smd:R_0603(1608)" H 5080 3000 20  0001 C CNN
F 3 "" H 5050 2850 50  0001 C CNN
F 4 "C23186" H 5050 2850 50  0001 C CNN "LCSC"
	1    5050 2850
	1    0    0    -1  
$EndComp
$Comp
L !ht3_passive:R R?
U 1 1 62897C76
P 5050 2750
AR Path="/62897C76" Ref="R?"  Part="1" 
AR Path="/62861DD1/62897C76" Ref="R37"  Part="1" 
F 0 "R37" H 4850 2800 45  0000 C CNN
F 1 "2/0603" H 5350 2800 45  0000 C CNN
F 2 "!ht3_smd:R_0603(1608)" H 5080 2900 20  0001 C CNN
F 3 "" H 5050 2750 50  0001 C CNN
F 4 "C23186" H 5050 2750 50  0001 C CNN "LCSC"
	1    5050 2750
	1    0    0    -1  
$EndComp
$Comp
L !ht3_ic:P82B715 U6
U 1 1 60907BDF
P 2800 2550
F 0 "U6" H 3100 2704 45  0000 C CNN
F 1 "P82B715" H 3100 2620 45  0000 C CNN
F 2 "!ht3_smd:SOIC-8_3.9x4.9mm_P1.27mm" H 2830 2700 20  0001 C CNN
F 3 "" H 2800 2550 50  0001 C CNN
	1    2800 2550
	1    0    0    -1  
$EndComp
Text HLabel 2400 950  0    50   Input ~ 0
+5V
Wire Wire Line
	2400 950  2500 950 
Wire Wire Line
	3500 2650 3950 2650
Wire Wire Line
	3950 3000 3950 2650
$Comp
L power:GND #PWR?
U 1 1 6090C456
P 3950 3350
AR Path="/6090C456" Ref="#PWR?"  Part="1" 
AR Path="/62861DD1/6090C456" Ref="#PWR073"  Part="1" 
F 0 "#PWR073" H 3950 3100 50  0001 C CNN
F 1 "GND" H 3955 3177 50  0000 C CNN
F 2 "" H 3950 3350 50  0001 C CNN
F 3 "" H 3950 3350 50  0001 C CNN
	1    3950 3350
	1    0    0    -1  
$EndComp
Wire Wire Line
	3950 3200 3950 3350
Wire Wire Line
	3500 2750 4200 2750
$Comp
L !ht3_passive:R R?
U 1 1 6090CB75
P 4200 2400
AR Path="/6090CB75" Ref="R?"  Part="1" 
AR Path="/62861DD1/6090CB75" Ref="R35"  Part="1" 
F 0 "R35" H 4000 2450 45  0000 C CNN
F 1 "470/0805" H 4500 2450 45  0000 C CNN
F 2 "!ht3_smd:R_0805(2012)" H 4230 2550 20  0001 C CNN
F 3 "" H 4200 2400 50  0001 C CNN
F 4 "C23186" H 4200 2400 50  0001 C CNN "LCSC"
	1    4200 2400
	0    -1   -1   0   
$EndComp
$Comp
L !ht3_passive:R R?
U 1 1 6090D972
P 4300 2400
AR Path="/6090D972" Ref="R?"  Part="1" 
AR Path="/62861DD1/6090D972" Ref="R36"  Part="1" 
F 0 "R36" H 4100 2450 45  0000 C CNN
F 1 "470/0805" H 4600 2450 45  0000 C CNN
F 2 "!ht3_smd:R_0805(2012)" H 4330 2550 20  0001 C CNN
F 3 "" H 4300 2400 50  0001 C CNN
F 4 "C23186" H 4300 2400 50  0001 C CNN "LCSC"
	1    4300 2400
	0    -1   -1   0   
$EndComp
Wire Wire Line
	4300 2750 4300 2550
Wire Wire Line
	4300 1550 4300 2250
Wire Wire Line
	4200 1550 4200 2250
Wire Wire Line
	3950 2650 3950 1550
Connection ~ 3950 2650
Wire Wire Line
	3950 1550 4200 1550
Text HLabel 2600 2850 0    50   BiDi ~ 0
SDA
Wire Wire Line
	2600 2850 2700 2850
Text HLabel 3600 2850 2    50   BiDi ~ 0
SCL
Wire Wire Line
	3600 2850 3500 2850
$Comp
L power:GND #PWR?
U 1 1 60912839
P 2600 3050
AR Path="/60912839" Ref="#PWR?"  Part="1" 
AR Path="/62861DD1/60912839" Ref="#PWR071"  Part="1" 
F 0 "#PWR071" H 2600 2800 50  0001 C CNN
F 1 "GND" H 2605 2877 50  0000 C CNN
F 2 "" H 2600 3050 50  0001 C CNN
F 3 "" H 2600 3050 50  0001 C CNN
	1    2600 3050
	1    0    0    -1  
$EndComp
Wire Wire Line
	2700 2950 2600 2950
Wire Wire Line
	2600 2950 2600 3050
$Comp
L !ht3_connector:CON-4P X7
U 1 1 6091323A
P 5900 2550
F 0 "X7" H 5900 2600 45  0000 L CNN
F 1 "Molex_KK-254_AE-6410-04A_1x04_P2.54mm_Vertical" H 5850 2000 45  0001 L CNN
F 2 "!ht3_connector:Molex_KK-254_AE-6410-04A_1x04_P2.54mm_Vertical" H 5930 2700 20  0001 C CNN
F 3 "" H 5900 2550 50  0001 C CNN
	1    5900 2550
	1    0    0    -1  
$EndComp
$Comp
L power:GND #PWR?
U 1 1 6091397F
P 5550 3050
AR Path="/6091397F" Ref="#PWR?"  Part="1" 
AR Path="/62861DD1/6091397F" Ref="#PWR072"  Part="1" 
F 0 "#PWR072" H 5550 2800 50  0001 C CNN
F 1 "GND" H 5555 2877 50  0000 C CNN
F 2 "" H 5550 3050 50  0001 C CNN
F 3 "" H 5550 3050 50  0001 C CNN
	1    5550 3050
	1    0    0    -1  
$EndComp
Wire Wire Line
	5800 2950 5550 2950
Wire Wire Line
	5550 2950 5550 3050
Wire Wire Line
	5800 2650 5550 2650
Wire Wire Line
	5800 2750 5200 2750
Wire Wire Line
	5800 2850 5200 2850
Wire Wire Line
	4200 2550 4200 2750
Connection ~ 4200 2750
Wire Wire Line
	4200 2750 4200 2850
Wire Wire Line
	4300 1550 4200 1550
Connection ~ 4200 1550
Wire Wire Line
	2250 2750 2250 3650
Wire Wire Line
	2250 3650 4300 3650
Wire Wire Line
	4300 3650 4300 2750
Wire Wire Line
	2250 2750 2700 2750
Connection ~ 4300 2750
Wire Wire Line
	4900 2850 4500 2850
Wire Wire Line
	4900 2750 4650 2750
$Comp
L !ht3_ic:SHT21 U9
U 1 1 6091B95F
P 5700 6550
F 0 "U9" H 6000 6704 45  0000 C CNN
F 1 "SHT21" H 6000 6620 45  0000 C CNN
F 2 "!ht3_smd:DFN-6-1EP_3x3mm_P1mm_EP1.5x2.4mm" H 5730 6700 20  0001 C CNN
F 3 "" H 5700 6550 50  0001 C CNN
F 4 "Замена под разборку - HTU21D - 00-00048342" H 5700 6550 50  0001 C CNN "Field4"
	1    5700 6550
	1    0    0    -1  
$EndComp
$Comp
L !ht3_diode:SUPPRESSOR-UNI D?
U 1 1 6091DEB2
P 4500 3400
AR Path="/612C96BD/6091DEB2" Ref="D?"  Part="1" 
AR Path="/612C8AD4/6091DEB2" Ref="D?"  Part="1" 
AR Path="/612CBD5E/6091DEB2" Ref="D?"  Part="1" 
AR Path="/60B99431/6091DEB2" Ref="D?"  Part="1" 
AR Path="/60B9942B/6091DEB2" Ref="D?"  Part="1" 
AR Path="/612CBD47/6091DEB2" Ref="D?"  Part="1" 
AR Path="/62861DD1/6091DEB2" Ref="D13"  Part="1" 
F 0 "D13" V 4450 3200 45  0000 L CNN
F 1 "ESD5Z5.0T1G" V 4450 3500 45  0000 L CNN
F 2 "!ht3_diode:D_SOD-523" H 4530 3550 20  0001 C CNN
F 3 "" H 4500 3400 50  0001 C CNN
	1    4500 3400
	1    0    0    -1  
$EndComp
$Comp
L power:GND #PWR?
U 1 1 6091DEB8
P 4500 3650
AR Path="/6091DEB8" Ref="#PWR?"  Part="1" 
AR Path="/61CC7676/6091DEB8" Ref="#PWR?"  Part="1" 
AR Path="/60EBFB95/6091DEB8" Ref="#PWR?"  Part="1" 
AR Path="/612BBFB4/6091DEB8" Ref="#PWR?"  Part="1" 
AR Path="/612C8AD4/6091DEB8" Ref="#PWR?"  Part="1" 
AR Path="/612C96BD/6091DEB8" Ref="#PWR?"  Part="1" 
AR Path="/612CBD47/6091DEB8" Ref="#PWR?"  Part="1" 
AR Path="/612CBD5E/6091DEB8" Ref="#PWR?"  Part="1" 
AR Path="/60B9942B/6091DEB8" Ref="#PWR?"  Part="1" 
AR Path="/60B99431/6091DEB8" Ref="#PWR?"  Part="1" 
AR Path="/62861DD1/6091DEB8" Ref="#PWR074"  Part="1" 
F 0 "#PWR074" H 4500 3400 50  0001 C CNN
F 1 "GND" H 4505 3477 50  0000 C CNN
F 2 "" H 4500 3650 50  0001 C CNN
F 3 "" H 4500 3650 50  0001 C CNN
	1    4500 3650
	1    0    0    -1  
$EndComp
Wire Wire Line
	4500 3650 4500 3500
$Comp
L !ht3_diode:SUPPRESSOR-UNI D?
U 1 1 6091F8E8
P 4500 2550
AR Path="/612C96BD/6091F8E8" Ref="D?"  Part="1" 
AR Path="/612C8AD4/6091F8E8" Ref="D?"  Part="1" 
AR Path="/612CBD5E/6091F8E8" Ref="D?"  Part="1" 
AR Path="/60B99431/6091F8E8" Ref="D?"  Part="1" 
AR Path="/60B9942B/6091F8E8" Ref="D?"  Part="1" 
AR Path="/612CBD47/6091F8E8" Ref="D?"  Part="1" 
AR Path="/62861DD1/6091F8E8" Ref="D10"  Part="1" 
F 0 "D10" V 4450 2350 45  0000 L CNN
F 1 "ESD5Z5.0T1G" V 4450 2650 45  0000 L CNN
F 2 "!ht3_diode:D_SOD-523" H 4530 2700 20  0001 C CNN
F 3 "" H 4500 2550 50  0001 C CNN
	1    4500 2550
	1    0    0    -1  
$EndComp
Wire Wire Line
	4500 3300 4500 2850
Connection ~ 4500 2850
Wire Wire Line
	4500 2850 4200 2850
Wire Wire Line
	4500 2650 4500 2850
$Comp
L !ht3_diode:SUPPRESSOR-UNI D?
U 1 1 60921538
P 4650 2550
AR Path="/612C96BD/60921538" Ref="D?"  Part="1" 
AR Path="/612C8AD4/60921538" Ref="D?"  Part="1" 
AR Path="/612CBD5E/60921538" Ref="D?"  Part="1" 
AR Path="/60B99431/60921538" Ref="D?"  Part="1" 
AR Path="/60B9942B/60921538" Ref="D?"  Part="1" 
AR Path="/612CBD47/60921538" Ref="D?"  Part="1" 
AR Path="/62861DD1/60921538" Ref="D11"  Part="1" 
F 0 "D11" V 4600 2350 45  0000 L CNN
F 1 "ESD5Z5.0T1G" V 4600 2650 45  0000 L CNN
F 2 "!ht3_diode:D_SOD-523" H 4680 2700 20  0001 C CNN
F 3 "" H 4650 2550 50  0001 C CNN
	1    4650 2550
	1    0    0    -1  
$EndComp
$Comp
L !ht3_diode:SUPPRESSOR-UNI D?
U 1 1 60922299
P 4650 3400
AR Path="/612C96BD/60922299" Ref="D?"  Part="1" 
AR Path="/612C8AD4/60922299" Ref="D?"  Part="1" 
AR Path="/612CBD5E/60922299" Ref="D?"  Part="1" 
AR Path="/60B99431/60922299" Ref="D?"  Part="1" 
AR Path="/60B9942B/60922299" Ref="D?"  Part="1" 
AR Path="/612CBD47/60922299" Ref="D?"  Part="1" 
AR Path="/62861DD1/60922299" Ref="D14"  Part="1" 
F 0 "D14" V 4600 3200 45  0000 L CNN
F 1 "ESD5Z5.0T1G" V 4600 3500 45  0000 L CNN
F 2 "!ht3_diode:D_SOD-523" H 4680 3550 20  0001 C CNN
F 3 "" H 4650 3400 50  0001 C CNN
	1    4650 3400
	1    0    0    -1  
$EndComp
$Comp
L power:GND #PWR?
U 1 1 6092229F
P 4650 3650
AR Path="/6092229F" Ref="#PWR?"  Part="1" 
AR Path="/61CC7676/6092229F" Ref="#PWR?"  Part="1" 
AR Path="/60EBFB95/6092229F" Ref="#PWR?"  Part="1" 
AR Path="/612BBFB4/6092229F" Ref="#PWR?"  Part="1" 
AR Path="/612C8AD4/6092229F" Ref="#PWR?"  Part="1" 
AR Path="/612C96BD/6092229F" Ref="#PWR?"  Part="1" 
AR Path="/612CBD47/6092229F" Ref="#PWR?"  Part="1" 
AR Path="/612CBD5E/6092229F" Ref="#PWR?"  Part="1" 
AR Path="/60B9942B/6092229F" Ref="#PWR?"  Part="1" 
AR Path="/60B99431/6092229F" Ref="#PWR?"  Part="1" 
AR Path="/62861DD1/6092229F" Ref="#PWR075"  Part="1" 
F 0 "#PWR075" H 4650 3400 50  0001 C CNN
F 1 "GND" H 4655 3477 50  0000 C CNN
F 2 "" H 4650 3650 50  0001 C CNN
F 3 "" H 4650 3650 50  0001 C CNN
	1    4650 3650
	1    0    0    -1  
$EndComp
Wire Wire Line
	4650 3650 4650 3500
Wire Wire Line
	4650 3300 4650 2750
Connection ~ 4650 2750
Wire Wire Line
	4650 2750 4300 2750
Wire Wire Line
	4650 2650 4650 2750
Wire Wire Line
	4500 2450 4500 1550
Wire Wire Line
	4500 1550 4300 1550
Connection ~ 4300 1550
Wire Wire Line
	4650 2450 4650 1550
Wire Wire Line
	4650 1550 4500 1550
Connection ~ 4500 1550
$Comp
L !ht3_passive:R R?
U 1 1 6092477A
P 5050 1550
AR Path="/6092477A" Ref="R?"  Part="1" 
AR Path="/62861DD1/6092477A" Ref="R33"  Part="1" 
F 0 "R33" H 4850 1600 45  0000 C CNN
F 1 "0/0805" H 5350 1600 45  0000 C CNN
F 2 "!ht3_smd:R_0805(2012)" H 5080 1700 20  0001 C CNN
F 3 "" H 5050 1550 50  0001 C CNN
F 4 "C23186" H 5050 1550 50  0001 C CNN "LCSC"
	1    5050 1550
	1    0    0    -1  
$EndComp
Wire Wire Line
	5200 1550 5550 1550
Wire Wire Line
	5550 1550 5550 2650
Wire Wire Line
	4900 1550 4650 1550
Connection ~ 4650 1550
$Comp
L !ht3_passive:R R?
U 1 1 6093707D
P 2150 6850
AR Path="/6093707D" Ref="R?"  Part="1" 
AR Path="/62861DD1/6093707D" Ref="R46"  Part="1" 
F 0 "R46" H 1950 6900 45  0000 C CNN
F 1 "2/0603" H 2450 6900 45  0000 C CNN
F 2 "!ht3_smd:R_0603(1608)" H 2180 7000 20  0001 C CNN
F 3 "" H 2150 6850 50  0001 C CNN
F 4 "C23186" H 2150 6850 50  0001 C CNN "LCSC"
	1    2150 6850
	1    0    0    -1  
$EndComp
$Comp
L !ht3_passive:R R?
U 1 1 6093708B
P 2150 6750
AR Path="/6093708B" Ref="R?"  Part="1" 
AR Path="/62861DD1/6093708B" Ref="R45"  Part="1" 
F 0 "R45" H 1950 6800 45  0000 C CNN
F 1 "2/0603" H 2450 6800 45  0000 C CNN
F 2 "!ht3_smd:R_0603(1608)" H 2180 6900 20  0001 C CNN
F 3 "" H 2150 6750 50  0001 C CNN
F 4 "C23186" H 2150 6750 50  0001 C CNN "LCSC"
	1    2150 6750
	1    0    0    -1  
$EndComp
Wire Wire Line
	3850 6650 3400 6650
Wire Wire Line
	3400 7000 3400 6650
$Comp
L power:GND #PWR?
U 1 1 6093709F
P 3400 7350
AR Path="/6093709F" Ref="#PWR?"  Part="1" 
AR Path="/62861DD1/6093709F" Ref="#PWR082"  Part="1" 
F 0 "#PWR082" H 3400 7100 50  0001 C CNN
F 1 "GND" H 3405 7177 50  0000 C CNN
F 2 "" H 3400 7350 50  0001 C CNN
F 3 "" H 3400 7350 50  0001 C CNN
	1    3400 7350
	-1   0    0    -1  
$EndComp
Wire Wire Line
	3400 7200 3400 7350
Wire Wire Line
	3850 6750 3150 6750
$Comp
L !ht3_passive:R R?
U 1 1 609370A8
P 3150 6400
AR Path="/609370A8" Ref="R?"  Part="1" 
AR Path="/62861DD1/609370A8" Ref="R44"  Part="1" 
F 0 "R44" H 2950 6450 45  0000 C CNN
F 1 "470/0805" H 3450 6450 45  0000 C CNN
F 2 "!ht3_smd:R_0805(2012)" H 3180 6550 20  0001 C CNN
F 3 "" H 3150 6400 50  0001 C CNN
F 4 "C23186" H 3150 6400 50  0001 C CNN "LCSC"
	1    3150 6400
	0    -1   -1   0   
$EndComp
$Comp
L !ht3_passive:R R?
U 1 1 609370AF
P 3050 6400
AR Path="/609370AF" Ref="R?"  Part="1" 
AR Path="/62861DD1/609370AF" Ref="R43"  Part="1" 
F 0 "R43" H 2850 6450 45  0000 C CNN
F 1 "470/0805" H 3350 6450 45  0000 C CNN
F 2 "!ht3_smd:R_0805(2012)" H 3080 6550 20  0001 C CNN
F 3 "" H 3050 6400 50  0001 C CNN
F 4 "C23186" H 3050 6400 50  0001 C CNN "LCSC"
	1    3050 6400
	0    -1   -1   0   
$EndComp
Wire Wire Line
	3050 6750 3050 6550
Wire Wire Line
	3050 5550 3050 6250
Wire Wire Line
	3150 5550 3150 6250
Wire Wire Line
	3400 6650 3400 5550
Connection ~ 3400 6650
Connection ~ 3400 5550
Wire Wire Line
	3400 5550 3150 5550
Wire Wire Line
	3750 6850 3850 6850
$Comp
L power:GND #PWR?
U 1 1 609370C1
P 4750 7050
AR Path="/609370C1" Ref="#PWR?"  Part="1" 
AR Path="/62861DD1/609370C1" Ref="#PWR079"  Part="1" 
F 0 "#PWR079" H 4750 6800 50  0001 C CNN
F 1 "GND" H 4755 6877 50  0000 C CNN
F 2 "" H 4750 7050 50  0001 C CNN
F 3 "" H 4750 7050 50  0001 C CNN
	1    4750 7050
	-1   0    0    -1  
$EndComp
Wire Wire Line
	4650 6950 4750 6950
Wire Wire Line
	4750 6950 4750 7050
$Comp
L power:GND #PWR?
U 1 1 609370CF
P 1800 7050
AR Path="/609370CF" Ref="#PWR?"  Part="1" 
AR Path="/62861DD1/609370CF" Ref="#PWR078"  Part="1" 
F 0 "#PWR078" H 1800 6800 50  0001 C CNN
F 1 "GND" H 1805 6877 50  0000 C CNN
F 2 "" H 1800 7050 50  0001 C CNN
F 3 "" H 1800 7050 50  0001 C CNN
	1    1800 7050
	-1   0    0    -1  
$EndComp
Wire Wire Line
	1800 6950 1800 7050
Wire Wire Line
	3150 6550 3150 6750
Connection ~ 3150 6750
Wire Wire Line
	3150 6750 3150 6850
Wire Wire Line
	3050 5550 3150 5550
Connection ~ 3150 5550
Wire Wire Line
	5100 6750 5100 7650
Wire Wire Line
	5100 7650 3050 7650
Wire Wire Line
	3050 7650 3050 6750
Wire Wire Line
	5100 6750 4650 6750
Connection ~ 3050 6750
Wire Wire Line
	2300 6850 2850 6850
Wire Wire Line
	2300 6750 2700 6750
$Comp
L !ht3_diode:SUPPRESSOR-UNI D?
U 1 1 609370E6
P 2850 7400
AR Path="/612C96BD/609370E6" Ref="D?"  Part="1" 
AR Path="/612C8AD4/609370E6" Ref="D?"  Part="1" 
AR Path="/612CBD5E/609370E6" Ref="D?"  Part="1" 
AR Path="/60B99431/609370E6" Ref="D?"  Part="1" 
AR Path="/60B9942B/609370E6" Ref="D?"  Part="1" 
AR Path="/612CBD47/609370E6" Ref="D?"  Part="1" 
AR Path="/62861DD1/609370E6" Ref="D20"  Part="1" 
F 0 "D20" V 2800 7200 45  0000 L CNN
F 1 "ESD5Z5.0T1G" V 2800 7500 45  0000 L CNN
F 2 "!ht3_diode:D_SOD-523" H 2880 7550 20  0001 C CNN
F 3 "" H 2850 7400 50  0001 C CNN
	1    2850 7400
	1    0    0    -1  
$EndComp
$Comp
L power:GND #PWR?
U 1 1 609370EC
P 2850 7650
AR Path="/609370EC" Ref="#PWR?"  Part="1" 
AR Path="/61CC7676/609370EC" Ref="#PWR?"  Part="1" 
AR Path="/60EBFB95/609370EC" Ref="#PWR?"  Part="1" 
AR Path="/612BBFB4/609370EC" Ref="#PWR?"  Part="1" 
AR Path="/612C8AD4/609370EC" Ref="#PWR?"  Part="1" 
AR Path="/612C96BD/609370EC" Ref="#PWR?"  Part="1" 
AR Path="/612CBD47/609370EC" Ref="#PWR?"  Part="1" 
AR Path="/612CBD5E/609370EC" Ref="#PWR?"  Part="1" 
AR Path="/60B9942B/609370EC" Ref="#PWR?"  Part="1" 
AR Path="/60B99431/609370EC" Ref="#PWR?"  Part="1" 
AR Path="/62861DD1/609370EC" Ref="#PWR084"  Part="1" 
F 0 "#PWR084" H 2850 7400 50  0001 C CNN
F 1 "GND" H 2855 7477 50  0000 C CNN
F 2 "" H 2850 7650 50  0001 C CNN
F 3 "" H 2850 7650 50  0001 C CNN
	1    2850 7650
	-1   0    0    -1  
$EndComp
Wire Wire Line
	2850 7650 2850 7500
$Comp
L !ht3_diode:SUPPRESSOR-UNI D?
U 1 1 609370F3
P 2850 6550
AR Path="/612C96BD/609370F3" Ref="D?"  Part="1" 
AR Path="/612C8AD4/609370F3" Ref="D?"  Part="1" 
AR Path="/612CBD5E/609370F3" Ref="D?"  Part="1" 
AR Path="/60B99431/609370F3" Ref="D?"  Part="1" 
AR Path="/60B9942B/609370F3" Ref="D?"  Part="1" 
AR Path="/612CBD47/609370F3" Ref="D?"  Part="1" 
AR Path="/62861DD1/609370F3" Ref="D17"  Part="1" 
F 0 "D17" V 2800 6350 45  0000 L CNN
F 1 "ESD5Z5.0T1G" V 2800 6650 45  0000 L CNN
F 2 "!ht3_diode:D_SOD-523" H 2880 6700 20  0001 C CNN
F 3 "" H 2850 6550 50  0001 C CNN
	1    2850 6550
	1    0    0    -1  
$EndComp
Wire Wire Line
	2850 7300 2850 6850
Connection ~ 2850 6850
Wire Wire Line
	2850 6850 3150 6850
Wire Wire Line
	2850 6650 2850 6850
$Comp
L !ht3_diode:SUPPRESSOR-UNI D?
U 1 1 609370FD
P 2700 6550
AR Path="/612C96BD/609370FD" Ref="D?"  Part="1" 
AR Path="/612C8AD4/609370FD" Ref="D?"  Part="1" 
AR Path="/612CBD5E/609370FD" Ref="D?"  Part="1" 
AR Path="/60B99431/609370FD" Ref="D?"  Part="1" 
AR Path="/60B9942B/609370FD" Ref="D?"  Part="1" 
AR Path="/612CBD47/609370FD" Ref="D?"  Part="1" 
AR Path="/62861DD1/609370FD" Ref="D16"  Part="1" 
F 0 "D16" V 2650 6350 45  0000 L CNN
F 1 "ESD5Z5.0T1G" V 2650 6650 45  0000 L CNN
F 2 "!ht3_diode:D_SOD-523" H 2730 6700 20  0001 C CNN
F 3 "" H 2700 6550 50  0001 C CNN
	1    2700 6550
	1    0    0    -1  
$EndComp
$Comp
L !ht3_diode:SUPPRESSOR-UNI D?
U 1 1 60937103
P 2700 7400
AR Path="/612C96BD/60937103" Ref="D?"  Part="1" 
AR Path="/612C8AD4/60937103" Ref="D?"  Part="1" 
AR Path="/612CBD5E/60937103" Ref="D?"  Part="1" 
AR Path="/60B99431/60937103" Ref="D?"  Part="1" 
AR Path="/60B9942B/60937103" Ref="D?"  Part="1" 
AR Path="/612CBD47/60937103" Ref="D?"  Part="1" 
AR Path="/62861DD1/60937103" Ref="D19"  Part="1" 
F 0 "D19" V 2650 7200 45  0000 L CNN
F 1 "ESD5Z5.0T1G" V 2650 7500 45  0000 L CNN
F 2 "!ht3_diode:D_SOD-523" H 2730 7550 20  0001 C CNN
F 3 "" H 2700 7400 50  0001 C CNN
	1    2700 7400
	1    0    0    -1  
$EndComp
$Comp
L power:GND #PWR?
U 1 1 60937109
P 2700 7650
AR Path="/60937109" Ref="#PWR?"  Part="1" 
AR Path="/61CC7676/60937109" Ref="#PWR?"  Part="1" 
AR Path="/60EBFB95/60937109" Ref="#PWR?"  Part="1" 
AR Path="/612BBFB4/60937109" Ref="#PWR?"  Part="1" 
AR Path="/612C8AD4/60937109" Ref="#PWR?"  Part="1" 
AR Path="/612C96BD/60937109" Ref="#PWR?"  Part="1" 
AR Path="/612CBD47/60937109" Ref="#PWR?"  Part="1" 
AR Path="/612CBD5E/60937109" Ref="#PWR?"  Part="1" 
AR Path="/60B9942B/60937109" Ref="#PWR?"  Part="1" 
AR Path="/60B99431/60937109" Ref="#PWR?"  Part="1" 
AR Path="/62861DD1/60937109" Ref="#PWR083"  Part="1" 
F 0 "#PWR083" H 2700 7400 50  0001 C CNN
F 1 "GND" H 2705 7477 50  0000 C CNN
F 2 "" H 2700 7650 50  0001 C CNN
F 3 "" H 2700 7650 50  0001 C CNN
	1    2700 7650
	-1   0    0    -1  
$EndComp
Wire Wire Line
	2700 7650 2700 7500
Wire Wire Line
	2700 7300 2700 6750
Connection ~ 2700 6750
Wire Wire Line
	2700 6750 3050 6750
Wire Wire Line
	2700 6650 2700 6750
Wire Wire Line
	2850 6450 2850 5550
Wire Wire Line
	2850 5550 3050 5550
Connection ~ 3050 5550
Wire Wire Line
	2700 6450 2700 5550
Wire Wire Line
	2700 5550 2850 5550
Connection ~ 2850 5550
$Comp
L !ht3_passive:R R?
U 1 1 6093711B
P 2050 5550
AR Path="/6093711B" Ref="R?"  Part="1" 
AR Path="/62861DD1/6093711B" Ref="R39"  Part="1" 
F 0 "R39" H 1850 5600 45  0000 C CNN
F 1 "1/0805" H 2350 5600 45  0000 C CNN
F 2 "!ht3_smd:R_0805(2012)" H 2080 5700 20  0001 C CNN
F 3 "" H 2050 5550 50  0001 C CNN
F 4 "C23186" H 2050 5550 50  0001 C CNN "LCSC"
	1    2050 5550
	1    0    0    -1  
$EndComp
Wire Wire Line
	1900 5550 1800 5550
Wire Wire Line
	1800 5550 1800 6650
Wire Wire Line
	2200 5550 2700 5550
Connection ~ 2700 5550
$Comp
L power:GND #PWR?
U 1 1 609506C6
P 6000 7150
AR Path="/609506C6" Ref="#PWR?"  Part="1" 
AR Path="/62861DD1/609506C6" Ref="#PWR081"  Part="1" 
F 0 "#PWR081" H 6000 6900 50  0001 C CNN
F 1 "GND" H 6005 6977 50  0000 C CNN
F 2 "" H 6000 7150 50  0001 C CNN
F 3 "" H 6000 7150 50  0001 C CNN
	1    6000 7150
	-1   0    0    -1  
$EndComp
Wire Wire Line
	6000 7150 6000 7050
$Comp
L !ht3_passive:R R?
U 1 1 609560CB
P 5500 6300
AR Path="/609560CB" Ref="R?"  Part="1" 
AR Path="/62861DD1/609560CB" Ref="R41"  Part="1" 
F 0 "R41" H 5300 6350 45  0000 C CNN
F 1 "4.7K/0603" H 5800 6350 45  0000 C CNN
F 2 "!ht3_smd:R_0603(1608)" H 5530 6450 20  0001 C CNN
F 3 "" H 5500 6300 50  0001 C CNN
F 4 "C23186" H 5500 6300 50  0001 C CNN "LCSC"
	1    5500 6300
	0    -1   -1   0   
$EndComp
Wire Wire Line
	5500 6650 5500 6450
Wire Wire Line
	6500 6450 6500 6650
$Comp
L !ht3_passive:R R?
U 1 1 6095A255
P 6500 6300
AR Path="/6095A255" Ref="R?"  Part="1" 
AR Path="/62861DD1/6095A255" Ref="R42"  Part="1" 
F 0 "R42" H 6300 6350 45  0000 C CNN
F 1 "4.7K/0603" H 6800 6350 45  0000 C CNN
F 2 "!ht3_smd:R_0603(1608)" H 6530 6450 20  0001 C CNN
F 3 "" H 6500 6300 50  0001 C CNN
F 4 "C23186" H 6500 6300 50  0001 C CNN "LCSC"
	1    6500 6300
	0    -1   -1   0   
$EndComp
Wire Wire Line
	6400 6650 6500 6650
Wire Wire Line
	5600 6650 5500 6650
$Comp
L power:GND #PWR?
U 1 1 6095EA5A
P 5500 7150
AR Path="/6095EA5A" Ref="#PWR?"  Part="1" 
AR Path="/62861DD1/6095EA5A" Ref="#PWR080"  Part="1" 
F 0 "#PWR080" H 5500 6900 50  0001 C CNN
F 1 "GND" H 5505 6977 50  0000 C CNN
F 2 "" H 5500 7150 50  0001 C CNN
F 3 "" H 5500 7150 50  0001 C CNN
	1    5500 7150
	-1   0    0    -1  
$EndComp
Wire Wire Line
	5600 6750 5500 6750
Wire Wire Line
	5500 6750 5500 7150
Wire Wire Line
	5300 5950 5300 6050
Wire Wire Line
	4100 5950 4100 6050
Wire Wire Line
	5300 5550 5300 5650
Wire Wire Line
	4100 5550 4100 5650
$Comp
L !ht3_ic:MCP1703-SOT23 U?
U 1 1 6096F75B
P 4400 5450
AR Path="/60EE5585/6096F75B" Ref="U?"  Part="1" 
AR Path="/62863B64/6096F75B" Ref="U?"  Part="1" 
AR Path="/62861DD1/6096F75B" Ref="U7"  Part="1" 
F 0 "U7" H 4700 5604 45  0000 C CNN
F 1 "MCP1703-3.3V" H 4700 5520 45  0000 C CNN
F 2 "!ht3_smd:SOT-23" H 4430 5600 20  0001 C CNN
F 3 "" H 4400 5450 50  0001 C CNN
F 4 "C347376" H 4400 5450 50  0001 C CNN "LCSC"
F 5 "00-00027924" H 4400 5450 50  0001 C CNN "Field5"
	1    4400 5450
	1    0    0    -1  
$EndComp
$Comp
L !ht3_passive:C C?
U 1 1 6096F762
P 4100 5750
AR Path="/60EE5585/6096F762" Ref="C?"  Part="1" 
AR Path="/62863B64/6096F762" Ref="C?"  Part="1" 
AR Path="/62861DD1/6096F762" Ref="C21"  Part="1" 
F 0 "C21" H 4150 5800 45  0000 L CNN
F 1 "4.7u/16V/0805" H 4100 5550 45  0000 L CNN
F 2 "!ht3_smd:C_0805(2012)" H 4130 5900 20  0001 C CNN
F 3 "" H 4100 5750 50  0001 C CNN
F 4 "C408144" H 4100 5750 50  0001 C CNN "LCSC"
	1    4100 5750
	1    0    0    -1  
$EndComp
Wire Wire Line
	4100 6050 4700 6050
Wire Wire Line
	5300 6050 4700 6050
Connection ~ 4700 6050
$Comp
L power:GND #PWR?
U 1 1 6096F76B
P 4700 6150
AR Path="/60EE5585/6096F76B" Ref="#PWR?"  Part="1" 
AR Path="/62863B64/6096F76B" Ref="#PWR?"  Part="1" 
AR Path="/62861DD1/6096F76B" Ref="#PWR076"  Part="1" 
F 0 "#PWR076" H 4700 5900 50  0001 C CNN
F 1 "GND" H 4705 5977 50  0000 C CNN
F 2 "" H 4700 6150 50  0001 C CNN
F 3 "" H 4700 6150 50  0001 C CNN
	1    4700 6150
	1    0    0    -1  
$EndComp
Wire Wire Line
	4700 6050 4700 6150
Wire Wire Line
	4700 5950 4700 6050
Wire Wire Line
	4100 5550 4300 5550
Wire Wire Line
	5100 5550 5300 5550
$Comp
L !ht3_passive:C C?
U 1 1 6096F777
P 5300 5750
AR Path="/60EE5585/6096F777" Ref="C?"  Part="1" 
AR Path="/62863B64/6096F777" Ref="C?"  Part="1" 
AR Path="/62861DD1/6096F777" Ref="C22"  Part="1" 
F 0 "C22" H 5150 5800 45  0000 L CNN
F 1 "4.7u/16V/0805" H 4750 5550 45  0000 L CNN
F 2 "!ht3_smd:C_0805(2012)" H 5330 5900 20  0001 C CNN
F 3 "" H 5300 5750 50  0001 C CNN
F 4 "C408144" H 5300 5750 50  0001 C CNN "LCSC"
	1    5300 5750
	1    0    0    -1  
$EndComp
Wire Wire Line
	5300 5550 5500 5550
Wire Wire Line
	5500 5550 5500 6150
Connection ~ 5300 5550
Wire Wire Line
	5500 5550 6500 5550
Wire Wire Line
	6500 5550 6500 6150
Connection ~ 5500 5550
Wire Wire Line
	6400 6750 6750 6750
Wire Wire Line
	6750 6750 6750 5550
Wire Wire Line
	6750 5550 6500 5550
Connection ~ 6500 5550
Wire Wire Line
	3400 5550 4100 5550
Connection ~ 4100 5550
$Comp
L power:PWR_FLAG #FLG08
U 1 1 60990976
P 2700 5450
F 0 "#FLG08" H 2700 5525 50  0001 C CNN
F 1 "PWR_FLAG" H 2700 5623 50  0000 C CNN
F 2 "" H 2700 5450 50  0001 C CNN
F 3 "~" H 2700 5450 50  0001 C CNN
	1    2700 5450
	1    0    0    -1  
$EndComp
Wire Wire Line
	2700 5450 2700 5550
Text Label 3500 5550 0    50   ~ 0
+5V_SENS
Wire Bus Line
	950  6800 950  4450
Wire Bus Line
	950  4450 6600 4450
Wire Bus Line
	6600 4450 6600 2800
Wire Bus Line
	6600 2800 6100 2800
Text Notes 2850 4400 0    50   ~ 0
CAT5 max 5 meters!
Wire Wire Line
	5350 6850 5350 6650
Wire Wire Line
	5350 6650 5500 6650
Wire Wire Line
	4650 6850 5350 6850
Connection ~ 5500 6650
Wire Wire Line
	3750 6850 3750 7500
Wire Wire Line
	3750 7500 6500 7500
Wire Wire Line
	6500 7500 6500 6650
Connection ~ 6500 6650
Text Label 4750 6850 0    50   ~ 0
SDA_S
Text Label 3850 7500 0    50   ~ 0
SCL_S
$Comp
L !ht3_passive:R R?
U 1 1 6066EBE3
P 2750 1250
AR Path="/600B9C6A/6066EBE3" Ref="R?"  Part="1" 
AR Path="/5FF89635/6066EBE3" Ref="R?"  Part="1" 
AR Path="/60EE5585/6066EBE3" Ref="R?"  Part="1" 
AR Path="/62863B64/6066EBE3" Ref="R?"  Part="1" 
AR Path="/62861DD1/6066EBE3" Ref="R32"  Part="1" 
AR Path="/61CC7676/6066EBE3" Ref="R?"  Part="1" 
F 0 "R32" H 2750 1150 45  0000 C CNN
F 1 "100K/0603" H 2750 1350 45  0000 C CNN
F 2 "!ht3_smd:R_0603(1608)" H 2780 1400 20  0001 C CNN
F 3 "" H 2750 1250 50  0001 C CNN
F 4 "C100048" H 2750 1250 50  0001 C CNN "LCSC"
	1    2750 1250
	-1   0    0    1   
$EndComp
Wire Wire Line
	2600 1250 2500 1250
Wire Wire Line
	2800 1650 2800 1750
Wire Wire Line
	2900 1650 2800 1650
Wire Wire Line
	2800 1650 2700 1650
Connection ~ 2800 1650
Wire Wire Line
	2800 2150 2800 2050
$Comp
L power:GND #PWR?
U 1 1 6066EBEF
P 2800 2150
AR Path="/600B9C6A/6066EBEF" Ref="#PWR?"  Part="1" 
AR Path="/5FF89635/6066EBEF" Ref="#PWR?"  Part="1" 
AR Path="/60EE5585/6066EBEF" Ref="#PWR?"  Part="1" 
AR Path="/62863B64/6066EBEF" Ref="#PWR?"  Part="1" 
AR Path="/62861DD1/6066EBEF" Ref="#PWR070"  Part="1" 
AR Path="/61CC7676/6066EBEF" Ref="#PWR?"  Part="1" 
F 0 "#PWR070" H 2800 1900 50  0001 C CNN
F 1 "GND" H 2805 1977 50  0000 C CNN
F 2 "" H 2800 2150 50  0001 C CNN
F 3 "" H 2800 2150 50  0001 C CNN
	1    2800 2150
	1    0    0    -1  
$EndComp
$Comp
L !ht3_passive:R R?
U 1 1 6066EBF6
P 2800 1900
AR Path="/600B9C6A/6066EBF6" Ref="R?"  Part="1" 
AR Path="/5FF89635/6066EBF6" Ref="R?"  Part="1" 
AR Path="/60EE5585/6066EBF6" Ref="R?"  Part="1" 
AR Path="/62863B64/6066EBF6" Ref="R?"  Part="1" 
AR Path="/62861DD1/6066EBF6" Ref="R34"  Part="1" 
AR Path="/61CC7676/6066EBF6" Ref="R?"  Part="1" 
F 0 "R34" H 2800 1800 45  0000 C CNN
F 1 "10K/0603" H 2800 2000 45  0000 C CNN
F 2 "!ht3_smd:R_0603(1608)" H 2830 2050 20  0001 C CNN
F 3 "" H 2800 1900 50  0001 C CNN
F 4 "C269701" H 2800 1900 50  0001 C CNN "LCSC"
	1    2800 1900
	0    1    1    0   
$EndComp
Wire Wire Line
	3100 1850 3100 1750
$Comp
L power:GND #PWR?
U 1 1 6066EBFD
P 3100 1850
AR Path="/600B9C6A/6066EBFD" Ref="#PWR?"  Part="1" 
AR Path="/5FF89635/6066EBFD" Ref="#PWR?"  Part="1" 
AR Path="/60EE5585/6066EBFD" Ref="#PWR?"  Part="1" 
AR Path="/62863B64/6066EBFD" Ref="#PWR?"  Part="1" 
AR Path="/62861DD1/6066EBFD" Ref="#PWR069"  Part="1" 
AR Path="/61CC7676/6066EBFD" Ref="#PWR?"  Part="1" 
F 0 "#PWR069" H 3100 1600 50  0001 C CNN
F 1 "GND" H 3105 1677 50  0000 C CNN
F 2 "" H 3100 1850 50  0001 C CNN
F 3 "" H 3100 1850 50  0001 C CNN
	1    3100 1850
	1    0    0    -1  
$EndComp
$Comp
L !ht3_triode:FDC6420C Q?
U 1 1 6066EC04
P 3200 1050
AR Path="/60EBFB95/6066EC04" Ref="Q?"  Part="1" 
AR Path="/60EE5585/6066EC04" Ref="Q?"  Part="1" 
AR Path="/62863B64/6066EC04" Ref="Q?"  Part="1" 
AR Path="/62861DD1/6066EC04" Ref="Q1"  Part="1" 
AR Path="/61CC7676/6066EC04" Ref="Q?"  Part="1" 
F 0 "Q1" V 3589 1050 45  0000 C CNN
F 1 "FDC6420C" V 3505 1050 45  0000 C CNN
F 2 "!ht3_smd:SOT-23-6" H 3230 1200 20  0001 C CNN
F 3 "" H 3200 1050 50  0001 C CNN
F 4 "C154515" V 3200 1050 50  0001 C CNN "LCSC"
F 5 "00-00045360" V 3200 1050 50  0001 C CNN "Field5"
	1    3200 1050
	0    -1   -1   0   
$EndComp
$Comp
L !ht3_triode:FDC6420C Q?
U 2 1 6066EC0C
P 3000 1550
AR Path="/60EBFB95/6066EC0C" Ref="Q?"  Part="2" 
AR Path="/60EE5585/6066EC0C" Ref="Q?"  Part="2" 
AR Path="/62863B64/6066EC0C" Ref="Q?"  Part="2" 
AR Path="/62861DD1/6066EC0C" Ref="Q1"  Part="2" 
AR Path="/61CC7676/6066EC0C" Ref="Q?"  Part="2" 
F 0 "Q1" H 3263 1592 45  0000 L CNN
F 1 "FDC6420C" H 3263 1508 45  0000 L CNN
F 2 "!ht3_smd:SOT-23-6" H 3030 1700 20  0001 C CNN
F 3 "" H 3000 1550 50  0001 C CNN
F 4 "C154515" H 3000 1550 50  0001 C CNN "LCSC"
F 5 "00-00045360" H 3000 1550 50  0001 C CNN "KOSMODROM"
	2    3000 1550
	1    0    0    -1  
$EndComp
Wire Wire Line
	2900 1250 3100 1250
Wire Wire Line
	3100 1250 3100 1150
Wire Wire Line
	3100 1350 3100 1250
Connection ~ 3100 1250
Wire Wire Line
	2500 950  2500 1250
Connection ~ 2500 950 
Wire Wire Line
	2500 950  3000 950 
Wire Wire Line
	3400 950  4650 950 
Wire Wire Line
	4650 950  4650 1550
Text HLabel 2700 1650 0    50   Input ~ 0
I2C_ON
$Comp
L power:PWR_FLAG #FLG07
U 1 1 60E3B4C2
P 4200 1450
F 0 "#FLG07" H 4200 1525 50  0001 C CNN
F 1 "PWR_FLAG" H 4200 1623 50  0000 C CNN
F 2 "" H 4200 1450 50  0001 C CNN
F 3 "~" H 4200 1450 50  0001 C CNN
	1    4200 1450
	1    0    0    -1  
$EndComp
Wire Wire Line
	4200 1450 4200 1550
$Comp
L !ht3_ic:P82B715 U8
U 1 1 60937091
P 4550 6550
F 0 "U8" H 4850 6704 45  0000 C CNN
F 1 "P82B715" H 4850 6620 45  0000 C CNN
F 2 "!ht3_smd:SOIC-8_3.9x4.9mm_P1.27mm" H 4580 6700 20  0001 C CNN
F 3 "" H 4550 6550 50  0001 C CNN
	1    4550 6550
	-1   0    0    -1  
$EndComp
$Comp
L !ht3_diode:SUPPRESSOR-UNI D?
U 1 1 607CC5BD
P 3400 7100
AR Path="/612C96BD/607CC5BD" Ref="D?"  Part="1" 
AR Path="/612C8AD4/607CC5BD" Ref="D?"  Part="1" 
AR Path="/612CBD5E/607CC5BD" Ref="D?"  Part="1" 
AR Path="/60B99431/607CC5BD" Ref="D?"  Part="1" 
AR Path="/60B9942B/607CC5BD" Ref="D?"  Part="1" 
AR Path="/612CBD47/607CC5BD" Ref="D?"  Part="1" 
AR Path="/62861DD1/607CC5BD" Ref="D18"  Part="1" 
F 0 "D18" V 3350 6900 45  0000 L CNN
F 1 "ESD5Z5.0T1G" V 3350 7200 45  0000 L CNN
F 2 "!ht3_diode:D_SOD-523" H 3430 7250 20  0001 C CNN
F 3 "" H 3400 7100 50  0001 C CNN
	1    3400 7100
	1    0    0    -1  
$EndComp
$Comp
L !ht3_diode:SUPPRESSOR-UNI D?
U 1 1 607CD1C3
P 3950 3100
AR Path="/612C96BD/607CD1C3" Ref="D?"  Part="1" 
AR Path="/612C8AD4/607CD1C3" Ref="D?"  Part="1" 
AR Path="/612CBD5E/607CD1C3" Ref="D?"  Part="1" 
AR Path="/60B99431/607CD1C3" Ref="D?"  Part="1" 
AR Path="/60B9942B/607CD1C3" Ref="D?"  Part="1" 
AR Path="/612CBD47/607CD1C3" Ref="D?"  Part="1" 
AR Path="/62861DD1/607CD1C3" Ref="D12"  Part="1" 
F 0 "D12" V 3900 2900 45  0000 L CNN
F 1 "ESD5Z5.0T1G" V 3900 3200 45  0000 L CNN
F 2 "!ht3_diode:D_SOD-523" H 3980 3250 20  0001 C CNN
F 3 "" H 3950 3100 50  0001 C CNN
	1    3950 3100
	1    0    0    -1  
$EndComp
Text Label 5600 2650 0    50   ~ 0
EPWR
Text Label 5600 2750 0    50   ~ 0
ESDA
Text Label 5600 2850 0    50   ~ 0
ESCL
Text Label 1500 6650 0    50   ~ 0
EPWR
Text Label 1500 6750 0    50   ~ 0
ESDA
Text Label 1500 6850 0    50   ~ 0
ESCL
Wire Bus Line
	1150 6800 950  6800
Wire Wire Line
	1400 6850 2000 6850
Wire Wire Line
	1400 6750 2000 6750
Wire Wire Line
	1400 6650 1800 6650
Wire Wire Line
	1400 6950 1800 6950
$Comp
L !ht3_connector:CON-4P X8
U 1 1 609370C9
P 1300 6550
F 0 "X8" H 1300 6600 45  0000 L CNN
F 1 "Molex_KK-254_AE-6410-04A_1x04_P2.54mm_Vertical" H 1250 6000 45  0001 L CNN
F 2 "!ht3_connector:Molex_KK-254_AE-6410-04A_1x04_P2.54mm_Vertical" H 1330 6700 20  0001 C CNN
F 3 "" H 1300 6550 50  0001 C CNN
	1    1300 6550
	-1   0    0    -1  
$EndComp
Wire Wire Line
	7000 6200 7000 6100
$Comp
L !ht3_passive:R R?
U 1 1 607564E4
P 7000 5950
AR Path="/60EE5585/607564E4" Ref="R?"  Part="1" 
AR Path="/62863B64/607564E4" Ref="R?"  Part="1" 
AR Path="/62861DD1/607564E4" Ref="R40"  Part="1" 
F 0 "R40" V 7050 5800 45  0000 C CNN
F 1 "10K/0603" V 6950 5700 45  0000 C CNN
F 2 "!ht3_smd:R_0603(1608)" H 7030 6100 20  0001 C CNN
F 3 "" H 7000 5950 50  0001 C CNN
F 4 "C269701" H 7000 5950 50  0001 C CNN "LCSC"
	1    7000 5950
	0    -1   -1   0   
$EndComp
$Comp
L !ht3_led:LED D?
U 1 1 607564EB
P 7000 6300
AR Path="/60EE5585/607564EB" Ref="D?"  Part="1" 
AR Path="/62863B64/607564EB" Ref="D?"  Part="1" 
AR Path="/62861DD1/607564EB" Ref="D15"  Part="1" 
F 0 "D15" H 7100 6300 45  0000 L CNN
F 1 "LED-GREEN/0603" H 7100 6200 45  0000 L CNN
F 2 "!ht3_led:LED_0603(1608)_GREEN" H 7030 6450 20  0001 C CNN
F 3 "" H 7000 6300 50  0001 C CNN
F 4 "C192666" H 7000 6300 50  0001 C CNN "LCSC"
	1    7000 6300
	1    0    0    -1  
$EndComp
Wire Wire Line
	7000 6600 7000 6500
$Comp
L power:GND #PWR?
U 1 1 607564F2
P 7000 6600
AR Path="/607564F2" Ref="#PWR?"  Part="1" 
AR Path="/698A2E9A/607564F2" Ref="#PWR?"  Part="1" 
AR Path="/5CF802FC/607564F2" Ref="#PWR?"  Part="1" 
AR Path="/607681B9/607564F2" Ref="#PWR?"  Part="1" 
AR Path="/60EE5585/607564F2" Ref="#PWR?"  Part="1" 
AR Path="/62863B64/607564F2" Ref="#PWR?"  Part="1" 
AR Path="/62861DD1/607564F2" Ref="#PWR077"  Part="1" 
F 0 "#PWR077" H 7000 6350 50  0001 C CNN
F 1 "GND" H 7005 6427 50  0000 C CNN
F 2 "" H 7000 6600 50  0001 C CNN
F 3 "" H 7000 6600 50  0001 C CNN
	1    7000 6600
	1    0    0    -1  
$EndComp
Text Notes 7100 6550 0    50   ~ 0
"PWR"
Wire Wire Line
	7000 5550 6750 5550
Wire Wire Line
	7000 5550 7000 5800
Connection ~ 6750 5550
Text Notes 4950 1700 0    50   ~ 0
Fuse
$EndSCHEMATC
