EESchema Schematic File Version 4
EELAYER 30 0
EELAYER END
$Descr A4 11693 8268
encoding utf-8
Sheet 5 5
Title ""
Date "2021-03-25"
Rev "V_A.0"
Comp "THI"
Comment1 ""
Comment2 "HT3H5796-12"
Comment3 "HT3H5796-5"
Comment4 "HT3H5796-1"
$EndDescr
Wire Wire Line
	5400 3700 5400 3600
$Comp
L !ht3_diode:SMF05CT1G D?
U 1 1 61070746
P 5600 3000
AR Path="/61070746" Ref="D?"  Part="1" 
AR Path="/60EBFB95/61070746" Ref="D19"  Part="1" 
F 0 "D19" H 5550 3100 45  0000 L CNN
F 1 "SMF05CT1G" V 5550 2600 45  0000 L CNN
F 2 "!ht3_smd:SOT-363_SC-70-6" H 5630 3150 20  0001 C CNN
F 3 "" H 5600 3000 50  0001 C CNN
F 4 "C558443" H 5600 3000 50  0001 C CNN "LCSC"
	1    5600 3000
	-1   0    0    -1  
$EndComp
$Comp
L power:GND #PWR?
U 1 1 61070752
P 5400 3700
AR Path="/61070752" Ref="#PWR?"  Part="1" 
AR Path="/60EBFB95/61070752" Ref="#PWR0139"  Part="1" 
F 0 "#PWR0139" H 5400 3450 50  0001 C CNN
F 1 "GND" H 5405 3527 50  0000 C CNN
F 2 "" H 5400 3700 50  0001 C CNN
F 3 "" H 5400 3700 50  0001 C CNN
	1    5400 3700
	-1   0    0    -1  
$EndComp
Wire Wire Line
	3050 1600 2950 1600
$Comp
L !ht3_passive:R R?
U 1 1 5F17D81E
P 4200 900
AR Path="/5F17D81E" Ref="R?"  Part="1" 
AR Path="/63F2C63B/5F17D81E" Ref="R?"  Part="1" 
AR Path="/618E2CEA/5F17D81E" Ref="R?"  Part="1" 
AR Path="/60B95DE6/5F17D81E" Ref="R?"  Part="1" 
AR Path="/60EBFB95/5F17D81E" Ref="R82"  Part="1" 
F 0 "R82" H 4200 800 45  0000 C CNN
F 1 "0/0603" H 4200 1000 45  0000 C CNN
F 2 "!ht3_smd:R_0603(1608)" H 4230 1050 20  0001 C CNN
F 3 "" H 4200 900 50  0001 C CNN
F 4 "C163836" H 4200 900 50  0001 C CNN "LCSC"
	1    4200 900 
	-1   0    0    1   
$EndComp
NoConn ~ 5300 3600
NoConn ~ 5500 3600
$Comp
L !ht3_passive:R R?
U 1 1 5F571228
P 3000 1200
AR Path="/600B9C6A/5F571228" Ref="R?"  Part="1" 
AR Path="/5FF89635/5F571228" Ref="R?"  Part="1" 
AR Path="/60EBFB95/5F571228" Ref="R83"  Part="1" 
F 0 "R83" H 3000 1100 45  0000 C CNN
F 1 "100K/0603" H 3000 1300 45  0000 C CNN
F 2 "!ht3_smd:R_0603(1608)" H 3030 1350 20  0001 C CNN
F 3 "" H 3000 1200 50  0001 C CNN
F 4 "C100048" H 3000 1200 50  0001 C CNN "LCSC"
	1    3000 1200
	-1   0    0    1   
$EndComp
Wire Wire Line
	2850 1200 2750 1200
Wire Wire Line
	3150 1600 3050 1600
Wire Wire Line
	3050 1600 3050 1700
Wire Wire Line
	3050 2100 3050 2000
$Comp
L power:GND #PWR?
U 1 1 5F571229
P 3050 2100
AR Path="/600B9C6A/5F571229" Ref="#PWR?"  Part="1" 
AR Path="/5FF89635/5F571229" Ref="#PWR?"  Part="1" 
AR Path="/60EBFB95/5F571229" Ref="#PWR0137"  Part="1" 
F 0 "#PWR0137" H 3050 1850 50  0001 C CNN
F 1 "GND" H 3055 1927 50  0000 C CNN
F 2 "" H 3050 2100 50  0001 C CNN
F 3 "" H 3050 2100 50  0001 C CNN
	1    3050 2100
	1    0    0    -1  
$EndComp
$Comp
L !ht3_passive:R R?
U 1 1 5F3BED6C
P 3050 1850
AR Path="/600B9C6A/5F3BED6C" Ref="R?"  Part="1" 
AR Path="/5FF89635/5F3BED6C" Ref="R?"  Part="1" 
AR Path="/60EBFB95/5F3BED6C" Ref="R84"  Part="1" 
F 0 "R84" H 3050 1750 45  0000 C CNN
F 1 "10K/0603" H 3050 1950 45  0000 C CNN
F 2 "!ht3_smd:R_0603(1608)" H 3080 2000 20  0001 C CNN
F 3 "" H 3050 1850 50  0001 C CNN
F 4 "C269701" H 3050 1850 50  0001 C CNN "LCSC"
	1    3050 1850
	0    1    1    0   
$EndComp
Wire Wire Line
	3350 1800 3350 1700
$Comp
L power:GND #PWR?
U 1 1 5F3BED74
P 3350 1800
AR Path="/600B9C6A/5F3BED74" Ref="#PWR?"  Part="1" 
AR Path="/5FF89635/5F3BED74" Ref="#PWR?"  Part="1" 
AR Path="/60EBFB95/5F3BED74" Ref="#PWR0135"  Part="1" 
F 0 "#PWR0135" H 3350 1550 50  0001 C CNN
F 1 "GND" H 3355 1627 50  0000 C CNN
F 2 "" H 3350 1800 50  0001 C CNN
F 3 "" H 3350 1800 50  0001 C CNN
	1    3350 1800
	1    0    0    -1  
$EndComp
Connection ~ 3050 1600
Text Notes 1425 3175 2    50   ~ 0
VDD(3.3V)
$Comp
L !ht3_connector:CON-2P X?
U 1 1 5F407E47
P 1550 3050
AR Path="/5F67C9A9/5F407E47" Ref="X?"  Part="1" 
AR Path="/60F147D6/5F407E47" Ref="X?"  Part="1" 
AR Path="/60EBFB95/5F407E47" Ref="X17"  Part="1" 
F 0 "X17" H 1542 3204 45  0000 C CNN
F 1 "PinHeader_1x02_P2.54mm_Vertical" H 1500 3100 45  0001 C CNN
F 2 "!ht3_connector:PinHeader_1x02_P2.54mm_Vertical" H 1580 3200 20  0001 C CNN
F 3 "" H 1550 3050 50  0001 C CNN
F 4 "C180247" H 1550 3050 50  0001 C CNN "LCSC"
	1    1550 3050
	-1   0    0    -1  
$EndComp
$Comp
L power:GND #PWR?
U 1 1 5F407E4D
P 1750 3350
AR Path="/5F407E4D" Ref="#PWR?"  Part="1" 
AR Path="/600324FE/5F407E4D" Ref="#PWR?"  Part="1" 
AR Path="/5F67C9A9/5F407E4D" Ref="#PWR?"  Part="1" 
AR Path="/60F147D6/5F407E4D" Ref="#PWR?"  Part="1" 
AR Path="/60EBFB95/5F407E4D" Ref="#PWR0136"  Part="1" 
F 0 "#PWR0136" H 1750 3100 50  0001 C CNN
F 1 "GND" H 1755 3177 50  0000 C CNN
F 2 "" H 1750 3350 50  0001 C CNN
F 3 "" H 1750 3350 50  0001 C CNN
	1    1750 3350
	-1   0    0    -1  
$EndComp
Wire Wire Line
	1650 3250 1750 3250
Wire Wire Line
	1750 3250 1750 3350
Text Notes 1425 3275 2    50   ~ 0
GND
Text Notes 4050 700  0    50   ~ 0
TODO TEST voltage!
Wire Wire Line
	2650 900  2750 900 
Wire Wire Line
	3350 1200 3350 1100
Wire Wire Line
	3150 1200 3350 1200
Wire Wire Line
	2750 900  2750 1200
Connection ~ 2750 900 
Wire Wire Line
	2750 900  3250 900 
Wire Wire Line
	3650 900  4050 900 
Wire Wire Line
	3350 1300 3350 1200
Connection ~ 3350 1200
$Comp
L !ht3_triode:FDC6420C Q9
U 1 1 5F4B8911
P 3450 1000
F 0 "Q9" V 3839 1000 45  0000 C CNN
F 1 "FDC6420C" V 3755 1000 45  0000 C CNN
F 2 "!ht3_smd:SOT-23-6" H 3480 1150 20  0001 C CNN
F 3 "" H 3450 1000 50  0001 C CNN
F 4 "C154515" H 3450 1000 50  0001 C CNN "LCSC"
	1    3450 1000
	0    -1   -1   0   
$EndComp
$Comp
L !ht3_triode:FDC6420C Q9
U 2 1 5F4B9B78
P 3250 1500
F 0 "Q9" H 3513 1542 45  0000 L CNN
F 1 "FDC6420C" H 3513 1458 45  0000 L CNN
F 2 "!ht3_smd:SOT-23-6" H 3280 1650 20  0001 C CNN
F 3 "" H 3250 1500 50  0001 C CNN
F 4 "C154515" H 3250 1500 50  0001 C CNN "LCSC"
	2    3250 1500
	1    0    0    -1  
$EndComp
NoConn ~ 5400 2900
$Comp
L !ht3_passive:R R?
U 1 1 648AE819
P 2750 3150
AR Path="/600B9C6A/648AE819" Ref="R?"  Part="1" 
AR Path="/5FF89635/648AE819" Ref="R?"  Part="1" 
AR Path="/60EBFB95/648AE819" Ref="R?"  Part="1" 
F 0 "R?" H 2750 3050 45  0000 C CNN
F 1 "4.7K/0603" H 2750 3250 45  0000 C CNN
F 2 "!ht3_smd:R_0603(1608)" H 2780 3300 20  0001 C CNN
F 3 "" H 2750 3150 50  0001 C CNN
F 4 "C100048" H 2750 3150 50  0001 C CNN "LCSC"
	1    2750 3150
	-1   0    0    1   
$EndComp
Wire Wire Line
	2600 3150 2350 3150
Wire Wire Line
	3000 3900 3000 3800
$Comp
L power:GND #PWR?
U 1 1 648AFC56
P 3000 3900
AR Path="/600B9C6A/648AFC56" Ref="#PWR?"  Part="1" 
AR Path="/5FF89635/648AFC56" Ref="#PWR?"  Part="1" 
AR Path="/60EBFB95/648AFC56" Ref="#PWR?"  Part="1" 
F 0 "#PWR?" H 3000 3650 50  0001 C CNN
F 1 "GND" H 3005 3727 50  0000 C CNN
F 2 "" H 3000 3900 50  0001 C CNN
F 3 "" H 3000 3900 50  0001 C CNN
	1    3000 3900
	1    0    0    -1  
$EndComp
$Comp
L !ht3_passive:R R?
U 1 1 648AFC5D
P 3000 3650
AR Path="/600B9C6A/648AFC5D" Ref="R?"  Part="1" 
AR Path="/5FF89635/648AFC5D" Ref="R?"  Part="1" 
AR Path="/60EBFB95/648AFC5D" Ref="R?"  Part="1" 
F 0 "R?" H 3000 3550 45  0000 C CNN
F 1 "1K/0603" H 3000 3750 45  0000 C CNN
F 2 "!ht3_smd:R_0603(1608)" H 3030 3800 20  0001 C CNN
F 3 "" H 3000 3650 50  0001 C CNN
F 4 "C269701" H 3000 3650 50  0001 C CNN "LCSC"
	1    3000 3650
	0    1    1    0   
$EndComp
Wire Wire Line
	2900 3150 3000 3150
Wire Wire Line
	3000 3150 3000 3500
$Comp
L !ht3_passive:C C?
U 1 1 648B1CFD
P 3250 3600
AR Path="/648B1CFD" Ref="C?"  Part="1" 
AR Path="/61CC7676/648B1CFD" Ref="C?"  Part="1" 
AR Path="/60EBFB95/648B1CFD" Ref="C?"  Part="1" 
F 0 "C?" V 3200 3350 45  0000 L CNN
F 1 "100n/0603" V 3200 3600 45  0000 L CNN
F 2 "!ht3_smd:C_0603(1608)" H 3280 3750 20  0001 C CNN
F 3 "" H 3250 3600 50  0001 C CNN
F 4 "C30926" H 3250 3600 50  0001 C CNN "LCSC"
	1    3250 3600
	1    0    0    -1  
$EndComp
$Comp
L power:GND #PWR?
U 1 1 648B1D03
P 3250 3900
AR Path="/648B1D03" Ref="#PWR?"  Part="1" 
AR Path="/61CC7676/648B1D03" Ref="#PWR?"  Part="1" 
AR Path="/60EBFB95/648B1D03" Ref="#PWR?"  Part="1" 
F 0 "#PWR?" H 3250 3650 50  0001 C CNN
F 1 "GND" H 3255 3727 50  0000 C CNN
F 2 "" H 3250 3900 50  0001 C CNN
F 3 "" H 3250 3900 50  0001 C CNN
	1    3250 3900
	1    0    0    -1  
$EndComp
Wire Wire Line
	3250 3900 3250 3800
Wire Wire Line
	3250 3500 3250 3150
Wire Wire Line
	3000 3150 3250 3150
Connection ~ 3000 3150
Connection ~ 3250 3150
$Comp
L !ht3_ic:PC817 U?
U 1 1 648E44E4
P 4200 3250
F 0 "U?" H 4200 3575 50  0000 C CNN
F 1 "PC817" H 4200 3484 50  0000 C CNN
F 2 "Package_DIP:SMDIP-4_W9.53mm" H 4200 2950 50  0001 C CNN
F 3 "http://www.us.liteon.com/downloads/LTV-817-827-847.PDF" H 3850 3550 50  0001 C CNN
	1    4200 3250
	1    0    0    -1  
$EndComp
Wire Wire Line
	3500 3900 3500 3800
$Comp
L power:GND #PWR?
U 1 1 610B5A51
P 3500 3900
AR Path="/610B5A51" Ref="#PWR?"  Part="1" 
AR Path="/698A2E9A/610B5A51" Ref="#PWR?"  Part="1" 
AR Path="/5CF802FC/610B5A51" Ref="#PWR?"  Part="1" 
AR Path="/697F25D5/610B5A51" Ref="#PWR?"  Part="1" 
AR Path="/60299051/610B5A51" Ref="#PWR?"  Part="1" 
AR Path="/62863B64/610B5A51" Ref="#PWR?"  Part="1" 
AR Path="/60EBFB95/610B5A51" Ref="#PWR?"  Part="1" 
F 0 "#PWR?" H 3500 3650 50  0001 C CNN
F 1 "GND" H 3505 3727 50  0000 C CNN
F 2 "" H 3500 3900 50  0001 C CNN
F 3 "" H 3500 3900 50  0001 C CNN
	1    3500 3900
	1    0    0    -1  
$EndComp
$Comp
L !ht3_diode:SUPPRESSOR-UNI D?
U 1 1 610B5A58
P 3500 3700
AR Path="/610B5A58" Ref="D?"  Part="1" 
AR Path="/5E6509AE/610B5A58" Ref="D?"  Part="1" 
AR Path="/5D0EB132/610B5A58" Ref="D?"  Part="1" 
AR Path="/5CF802FC/610B5A58" Ref="D?"  Part="1" 
AR Path="/697F25D5/610B5A58" Ref="D?"  Part="1" 
AR Path="/60299051/610B5A58" Ref="D?"  Part="1" 
AR Path="/62863B64/610B5A58" Ref="D?"  Part="1" 
AR Path="/60EBFB95/610B5A58" Ref="D?"  Part="1" 
F 0 "D?" H 3578 3742 45  0000 L CNN
F 1 "BZV55-B5V1" H 3578 3658 45  0000 L CNN
F 2 "!ht3_diode:D_MiniMELF" H 3530 3850 20  0001 C CNN
F 3 "" H 3500 3700 50  0001 C CNN
	1    3500 3700
	1    0    0    -1  
$EndComp
Text HLabel 2650 900  0    50   Input ~ 0
+3.3V
Wire Wire Line
	3250 3150 3500 3150
Wire Wire Line
	3500 3150 3500 3600
$Comp
L !ht3_passive:R R?
U 1 1 611D1383
P 2200 3150
AR Path="/600B9C6A/611D1383" Ref="R?"  Part="1" 
AR Path="/5FF89635/611D1383" Ref="R?"  Part="1" 
AR Path="/60EBFB95/611D1383" Ref="R?"  Part="1" 
F 0 "R?" H 2200 3050 45  0000 C CNN
F 1 "4.7K/0603" H 2200 3250 45  0000 C CNN
F 2 "!ht3_smd:R_0603(1608)" H 2230 3300 20  0001 C CNN
F 3 "" H 2200 3150 50  0001 C CNN
F 4 "C100048" H 2200 3150 50  0001 C CNN "LCSC"
	1    2200 3150
	-1   0    0    1   
$EndComp
Wire Wire Line
	2050 3150 1650 3150
$EndSCHEMATC
