EESchema Schematic File Version 4
EELAYER 30 0
EELAYER END
$Descr A2 16535 23386 portrait
encoding utf-8
Sheet 2 10
Title ""
Date "2021-03-25"
Rev "V_A.0"
Comp "THI"
Comment1 ""
Comment2 "HT3H5796-12"
Comment3 "HT3H5796-5"
Comment4 "HT3H5796-1"
$EndDescr
Wire Wire Line
	2350 7750 2350 7850
$Comp
L !ht3_passive:R R?
U 1 1 61CDAD96
P 2350 8000
AR Path="/61CDAD96" Ref="R?"  Part="1" 
AR Path="/63F41370/61CDAD96" Ref="R?"  Part="1" 
AR Path="/5D0E2920/61CDAD96" Ref="R?"  Part="1" 
AR Path="/60F147D6/61CDAD96" Ref="R?"  Part="1" 
AR Path="/61CC7676/61CDAD96" Ref="R22"  Part="1" 
F 0 "R22" V 2392 7937 45  0000 R CNN
F 1 "33K/0603" V 2308 7937 45  0000 R CNN
F 2 "!ht3_smd:R_0603(1608)" H 2380 8150 20  0001 C CNN
F 3 "" H 2350 8000 50  0001 C CNN
F 4 "C269701" H 2350 8000 50  0001 C CNN "LCSC"
	1    2350 8000
	0    -1   -1   0   
$EndComp
$Comp
L power:GND #PWR?
U 1 1 61CDADC1
P 2350 8950
AR Path="/61CDADC1" Ref="#PWR?"  Part="1" 
AR Path="/60F147D6/61CDADC1" Ref="#PWR?"  Part="1" 
AR Path="/61CC7676/61CDADC1" Ref="#PWR051"  Part="1" 
F 0 "#PWR051" H 2350 8700 50  0001 C CNN
F 1 "GND" H 2355 8777 50  0000 C CNN
F 2 "" H 2350 8950 50  0001 C CNN
F 3 "" H 2350 8950 50  0001 C CNN
	1    2350 8950
	-1   0    0    -1  
$EndComp
Text Label 1650 8250 2    50   ~ 0
NRESET
Wire Wire Line
	1650 8250 1750 8250
Wire Wire Line
	1750 8850 1750 8950
$Comp
L power:GND #PWR?
U 1 1 61CDAE2D
P 1750 8950
AR Path="/61CDAE2D" Ref="#PWR?"  Part="1" 
AR Path="/60EE5585/61CDAE2D" Ref="#PWR?"  Part="1" 
AR Path="/60F147D6/61CDAE2D" Ref="#PWR?"  Part="1" 
AR Path="/61CC7676/61CDAE2D" Ref="#PWR050"  Part="1" 
F 0 "#PWR050" H 1750 8700 50  0001 C CNN
F 1 "GND" H 1755 8777 50  0000 C CNN
F 2 "" H 1750 8950 50  0001 C CNN
F 3 "" H 1750 8950 50  0001 C CNN
	1    1750 8950
	-1   0    0    -1  
$EndComp
$Comp
L !ht3_passive:C C?
U 1 1 61CDAE34
P 1750 8650
AR Path="/61CDAE34" Ref="C?"  Part="1" 
AR Path="/60EE5585/61CDAE34" Ref="C?"  Part="1" 
AR Path="/60F147D6/61CDAE34" Ref="C?"  Part="1" 
AR Path="/61CC7676/61CDAE34" Ref="C12"  Part="1" 
F 0 "C12" H 1600 8700 45  0000 L CNN
F 1 "100n/0603" H 1300 8500 45  0000 L CNN
F 2 "!ht3_smd:C_0603(1608)" H 1780 8800 20  0001 C CNN
F 3 "" H 1750 8650 50  0001 C CNN
F 4 "C314282" H 1750 8650 50  0001 C CNN "LCSC"
	1    1750 8650
	-1   0    0    -1  
$EndComp
Wire Wire Line
	1750 8550 1750 8250
Connection ~ 1750 8250
Wire Wire Line
	2350 8750 2350 8850
Wire Wire Line
	2350 8150 2350 8250
Connection ~ 2350 8250
Wire Wire Line
	2350 8250 2350 8350
Wire Wire Line
	1750 8250 2350 8250
Wire Wire Line
	4100 6800 4200 6800
Wire Wire Line
	4200 6800 4200 6700
Wire Wire Line
	6400 6100 6500 6100
Wire Wire Line
	6500 6100 6500 6200
Wire Wire Line
	6400 5900 6500 5900
Wire Wire Line
	6500 5900 6500 5700
Text Label 3700 6800 2    50   ~ 0
LED_TEST
Wire Wire Line
	3700 6800 3800 6800
$Comp
L !ht3_passive:R R?
U 1 1 61DF80AE
P 3950 6800
AR Path="/61DF80AE" Ref="R?"  Part="1" 
AR Path="/61CC7676/61DF80AE" Ref="R20"  Part="1" 
F 0 "R20" H 3950 6900 45  0000 C CNN
F 1 "2.2K/0603" H 3950 6700 45  0000 C CNN
F 2 "!ht3_smd:R_0603(1608)" H 3980 6950 20  0001 C CNN
F 3 "" H 3950 6800 50  0001 C CNN
	1    3950 6800
	1    0    0    -1  
$EndComp
Wire Wire Line
	5700 7250 5700 7800
Wire Wire Line
	5700 7250 5500 7250
Wire Wire Line
	5500 7250 5500 7800
$Comp
L !ht3_led:LED LD?
U 1 1 61DF80BD
P 4200 6500
AR Path="/61DF80BD" Ref="LD?"  Part="1" 
AR Path="/61CC7676/61DF80BD" Ref="LD1"  Part="1" 
F 0 "LD1" H 4050 6550 45  0000 L CNN
F 1 "LED-GREEN/0603" V 4300 6200 45  0000 L CNN
F 2 "!ht3_led:LED_0603(1608)_GREEN" H 4230 6650 20  0001 C CNN
F 3 "" H 4200 6500 50  0001 C CNN
	1    4200 6500
	1    0    0    -1  
$EndComp
Wire Wire Line
	6400 6000 6500 6000
Wire Wire Line
	5600 6000 5300 6000
Wire Wire Line
	5600 5900 5400 5900
Text Label 6500 6000 0    50   ~ 0
NRESET
Text Label 5300 6000 2    50   ~ 0
SWDCLK
Text Label 5300 5900 2    50   ~ 0
SWDIO
$Comp
L power:GND #PWR?
U 1 1 61DF80C9
P 6500 6200
AR Path="/61DF80C9" Ref="#PWR?"  Part="1" 
AR Path="/61CC7676/61DF80C9" Ref="#PWR029"  Part="1" 
F 0 "#PWR029" H 6500 5950 50  0001 C CNN
F 1 "GND" H 6505 6027 50  0000 C CNN
F 2 "" H 6500 6200 50  0001 C CNN
F 3 "" H 6500 6200 50  0001 C CNN
	1    6500 6200
	1    0    0    -1  
$EndComp
Wire Wire Line
	4200 6200 4200 6400
Wire Wire Line
	9050 10850 8950 10850
Wire Wire Line
	8950 10850 8950 10950
Wire Wire Line
	9050 10650 8700 10650
Wire Wire Line
	10050 10850 10250 10850
Text Label 10250 10850 0    50   ~ 0
SPI2_MOSI
Wire Wire Line
	10050 10750 10250 10750
Text Label 10250 10750 0    50   ~ 0
SPI2_SCK
$Comp
L !ht3_ic:25Cxx U?
U 1 1 61DF80DE
P 9150 10450
AR Path="/61DF80DE" Ref="U?"  Part="1" 
AR Path="/61CC7676/61DF80DE" Ref="U4"  Part="1" 
F 0 "U4" H 9200 10500 45  0000 C CNN
F 1 "25Q128" H 9550 9900 45  0000 C CNN
F 2 "!ht3_smd:SO-8-WSON-8_8x6mm_UNI" H 9180 10600 20  0001 C CNN
F 3 "" H 9150 10450 50  0001 C CNN
F 4 "Замена FM25L16B-GTR - 00-00022902" H 9150 10450 50  0001 C CNN "Field4"
	1    9150 10450
	1    0    0    -1  
$EndComp
$Comp
L power:GND #PWR?
U 1 1 61DF80E4
P 8950 10950
AR Path="/61DF80E4" Ref="#PWR?"  Part="1" 
AR Path="/61CC7676/61DF80E4" Ref="#PWR055"  Part="1" 
F 0 "#PWR055" H 8950 10700 50  0001 C CNN
F 1 "GND" H 8955 10777 50  0000 C CNN
F 2 "" H 8950 10950 50  0001 C CNN
F 3 "" H 8950 10950 50  0001 C CNN
	1    8950 10950
	1    0    0    -1  
$EndComp
Wire Wire Line
	5700 7250 5900 7250
Wire Wire Line
	5900 7250 5900 7800
Connection ~ 5700 7250
Text Label 8700 10650 2    50   ~ 0
SPI2_MISO
$Comp
L !ht3_connector:CON-PROG-SWD-6P X?
U 1 1 61DF8115
P 5700 5800
AR Path="/61DF8115" Ref="X?"  Part="1" 
AR Path="/61CC7676/61DF8115" Ref="X4"  Part="1" 
F 0 "X4" H 6000 5850 50  0000 C CNN
F 1 "CON-PROG-SWD-6P" H 6000 5350 50  0000 C CNN
F 2 "!ht3_connector:PinHeader_2x03_P2.00mm_Vertical" H 5900 5800 50  0001 C CNN
F 3 "" H 5900 5800 50  0001 C CNN
	1    5700 5800
	1    0    0    -1  
$EndComp
$Comp
L power:GND #PWR?
U 1 1 61DF811B
P 5500 6200
AR Path="/61DF811B" Ref="#PWR?"  Part="1" 
AR Path="/61CC7676/61DF811B" Ref="#PWR028"  Part="1" 
F 0 "#PWR028" H 5500 5950 50  0001 C CNN
F 1 "GND" H 5505 6027 50  0000 C CNN
F 2 "" H 5500 6200 50  0001 C CNN
F 3 "" H 5500 6200 50  0001 C CNN
	1    5500 6200
	1    0    0    -1  
$EndComp
Wire Wire Line
	5600 6100 5500 6100
Wire Wire Line
	5500 6100 5500 6200
Wire Wire Line
	10150 11250 10150 11350
$Comp
L power:GND #PWR?
U 1 1 61DF8124
P 10150 11350
AR Path="/61DF8124" Ref="#PWR?"  Part="1" 
AR Path="/61CC7676/61DF8124" Ref="#PWR056"  Part="1" 
F 0 "#PWR056" H 10150 11100 50  0001 C CNN
F 1 "GND" H 10155 11177 50  0000 C CNN
F 2 "" H 10150 11350 50  0001 C CNN
F 3 "" H 10150 11350 50  0001 C CNN
	1    10150 11350
	1    0    0    -1  
$EndComp
$Comp
L !ht3_passive:C C?
U 1 1 61DF812A
P 10150 11050
AR Path="/61DF812A" Ref="C?"  Part="1" 
AR Path="/61CC7676/61DF812A" Ref="C15"  Part="1" 
F 0 "C15" H 10250 11050 45  0000 L CNN
F 1 "100n/0603" H 10250 10950 45  0000 L CNN
F 2 "!ht3_smd:C_0603(1608)" H 10180 11200 20  0001 C CNN
F 3 "" H 10150 11050 50  0001 C CNN
	1    10150 11050
	1    0    0    -1  
$EndComp
Wire Wire Line
	10150 10950 10150 10650
Wire Wire Line
	10150 10200 10150 10300
Connection ~ 10150 10550
Wire Wire Line
	10050 10550 10150 10550
Wire Wire Line
	9050 10750 8950 10750
Wire Wire Line
	8950 10750 8950 10300
Connection ~ 10150 10300
Wire Wire Line
	10150 10300 10150 10550
Wire Wire Line
	10050 10650 10150 10650
Connection ~ 10150 10650
Wire Wire Line
	10150 10650 10150 10550
Wire Wire Line
	5400 5800 5400 5900
Connection ~ 5400 5900
Wire Wire Line
	5400 5900 5300 5900
Wire Wire Line
	5400 5400 5400 5500
Wire Wire Line
	6500 10100 6600 10100
Wire Wire Line
	6600 10000 6500 10000
Text Label 6600 10000 0    50   ~ 0
USB1_N
Text Label 6600 10100 0    50   ~ 0
USB1_P
Wire Wire Line
	6500 10200 6600 10200
Text Label 6600 10200 0    50   ~ 0
SWDIO
Text Label 6600 10300 0    50   ~ 0
SWDCLK
Text Label 5000 8900 2    50   ~ 0
NRESET
$Comp
L power:GND #PWR?
U 1 1 61DF8147
P 5600 12500
AR Path="/61DF8147" Ref="#PWR?"  Part="1" 
AR Path="/61CC7676/61DF8147" Ref="#PWR062"  Part="1" 
F 0 "#PWR062" H 5600 12250 50  0001 C CNN
F 1 "GND" V 5605 12372 50  0000 R CNN
F 2 "" H 5600 12500 50  0001 C CNN
F 3 "" H 5600 12500 50  0001 C CNN
	1    5600 12500
	1    0    0    -1  
$EndComp
Wire Wire Line
	5600 12500 5600 12400
Connection ~ 5600 12400
Wire Wire Line
	5600 12400 5600 12300
Wire Wire Line
	5900 12400 5900 12300
$Comp
L power:GND #PWR?
U 1 1 61DF8158
P 4600 9200
AR Path="/61DF8158" Ref="#PWR?"  Part="1" 
AR Path="/61CC7676/61DF8158" Ref="#PWR052"  Part="1" 
F 0 "#PWR052" H 4600 8950 50  0001 C CNN
F 1 "GND" H 4605 9027 50  0000 C CNN
F 2 "" H 4600 9200 50  0001 C CNN
F 3 "" H 4600 9200 50  0001 C CNN
	1    4600 9200
	1    0    0    -1  
$EndComp
Wire Wire Line
	4600 9100 4600 9200
Wire Wire Line
	6500 10400 7500 10400
$Comp
L !ht3_passive:R R?
U 1 1 61DF8160
P 7500 10150
AR Path="/61DF8160" Ref="R?"  Part="1" 
AR Path="/61CC7676/61DF8160" Ref="R24"  Part="1" 
F 0 "R24" H 7500 10250 45  0000 C CNN
F 1 "2.2K/0603" H 7500 10050 45  0000 C CNN
F 2 "!ht3_smd:R_0603(1608)" H 7530 10300 20  0001 C CNN
F 3 "" H 7500 10150 50  0001 C CNN
	1    7500 10150
	0    -1   -1   0   
$EndComp
Wire Wire Line
	7500 9900 7650 9900
Text Label 7650 9900 0    50   ~ 0
USB_P
Wire Wire Line
	6600 10300 6500 10300
Wire Wire Line
	6500 9000 6600 9000
$Comp
L !ht3_inductor:L L?
U 1 1 61DF816A
P 2000 6800
AR Path="/61DF816A" Ref="L?"  Part="1" 
AR Path="/61CC7676/61DF816A" Ref="L2"  Part="1" 
F 0 "L2" H 2000 6900 45  0000 C CNN
F 1 "BLM/0603" H 2000 6750 45  0000 C CNN
F 2 "!ht3_smd:L_0603(1608)" H 2030 6950 20  0001 C CNN
F 3 "" H 2000 6800 50  0001 C CNN
	1    2000 6800
	1    0    0    -1  
$EndComp
Wire Wire Line
	2150 6800 2250 6800
Wire Wire Line
	1750 6800 1750 6700
Wire Wire Line
	6100 8600 6100 8100
Wire Wire Line
	6100 8600 6100 8700
Connection ~ 6100 8600
$Comp
L power:GND #PWR?
U 1 1 61DF817C
P 6100 7150
AR Path="/61DF817C" Ref="#PWR?"  Part="1" 
AR Path="/61CC7676/61DF817C" Ref="#PWR036"  Part="1" 
F 0 "#PWR036" H 6100 6900 50  0001 C CNN
F 1 "GND" H 6105 6977 50  0000 C CNN
F 2 "" H 6100 7150 50  0001 C CNN
F 3 "" H 6100 7150 50  0001 C CNN
	1    6100 7150
	-1   0    0    1   
$EndComp
Wire Wire Line
	6100 7150 6100 7250
$Comp
L power:PWR_FLAG #FLG?
U 1 1 61DF8183
P 2250 6700
AR Path="/61DF8183" Ref="#FLG?"  Part="1" 
AR Path="/61CC7676/61DF8183" Ref="#FLG03"  Part="1" 
F 0 "#FLG03" H 2250 6775 50  0001 C CNN
F 1 "PWR_FLAG" V 2250 7000 50  0000 C CNN
F 2 "" H 2250 6700 50  0001 C CNN
F 3 "~" H 2250 6700 50  0001 C CNN
	1    2250 6700
	1    0    0    -1  
$EndComp
Wire Wire Line
	2250 6700 2250 6800
Wire Wire Line
	4600 9100 4700 9100
Wire Wire Line
	6600 9500 6500 9500
Wire Wire Line
	7500 10300 7500 10400
Wire Wire Line
	7500 9900 7500 10000
Text Notes 6500 10500 0    50   ~ 0
for STM32F103 (USB renumerator)
Wire Wire Line
	5000 8900 5100 8900
$Comp
L !ht3_passive:R R?
U 1 1 61DF8195
P 5400 5650
AR Path="/61DF8195" Ref="R?"  Part="1" 
AR Path="/61CC7676/61DF8195" Ref="R13"  Part="1" 
F 0 "R13" H 5400 5750 45  0000 C CNN
F 1 "100K/0603" H 5400 5550 45  0000 C CNN
F 2 "!ht3_smd:R_0603(1608)" H 5430 5800 20  0001 C CNN
F 3 "" H 5400 5650 50  0001 C CNN
	1    5400 5650
	0    -1   -1   0   
$EndComp
Wire Wire Line
	8950 10300 10150 10300
Wire Wire Line
	8700 10550 8800 10550
$Comp
L !ht3_passive:R R?
U 1 1 61DF81A3
P 8800 10300
AR Path="/61DF81A3" Ref="R?"  Part="1" 
AR Path="/61CC7676/61DF81A3" Ref="R25"  Part="1" 
F 0 "R25" H 8800 10200 45  0000 C CNN
F 1 "10K/0603" H 8800 10400 45  0000 C CNN
F 2 "!ht3_smd:R_0603(1608)" H 8830 10450 20  0001 C CNN
F 3 "" H 8800 10300 50  0001 C CNN
	1    8800 10300
	0    1    1    0   
$EndComp
Wire Wire Line
	8800 10150 8800 10050
Wire Wire Line
	8800 10050 8950 10050
Wire Wire Line
	8950 10050 8950 10300
Connection ~ 8950 10300
Wire Wire Line
	8800 10450 8800 10550
Connection ~ 8800 10550
Wire Wire Line
	8800 10550 9050 10550
Wire Wire Line
	6000 8200 5900 8200
Wire Wire Line
	5900 8200 5900 8100
Wire Wire Line
	6000 8200 6000 8600
Wire Wire Line
	5900 8700 5900 8600
Wire Wire Line
	5900 8300 5700 8300
Wire Wire Line
	5700 8300 5700 8100
Wire Wire Line
	5800 8700 5800 8600
Wire Wire Line
	5800 8400 5500 8400
Wire Wire Line
	5500 8400 5500 8100
Wire Wire Line
	4800 8600 4800 8300
Wire Wire Line
	5900 7250 6100 7250
Connection ~ 5900 7250
Connection ~ 6100 7250
Wire Wire Line
	6100 7250 6100 7800
Connection ~ 5800 8600
Wire Wire Line
	5800 8600 5800 8400
Wire Wire Line
	5800 8600 5900 8600
Connection ~ 5900 8600
Wire Wire Line
	5900 8600 5900 8300
Wire Wire Line
	5900 8600 6000 8600
Connection ~ 6000 8600
Wire Wire Line
	6000 8600 6000 8700
Wire Wire Line
	6600 9600 6500 9600
Wire Wire Line
	2200 10300 2650 10300
$Comp
L !ht3_misc:REZONATOR-2PIN Y?
U 1 1 61DF823F
P 2200 9700
AR Path="/61DF823F" Ref="Y?"  Part="1" 
AR Path="/61CC7676/61DF823F" Ref="Y1"  Part="1" 
F 0 "Y1" H 2050 9750 45  0000 C CNN
F 1 "32.768-KX-327LT" H 2200 9600 45  0000 C CNN
F 2 "!ht3_smd:KX-327LT" H 2230 9850 20  0001 C CNN
F 3 "" H 2200 9700 50  0001 C CNN
F 4 "00-00065839" H 2200 9700 50  0001 C CNN "Field4"
	1    2200 9700
	1    0    0    -1  
$EndComp
Text Label 1650 9700 2    50   ~ 0
OSC32_I
Wire Wire Line
	1750 9700 1650 9700
Wire Wire Line
	1750 9900 1750 9700
Wire Wire Line
	1750 10300 1750 10200
Wire Wire Line
	2200 10400 2200 10300
$Comp
L power:GND #PWR?
U 1 1 61DF824A
P 2200 10400
AR Path="/61DF824A" Ref="#PWR?"  Part="1" 
AR Path="/61CC7676/61DF824A" Ref="#PWR054"  Part="1" 
F 0 "#PWR054" H 2200 10150 50  0001 C CNN
F 1 "GND" H 2205 10227 50  0000 C CNN
F 2 "" H 2200 10400 50  0001 C CNN
F 3 "" H 2200 10400 50  0001 C CNN
	1    2200 10400
	1    0    0    -1  
$EndComp
Connection ~ 2200 10300
Wire Wire Line
	1750 10300 2200 10300
Connection ~ 1750 9700
Wire Wire Line
	2100 9700 1750 9700
Text Label 2800 9700 0    50   ~ 0
OSC32_O
Wire Wire Line
	2650 9700 2300 9700
Wire Wire Line
	2650 9700 2800 9700
Connection ~ 2650 9700
Wire Wire Line
	2650 9700 2650 9900
Wire Wire Line
	2650 10300 2650 10200
$Comp
L power:GND #PWR?
U 1 1 61DF829B
P 3450 8750
AR Path="/61DF829B" Ref="#PWR?"  Part="1" 
AR Path="/61CC7676/61DF829B" Ref="#PWR049"  Part="1" 
F 0 "#PWR049" H 3450 8500 50  0001 C CNN
F 1 "GND" H 3455 8577 50  0000 C CNN
F 2 "" H 3450 8750 50  0001 C CNN
F 3 "" H 3450 8750 50  0001 C CNN
	1    3450 8750
	1    0    0    -1  
$EndComp
Wire Wire Line
	3450 8750 3450 8650
$Comp
L !ht3_misc:VBAT #VBAT?
U 1 1 61DF82A2
P 4800 8200
AR Path="/61DF82A2" Ref="#VBAT?"  Part="1" 
AR Path="/61CC7676/61DF82A2" Ref="#VBAT02"  Part="1" 
F 0 "#VBAT02" H 4800 8200 45  0001 L BNN
F 1 "VBAT" H 4800 8271 45  0000 C CNN
F 2 "" H 4800 8200 50  0001 C CNN
F 3 "" H 4800 8200 50  0001 C CNN
	1    4800 8200
	1    0    0    -1  
$EndComp
$Comp
L !ht3_misc:VBAT #VBAT?
U 1 1 61DF82A8
P 3450 8050
AR Path="/61DF82A8" Ref="#VBAT?"  Part="1" 
AR Path="/61CC7676/61DF82A8" Ref="#VBAT01"  Part="1" 
F 0 "#VBAT01" H 3450 8050 45  0001 L BNN
F 1 "VBAT" H 3450 8121 45  0000 C CNN
F 2 "" H 3450 8050 50  0001 C CNN
F 3 "" H 3450 8050 50  0001 C CNN
	1    3450 8050
	1    0    0    -1  
$EndComp
$Comp
L !ht3_ic:STM32F105RBTx U?
U 1 1 61DF82AE
P 5800 10500
AR Path="/61DF82AE" Ref="U?"  Part="1" 
AR Path="/61CC7676/61DF82AE" Ref="U5"  Part="1" 
F 0 "U5" H 5250 12250 50  0000 C CNN
F 1 "STM32F205RET6" H 6400 8750 50  0000 C CNN
F 2 "!ht3_smd:LQFP-64_10x10mm_P0.5mm" H 5200 8800 50  0001 R CNN
F 3 "" H 5800 10500 50  0001 C CNN
F 4 "00-00029011" H 5800 10500 50  0001 C CNN "kosmodrom"
F 5 "https://www.rcscomponents.kiev.ua/product/stm32f205ret6_37985.html" H 5800 10500 50  0001 C CNN "RKS"
	1    5800 10500
	1    0    0    -1  
$EndComp
Wire Wire Line
	5600 8700 5600 8600
Wire Wire Line
	5600 8600 4800 8600
Wire Wire Line
	5300 8500 5700 8500
Wire Wire Line
	5700 8500 5700 8600
Wire Wire Line
	5500 7250 5300 7250
Wire Wire Line
	5300 7250 5300 7800
Connection ~ 5500 7250
Wire Wire Line
	3450 8350 3450 8250
$Comp
L power:+3.3V #PWR?
U 1 1 61DF82CA
P 5100 7350
AR Path="/61DF82CA" Ref="#PWR?"  Part="1" 
AR Path="/61CC7676/61DF82CA" Ref="#PWR037"  Part="1" 
F 0 "#PWR037" H 5100 7200 50  0001 C CNN
F 1 "+3.3V" H 5115 7523 50  0000 C CNN
F 2 "" H 5100 7350 50  0001 C CNN
F 3 "" H 5100 7350 50  0001 C CNN
	1    5100 7350
	1    0    0    -1  
$EndComp
Wire Wire Line
	5300 8100 5300 8500
Wire Wire Line
	5100 7350 5100 8500
Wire Wire Line
	5100 8500 5300 8500
Connection ~ 5300 8500
$Comp
L power:+3.3V #PWR?
U 1 1 61DF82D4
P 10150 10200
AR Path="/61DF82D4" Ref="#PWR?"  Part="1" 
AR Path="/61CC7676/61DF82D4" Ref="#PWR053"  Part="1" 
F 0 "#PWR053" H 10150 10050 50  0001 C CNN
F 1 "+3.3V" H 10165 10373 50  0000 C CNN
F 2 "" H 10150 10200 50  0001 C CNN
F 3 "" H 10150 10200 50  0001 C CNN
	1    10150 10200
	1    0    0    -1  
$EndComp
$Comp
L power:+3.3V #PWR?
U 1 1 61DF82E0
P 5400 5400
AR Path="/61DF82E0" Ref="#PWR?"  Part="1" 
AR Path="/61CC7676/61DF82E0" Ref="#PWR023"  Part="1" 
F 0 "#PWR023" H 5400 5250 50  0001 C CNN
F 1 "+3.3V" H 5415 5573 50  0000 C CNN
F 2 "" H 5400 5400 50  0001 C CNN
F 3 "" H 5400 5400 50  0001 C CNN
	1    5400 5400
	1    0    0    -1  
$EndComp
$Comp
L power:+3.3V #PWR?
U 1 1 61DF82E6
P 6500 5700
AR Path="/61DF82E6" Ref="#PWR?"  Part="1" 
AR Path="/61CC7676/61DF82E6" Ref="#PWR025"  Part="1" 
F 0 "#PWR025" H 6500 5550 50  0001 C CNN
F 1 "+3.3V" H 6515 5873 50  0000 C CNN
F 2 "" H 6500 5700 50  0001 C CNN
F 3 "" H 6500 5700 50  0001 C CNN
	1    6500 5700
	1    0    0    -1  
$EndComp
$Comp
L power:+3.3V #PWR?
U 1 1 61DF82EC
P 4200 6200
AR Path="/61DF82EC" Ref="#PWR?"  Part="1" 
AR Path="/61CC7676/61DF82EC" Ref="#PWR027"  Part="1" 
F 0 "#PWR027" H 4200 6050 50  0001 C CNN
F 1 "+3.3V" H 4215 6373 50  0000 C CNN
F 2 "" H 4200 6200 50  0001 C CNN
F 3 "" H 4200 6200 50  0001 C CNN
	1    4200 6200
	1    0    0    -1  
$EndComp
$Comp
L !ht3_passive:R R?
U 1 1 61DF830E
P 4850 9100
AR Path="/61DF830E" Ref="R?"  Part="1" 
AR Path="/61CC7676/61DF830E" Ref="R23"  Part="1" 
F 0 "R23" H 4850 9200 45  0000 C CNN
F 1 "4.7K/0603" H 4850 9000 45  0000 C CNN
F 2 "!ht3_smd:R_0603(1608)" H 4880 9250 20  0001 C CNN
F 3 "" H 4850 9100 50  0001 C CNN
	1    4850 9100
	1    0    0    -1  
$EndComp
Wire Wire Line
	5000 9100 5100 9100
Text Label 5000 12000 2    50   ~ 0
OSC32_I
Text Label 5000 12100 2    50   ~ 0
OSC32_O
Wire Wire Line
	5100 12000 5000 12000
Wire Wire Line
	6600 11800 6500 11800
Wire Wire Line
	5000 12100 5100 12100
Wire Wire Line
	5100 11600 5000 11600
Wire Wire Line
	5000 11700 5100 11700
Wire Wire Line
	5100 11800 5000 11800
Text Label 5000 11800 2    50   ~ 0
SPI3_MOSI
Text Label 5000 11600 2    50   ~ 0
SPI3_SCK
Text Label 5000 11900 2    50   ~ 0
LED_TEST
Wire Wire Line
	5100 11900 5000 11900
Text Label 4900 10300 2    50   ~ 0
OSC_O
Text Label 4900 10200 2    50   ~ 0
OSC_I
Wire Wire Line
	5100 10300 4900 10300
Wire Wire Line
	5100 10200 4900 10200
Wire Wire Line
	5200 3700 5300 3700
Wire Wire Line
	5300 3700 5300 3600
Text Label 4800 3700 2    50   ~ 0
LED_LOW_BATT
Wire Wire Line
	4800 3700 4900 3700
$Comp
L !ht3_led:LED D?
U 1 1 6232299B
P 5300 3400
AR Path="/6232299B" Ref="D?"  Part="1" 
AR Path="/61CC7676/6232299B" Ref="D1"  Part="1" 
F 0 "D1" H 5400 3400 45  0000 L CNN
F 1 "LED-ORANGE/0603" H 5400 3300 45  0000 L CNN
F 2 "!ht3_led:LED_0603(1608)" H 5330 3550 20  0001 C CNN
F 3 "" H 5300 3400 50  0001 C CNN
F 4 "C72041" H 5300 3400 50  0001 C CNN "LCSC"
	1    5300 3400
	1    0    0    -1  
$EndComp
Wire Wire Line
	5300 3200 5300 3300
$Comp
L !ht3_passive:C C?
U 1 1 623229C0
P 3100 11300
AR Path="/623229C0" Ref="C?"  Part="1" 
AR Path="/61CC7676/623229C0" Ref="C17"  Part="1" 
F 0 "C17" H 3208 11292 45  0000 L CNN
F 1 "12p/0603" H 3208 11208 45  0000 L CNN
F 2 "!ht3_smd:C_0603(1608)" H 3130 11450 20  0001 C CNN
F 3 "" H 3100 11300 50  0001 C CNN
F 4 "C38523" H 3100 11300 50  0001 C CNN "LCSC"
	1    3100 11300
	1    0    0    -1  
$EndComp
Wire Wire Line
	2350 11600 2350 11400
$Comp
L power:GND #PWR?
U 1 1 623229C7
P 2350 11600
AR Path="/623229C7" Ref="#PWR?"  Part="1" 
AR Path="/61CC7676/623229C7" Ref="#PWR058"  Part="1" 
F 0 "#PWR058" H 2350 11350 50  0001 C CNN
F 1 "GND" H 2355 11427 50  0000 C CNN
F 2 "" H 2350 11600 50  0001 C CNN
F 3 "" H 2350 11600 50  0001 C CNN
	1    2350 11600
	1    0    0    -1  
$EndComp
$Comp
L !ht3_misc:REZONATOR-4PIN-3225 Y?
U 1 1 623229CE
P 2450 11100
AR Path="/623229CE" Ref="Y?"  Part="1" 
AR Path="/61CC7676/623229CE" Ref="Y2"  Part="1" 
F 0 "Y2" H 2464 11324 45  0000 C CNN
F 1 "16MHz-3225-4P" H 2464 11240 45  0000 C CNN
F 2 "!ht3_smd:CRYSTAL-3225" H 2480 11250 20  0001 C CNN
F 3 "" H 2450 11100 50  0001 C CNN
F 4 "C13738" H 2450 11100 50  0001 C CNN "LCSC"
F 5 "Замена KX-7 16.0 MHz - 00-00055147" H 2450 11100 50  0001 C CNN "Field5"
	1    2450 11100
	1    0    0    -1  
$EndComp
$Comp
L !ht3_passive:C C?
U 1 1 623229D5
P 1750 11300
AR Path="/623229D5" Ref="C?"  Part="1" 
AR Path="/61CC7676/623229D5" Ref="C16"  Part="1" 
F 0 "C16" H 1858 11292 45  0000 L CNN
F 1 "12p/0603" H 1858 11208 45  0000 L CNN
F 2 "!ht3_smd:C_0603(1608)" H 1780 11450 20  0001 C CNN
F 3 "" H 1750 11300 50  0001 C CNN
F 4 "C38523" H 1750 11300 50  0001 C CNN "LCSC"
	1    1750 11300
	1    0    0    -1  
$EndComp
Wire Wire Line
	1750 11500 1750 11600
Wire Wire Line
	3100 11500 3100 11600
Wire Wire Line
	1750 11200 1750 11100
Wire Wire Line
	1750 11100 1650 11100
Wire Wire Line
	1750 11100 2350 11100
Connection ~ 1750 11100
Text Label 1650 11100 2    50   ~ 0
OSC_I
Wire Wire Line
	3100 11200 3100 11100
Wire Wire Line
	2550 11100 3100 11100
Wire Wire Line
	3100 11100 3200 11100
Connection ~ 3100 11100
Text Label 3200 11100 0    50   ~ 0
OSC_O
$Comp
L power:GND #PWR?
U 1 1 623229E7
P 1750 11600
AR Path="/623229E7" Ref="#PWR?"  Part="1" 
AR Path="/61CC7676/623229E7" Ref="#PWR057"  Part="1" 
F 0 "#PWR057" H 1750 11350 50  0001 C CNN
F 1 "GND" H 1755 11427 50  0000 C CNN
F 2 "" H 1750 11600 50  0001 C CNN
F 3 "" H 1750 11600 50  0001 C CNN
	1    1750 11600
	1    0    0    -1  
$EndComp
$Comp
L power:GND #PWR?
U 1 1 623229ED
P 3100 11600
AR Path="/623229ED" Ref="#PWR?"  Part="1" 
AR Path="/61CC7676/623229ED" Ref="#PWR060"  Part="1" 
F 0 "#PWR060" H 3100 11350 50  0001 C CNN
F 1 "GND" H 3105 11427 50  0000 C CNN
F 2 "" H 3100 11600 50  0001 C CNN
F 3 "" H 3100 11600 50  0001 C CNN
	1    3100 11600
	1    0    0    -1  
$EndComp
Wire Wire Line
	2550 11600 2550 11400
$Comp
L power:GND #PWR?
U 1 1 62322A00
P 2550 11600
AR Path="/62322A00" Ref="#PWR?"  Part="1" 
AR Path="/61CC7676/62322A00" Ref="#PWR059"  Part="1" 
F 0 "#PWR059" H 2550 11350 50  0001 C CNN
F 1 "GND" H 2555 11427 50  0000 C CNN
F 2 "" H 2550 11600 50  0001 C CNN
F 3 "" H 2550 11600 50  0001 C CNN
	1    2550 11600
	1    0    0    -1  
$EndComp
$Comp
L !ht3_passive:R R?
U 1 1 62322A43
P 5050 3700
AR Path="/62322A43" Ref="R?"  Part="1" 
AR Path="/61CC7676/62322A43" Ref="R9"  Part="1" 
F 0 "R9" H 5050 3600 45  0000 C CNN
F 1 "4.7K/0603" H 5050 3800 45  0000 C CNN
F 2 "!ht3_smd:R_0603(1608)" H 5080 3850 20  0001 C CNN
F 3 "" H 5050 3700 50  0001 C CNN
F 4 "C163915" H 5050 3700 50  0001 C CNN "LCSC"
	1    5050 3700
	-1   0    0    1   
$EndComp
Text Notes 5400 4700 0    50   ~ 0
"LED FAULT"
Wire Wire Line
	5200 4750 5300 4750
Wire Wire Line
	5300 4750 5300 4650
Text Label 4800 4750 2    50   ~ 0
LED_FAULT
Wire Wire Line
	4800 4750 4900 4750
$Comp
L !ht3_passive:R R?
U 1 1 62322A80
P 5050 4750
AR Path="/62322A80" Ref="R?"  Part="1" 
AR Path="/61CC7676/62322A80" Ref="R11"  Part="1" 
F 0 "R11" H 5050 4850 45  0000 C CNN
F 1 "10K/0603" H 5050 4650 45  0000 C CNN
F 2 "!ht3_smd:R_0603(1608)" H 5080 4900 20  0001 C CNN
F 3 "" H 5050 4750 50  0001 C CNN
F 4 "C25804" H 5050 4750 50  0001 C CNN "LCSC"
	1    5050 4750
	1    0    0    -1  
$EndComp
$Comp
L !ht3_led:LED D?
U 1 1 62322A87
P 5300 4450
AR Path="/62322A87" Ref="D?"  Part="1" 
AR Path="/61CC7676/62322A87" Ref="D2"  Part="1" 
F 0 "D2" H 5400 4450 45  0000 L CNN
F 1 "LED-RED/0603" H 5400 4350 45  0000 L CNN
F 2 "!ht3_led:LED_0603(1608)_RED" H 5330 4600 20  0001 C CNN
F 3 "" H 5300 4450 50  0001 C CNN
F 4 "C192315" H 5300 4450 50  0001 C CNN "LCSC"
	1    5300 4450
	1    0    0    -1  
$EndComp
Wire Wire Line
	5300 4250 5300 4350
Text Notes 8900 11650 0    50   ~ 0
32MB data = ~10K records
$Comp
L !ht3_passive:C C?
U 1 1 63B8F9F8
P 5300 7900
AR Path="/63B8F9F8" Ref="C?"  Part="1" 
AR Path="/61CC7676/63B8F9F8" Ref="C5"  Part="1" 
F 0 "C5" V 5250 7650 45  0000 L CNN
F 1 "100n/0603" V 5250 7900 45  0000 L CNN
F 2 "!ht3_smd:C_0603(1608)" H 5330 8050 20  0001 C CNN
F 3 "" H 5300 7900 50  0001 C CNN
F 4 "C30926" H 5300 7900 50  0001 C CNN "LCSC"
	1    5300 7900
	1    0    0    -1  
$EndComp
$Comp
L !ht3_passive:C C?
U 1 1 63B8FD33
P 5500 7900
AR Path="/63B8FD33" Ref="C?"  Part="1" 
AR Path="/61CC7676/63B8FD33" Ref="C6"  Part="1" 
F 0 "C6" V 5450 7650 45  0000 L CNN
F 1 "100n/0603" V 5450 7900 45  0000 L CNN
F 2 "!ht3_smd:C_0603(1608)" H 5530 8050 20  0001 C CNN
F 3 "" H 5500 7900 50  0001 C CNN
F 4 "C30926" H 5500 7900 50  0001 C CNN "LCSC"
	1    5500 7900
	1    0    0    -1  
$EndComp
$Comp
L !ht3_passive:C C?
U 1 1 63B8FF80
P 5700 7900
AR Path="/63B8FF80" Ref="C?"  Part="1" 
AR Path="/61CC7676/63B8FF80" Ref="C7"  Part="1" 
F 0 "C7" V 5650 7650 45  0000 L CNN
F 1 "100n/0603" V 5650 7900 45  0000 L CNN
F 2 "!ht3_smd:C_0603(1608)" H 5730 8050 20  0001 C CNN
F 3 "" H 5700 7900 50  0001 C CNN
F 4 "C30926" H 5700 7900 50  0001 C CNN "LCSC"
	1    5700 7900
	1    0    0    -1  
$EndComp
$Comp
L !ht3_passive:C C?
U 1 1 63B9021F
P 5900 7900
AR Path="/63B9021F" Ref="C?"  Part="1" 
AR Path="/61CC7676/63B9021F" Ref="C8"  Part="1" 
F 0 "C8" V 5850 7650 45  0000 L CNN
F 1 "100n/0603" V 5850 7900 45  0000 L CNN
F 2 "!ht3_smd:C_0603(1608)" H 5930 8050 20  0001 C CNN
F 3 "" H 5900 7900 50  0001 C CNN
F 4 "C30926" H 5900 7900 50  0001 C CNN "LCSC"
	1    5900 7900
	1    0    0    -1  
$EndComp
$Comp
L !ht3_passive:C C?
U 1 1 63B90598
P 6100 7900
AR Path="/63B90598" Ref="C?"  Part="1" 
AR Path="/61CC7676/63B90598" Ref="C9"  Part="1" 
F 0 "C9" V 6050 7650 45  0000 L CNN
F 1 "100n/0603" V 6050 7900 45  0000 L CNN
F 2 "!ht3_smd:C_0603(1608)" H 6130 8050 20  0001 C CNN
F 3 "" H 6100 7900 50  0001 C CNN
F 4 "C30926" H 6100 7900 50  0001 C CNN "LCSC"
	1    6100 7900
	1    0    0    -1  
$EndComp
$Comp
L !ht3_passive:C C?
U 1 1 63C72BB3
P 2650 10000
AR Path="/63C72BB3" Ref="C?"  Part="1" 
AR Path="/61CC7676/63C72BB3" Ref="C14"  Part="1" 
F 0 "C14" H 2758 9992 45  0000 L CNN
F 1 "12p/0603" H 2758 9908 45  0000 L CNN
F 2 "!ht3_smd:C_0603(1608)" H 2680 10150 20  0001 C CNN
F 3 "" H 2650 10000 50  0001 C CNN
F 4 "C38523" H 2650 10000 50  0001 C CNN "LCSC"
	1    2650 10000
	1    0    0    -1  
$EndComp
$Comp
L !ht3_passive:C C?
U 1 1 63C72EF8
P 1750 10000
AR Path="/63C72EF8" Ref="C?"  Part="1" 
AR Path="/61CC7676/63C72EF8" Ref="C13"  Part="1" 
F 0 "C13" H 1858 9992 45  0000 L CNN
F 1 "12p/0603" H 1858 9908 45  0000 L CNN
F 2 "!ht3_smd:C_0603(1608)" H 1780 10150 20  0001 C CNN
F 3 "" H 1750 10000 50  0001 C CNN
F 4 "C38523" H 1750 10000 50  0001 C CNN "LCSC"
	1    1750 10000
	1    0    0    -1  
$EndComp
Wire Wire Line
	5000 11400 5100 11400
Wire Wire Line
	5100 11500 5000 11500
Text Notes 4350 6550 0    50   ~ 0
"LED HB"
Text Notes 5900 5450 0    79   Italic 16
SWD
Text HLabel 6600 9000 2    50   Input ~ 0
ADC_PWR1_V
Wire Wire Line
	6500 9800 6600 9800
Wire Wire Line
	6600 9700 6500 9700
$Comp
L power:GND #PWR?
U 1 1 64062434
P 2000 5350
AR Path="/64062434" Ref="#PWR?"  Part="1" 
AR Path="/61CC7676/64062434" Ref="#PWR022"  Part="1" 
F 0 "#PWR022" H 2000 5100 50  0001 C CNN
F 1 "GND" H 2005 5177 50  0000 C CNN
F 2 "" H 2000 5350 50  0001 C CNN
F 3 "" H 2000 5350 50  0001 C CNN
	1    2000 5350
	-1   0    0    -1  
$EndComp
Wire Wire Line
	2000 5250 2000 5350
Text Label 3400 4750 0    50   ~ 0
NRESET
Wire Wire Line
	3400 4750 3300 4750
$Comp
L power:GND #PWR?
U 1 1 6407FACF
P 1300 5350
AR Path="/6407FACF" Ref="#PWR?"  Part="1" 
AR Path="/61CC7676/6407FACF" Ref="#PWR021"  Part="1" 
F 0 "#PWR021" H 1300 5100 50  0001 C CNN
F 1 "GND" H 1305 5177 50  0000 C CNN
F 2 "" H 1300 5350 50  0001 C CNN
F 3 "" H 1300 5350 50  0001 C CNN
	1    1300 5350
	-1   0    0    -1  
$EndComp
Wire Wire Line
	1300 4850 1300 4950
Wire Wire Line
	2000 4450 2000 4250
$Comp
L power:+3.3V #PWR?
U 1 1 640ADF91
P 2000 4250
AR Path="/640ADF91" Ref="#PWR?"  Part="1" 
AR Path="/61CC7676/640ADF91" Ref="#PWR018"  Part="1" 
F 0 "#PWR018" H 2000 4100 50  0001 C CNN
F 1 "+3.3V" H 2015 4423 50  0000 C CNN
F 2 "" H 2000 4250 50  0001 C CNN
F 3 "" H 2000 4250 50  0001 C CNN
	1    2000 4250
	1    0    0    -1  
$EndComp
$Comp
L power:+3.3V #PWR?
U 1 1 640AE61D
P 2350 7750
AR Path="/640AE61D" Ref="#PWR?"  Part="1" 
AR Path="/61CC7676/640AE61D" Ref="#PWR038"  Part="1" 
F 0 "#PWR038" H 2350 7600 50  0001 C CNN
F 1 "+3.3V" H 2365 7923 50  0000 C CNN
F 2 "" H 2350 7750 50  0001 C CNN
F 3 "" H 2350 7750 50  0001 C CNN
	1    2350 7750
	1    0    0    -1  
$EndComp
$Comp
L !ht3_passive:C C?
U 1 1 640AEA13
P 3200 8450
AR Path="/640AEA13" Ref="C?"  Part="1" 
AR Path="/61CC7676/640AEA13" Ref="C11"  Part="1" 
F 0 "C11" V 3150 8200 45  0000 L CNN
F 1 "100n/0603" V 3150 8450 45  0000 L CNN
F 2 "!ht3_smd:C_0603(1608)" H 3230 8600 20  0001 C CNN
F 3 "" H 3200 8450 50  0001 C CNN
F 4 "C30926" H 3200 8450 50  0001 C CNN "LCSC"
	1    3200 8450
	1    0    0    -1  
$EndComp
$Comp
L power:GND #PWR?
U 1 1 640AF045
P 3200 8750
AR Path="/640AF045" Ref="#PWR?"  Part="1" 
AR Path="/61CC7676/640AF045" Ref="#PWR048"  Part="1" 
F 0 "#PWR048" H 3200 8500 50  0001 C CNN
F 1 "GND" H 3205 8577 50  0000 C CNN
F 2 "" H 3200 8750 50  0001 C CNN
F 3 "" H 3200 8750 50  0001 C CNN
	1    3200 8750
	1    0    0    -1  
$EndComp
Wire Wire Line
	3200 8750 3200 8650
Wire Wire Line
	3200 8350 3200 8250
Wire Wire Line
	3200 8250 3450 8250
Connection ~ 3450 8250
Wire Wire Line
	3450 8250 3450 8150
$Comp
L power:+3.3V #PWR?
U 1 1 61DF82C4
P 1750 6700
AR Path="/61DF82C4" Ref="#PWR?"  Part="1" 
AR Path="/61CC7676/61DF82C4" Ref="#PWR034"  Part="1" 
F 0 "#PWR034" H 1750 6550 50  0001 C CNN
F 1 "+3.3V" H 1765 6873 50  0000 C CNN
F 2 "" H 1750 6700 50  0001 C CNN
F 3 "" H 1750 6700 50  0001 C CNN
	1    1750 6700
	1    0    0    -1  
$EndComp
$Comp
L power:+3.3VA #PWR042
U 1 1 64101438
P 6350 8500
F 0 "#PWR042" H 6350 8350 50  0001 C CNN
F 1 "+3.3VA" H 6365 8673 50  0000 C CNN
F 2 "" H 6350 8500 50  0001 C CNN
F 3 "" H 6350 8500 50  0001 C CNN
	1    6350 8500
	1    0    0    -1  
$EndComp
Wire Wire Line
	6350 8500 6350 8600
Wire Wire Line
	6350 8600 6100 8600
Wire Wire Line
	1750 6800 1850 6800
Wire Wire Line
	31350 57900 31900 57900
Wire Wire Line
	2100 2450 2000 2450
$Comp
L !ht3_ic:USBLC6-2-SOT-666 U?
U 1 1 5E4F60F4
P 2200 2250
AR Path="/5E4F60F4" Ref="U?"  Part="1" 
AR Path="/698A2E9A/5E4F60F4" Ref="U?"  Part="1" 
AR Path="/5CF802FC/5E4F60F4" Ref="U?"  Part="1" 
AR Path="/61CC7676/5E4F60F4" Ref="U1"  Part="1" 
F 0 "U1" H 2250 2300 45  0000 C CNN
F 1 "USBLC6-2SC6" H 2500 1800 45  0000 C CNN
F 2 "!ht3_smd:SOT-23-6" H 2550 2300 20  0001 C CNN
F 3 "" H 2200 2250 50  0001 C CNN
F 4 "00-00033095" H 2200 2250 50  0001 C CNN "Field4"
	1    2200 2250
	1    0    0    -1  
$EndComp
$Comp
L !ht3_passive:R R?
U 1 1 647427B9
P 3500 2350
AR Path="/647427B9" Ref="R?"  Part="1" 
AR Path="/698A2E9A/647427B9" Ref="R?"  Part="1" 
AR Path="/5CF802FC/647427B9" Ref="R?"  Part="1" 
AR Path="/61CC7676/647427B9" Ref="R7"  Part="1" 
F 0 "R7" H 3300 2400 45  0000 C CNN
F 1 "22/0603" H 3800 2400 45  0000 C CNN
F 2 "!ht3_smd:R_0603(1608)" H 3530 2500 20  0001 C CNN
F 3 "" H 3500 2350 50  0001 C CNN
	1    3500 2350
	1    0    0    -1  
$EndComp
Wire Wire Line
	3000 1700 3000 2450
Connection ~ 3000 1700
Wire Wire Line
	2900 2450 3000 2450
Wire Wire Line
	3000 1250 3000 1350
$Comp
L power:+5V #PWR08
U 1 1 6084B6D0
P 3000 1250
F 0 "#PWR08" H 3000 1100 50  0001 C CNN
F 1 "+5V" H 3015 1423 50  0000 C CNN
F 2 "" H 3000 1250 50  0001 C CNN
F 3 "" H 3000 1250 50  0001 C CNN
	1    3000 1250
	1    0    0    -1  
$EndComp
$Comp
L !ht3_passive:C C1
U 1 1 5F8492C3
P 3000 3000
F 0 "C1" V 2950 2750 45  0000 L CNN
F 1 "100n/0603" V 2950 3000 45  0000 L CNN
F 2 "!ht3_smd:C_0603(1608)" H 3030 3150 20  0001 C CNN
F 3 "" H 3000 3000 50  0001 C CNN
F 4 "C30926" H 3000 3000 50  0001 C CNN "LCSC"
	1    3000 3000
	1    0    0    -1  
$EndComp
Wire Wire Line
	3000 2900 3000 2450
Connection ~ 3000 2450
Wire Wire Line
	3000 3200 3000 3300
Wire Wire Line
	3000 3300 2000 3300
Wire Wire Line
	3650 2350 4050 2350
Text Label 4050 2350 0    50   ~ 0
USB1_N
Text Notes 2350 1225 0    79   Italic 16
USB
$Comp
L !ht3_misc:FUSE F1
U 1 1 5F743C56
P 2500 1700
F 0 "F1" H 2500 1800 45  0000 C CNN
F 1 "MF-PPTC-0805-0.5A-6V" H 2500 1600 45  0000 C CNN
F 2 "!ht3_smd:R_0805(2012)" H 2530 1850 20  0001 C CNN
F 3 "" H 2500 1700 50  0001 C CNN
	1    2500 1700
	1    0    0    -1  
$EndComp
Wire Wire Line
	2650 1700 3000 1700
Wire Wire Line
	9050 7100 9200 7100
$Comp
L power:PWR_FLAG #FLG02
U 1 1 5F848296
P 10200 5400
F 0 "#FLG02" H 10200 5475 50  0001 C CNN
F 1 "PWR_FLAG" V 10200 5750 50  0000 C CNN
F 2 "" H 10200 5400 50  0001 C CNN
F 3 "~" H 10200 5400 50  0001 C CNN
	1    10200 5400
	1    0    0    -1  
$EndComp
Text Label 12000 8550 2    50   ~ 0
CD
Wire Wire Line
	12100 8550 12000 8550
Wire Wire Line
	12100 8200 12100 8550
Connection ~ 10200 5500
Wire Wire Line
	10100 5500 10200 5500
Wire Wire Line
	10900 7800 10900 7200
Wire Wire Line
	10300 5500 10200 5500
Connection ~ 10300 5500
Wire Wire Line
	10400 5500 10300 5500
Connection ~ 10400 5500
$Comp
L !ht3_passive:R R21
U 1 1 738532C3
P 9450 7300
F 0 "R21" H 9450 7400 45  0000 C CNN
F 1 "22/0603" H 9450 7200 45  0000 C CNN
F 2 "!ht3_smd:R_0603(1608)" H 9480 7450 20  0001 C CNN
F 3 "" H 9450 7300 50  0001 C CNN
	1    9450 7300
	1    0    0    -1  
$EndComp
Wire Wire Line
	11000 7400 10750 7400
$Comp
L !ht3_connector:SD_CARD_SH_CD X5
U 1 1 5C7D6703
P 11100 6900
F 0 "X5" H 11100 6950 45  0000 L CNN
F 1 "L-KLS1-TF-007-H1.5-R" H 11600 6950 45  0000 L CNN
F 2 "!ht3_connector:L-KLS1-TF-007-H1.5-R" H 11130 7050 20  0001 C CNN
F 3 "" H 11100 6900 50  0001 C CNN
	1    11100 6900
	1    0    0    -1  
$EndComp
Wire Wire Line
	12200 8300 12200 8200
Wire Wire Line
	12400 8300 12200 8300
$Comp
L !ht3_inductor:L L1
U 1 1 5C74294E
P 9950 5500
F 0 "L1" H 9950 5600 45  0000 C CNN
F 1 "470nH/0805" H 9950 5450 45  0000 C CNN
F 2 "!ht3_smd:L_0805(2012)" H 9980 5650 20  0001 C CNN
F 3 "" H 9950 5500 50  0001 C CNN
	1    9950 5500
	1    0    0    -1  
$EndComp
$Comp
L power:GND #PWR039
U 1 1 5D1BB827
P 10900 7800
F 0 "#PWR039" H 10900 7550 50  0001 C CNN
F 1 "GND" H 10905 7627 50  0000 C CNN
F 2 "" H 10900 7800 50  0001 C CNN
F 3 "" H 10900 7800 50  0001 C CNN
	1    10900 7800
	1    0    0    -1  
$EndComp
$Comp
L power:GND #PWR041
U 1 1 5D1BB20C
P 12400 8400
F 0 "#PWR041" H 12400 8150 50  0001 C CNN
F 1 "GND" H 12405 8227 50  0000 C CNN
F 2 "" H 12400 8400 50  0001 C CNN
F 3 "" H 12400 8400 50  0001 C CNN
	1    12400 8400
	1    0    0    -1  
$EndComp
$Comp
L power:GND #PWR040
U 1 1 5D1BB133
P 10750 8400
F 0 "#PWR040" H 10750 8150 50  0001 C CNN
F 1 "GND" H 10755 8227 50  0000 C CNN
F 2 "" H 10750 8400 50  0001 C CNN
F 3 "" H 10750 8400 50  0001 C CNN
	1    10750 8400
	1    0    0    -1  
$EndComp
$Comp
L !ht3_passive:C C10
U 1 1 5C74738A
P 10750 8100
F 0 "C10" H 10858 8092 45  0000 L CNN
F 1 "10u/6.3V/0805" H 10858 8008 45  0000 L CNN
F 2 "!ht3_smd:C_0805(2012)" H 10780 8250 20  0001 C CNN
F 3 "" H 10750 8100 50  0001 C CNN
	1    10750 8100
	1    0    0    -1  
$EndComp
Wire Wire Line
	11000 7600 10400 7600
Connection ~ 10300 7500
Wire Wire Line
	11000 7500 10300 7500
Connection ~ 10200 7100
Wire Wire Line
	11000 7100 10200 7100
Wire Wire Line
	10600 6300 10600 7000
Wire Wire Line
	11000 7000 10600 7000
Wire Wire Line
	11000 7700 10500 7700
Wire Wire Line
	10500 5500 10400 5500
Wire Wire Line
	10750 8400 10750 8300
Wire Wire Line
	12400 8400 12400 8300
Wire Wire Line
	11000 7200 10900 7200
Wire Wire Line
	9800 5500 9700 5500
Wire Wire Line
	10200 5400 10200 5500
Wire Wire Line
	10750 7400 10750 5500
Wire Wire Line
	10750 5500 10600 5500
Connection ~ 10750 7400
Connection ~ 10500 5500
Wire Wire Line
	10750 7400 10750 7900
$Comp
L !ht3_passive:R R15
U 1 1 5EAF8321
P 10200 6150
F 0 "R15" H 10400 6100 45  0000 C CNN
F 1 "33K/0603" H 9900 6100 45  0000 C CNN
F 2 "!ht3_smd:R_0603(1608)" H 10230 6300 20  0001 C CNN
F 3 "" H 10200 6150 50  0001 C CNN
	1    10200 6150
	0    1    1    0   
$EndComp
Wire Wire Line
	10500 6300 10500 7700
Wire Wire Line
	10400 6300 10400 7600
Wire Wire Line
	10300 6300 10300 7500
Wire Wire Line
	10200 6300 10200 7100
Wire Wire Line
	10200 5500 10200 6000
Wire Wire Line
	10300 5500 10300 6000
Wire Wire Line
	10400 5500 10400 6000
Wire Wire Line
	10500 5500 10500 6000
Wire Wire Line
	10600 6000 10600 5500
Connection ~ 10600 5500
Wire Wire Line
	10600 5500 10500 5500
Wire Wire Line
	12400 8200 12400 8300
Connection ~ 12400 8300
Text Notes 9250 9900 0    79   ~ 16
FLASH
Text HLabel 1550 6800 0    50   Input ~ 0
+3.3V
Wire Wire Line
	1750 6800 1550 6800
Wire Wire Line
	10400 7600 9050 7600
Connection ~ 10400 7600
Text Notes 9250 5075 0    79   Italic 16
SD Card
Text Label 8700 10550 2    50   ~ 0
EXT_MEM_CS
Text Notes 9250 11300 0    50   ~ 0
2KB data
Text Notes 9250 10100 0    79   ~ 16
or FRAM
Wire Wire Line
	6500 11900 6600 11900
Wire Wire Line
	6600 12000 6500 12000
Wire Wire Line
	6500 12100 6600 12100
Text Label 6600 12100 0    50   ~ 0
SPI2_MOSI
Text Label 6600 11900 0    50   ~ 0
SPI2_SCK
Text Label 6600 12000 0    50   ~ 0
SPI2_MISO
Wire Wire Line
	6500 10900 6600 10900
Wire Wire Line
	6600 11000 6500 11000
Wire Wire Line
	6500 11100 6600 11100
Text Label 6600 11100 0    50   ~ 0
SPI1_MOSI
Text Label 6600 10900 0    50   ~ 0
SPI1_SCK
Text Notes 9200 11400 0    50   ~ 0
FM25W256-GTR
Wire Wire Line
	6500 9200 6600 9200
Text Label 9050 7500 2    50   ~ 0
SPI1_MOSI
Text Label 9050 7300 2    50   ~ 0
SPI1_SCK
Text Label 9050 7100 2    50   ~ 0
SPI1_MISO
Text Label 9050 7600 2    50   ~ 0
SPI1_CS
Text Label 6600 10800 0    50   ~ 0
SPI1_CS
Text HLabel 4900 10600 0    50   Input ~ 0
IN_1
Wire Wire Line
	5100 10600 4900 10600
Text HLabel 4900 10700 0    50   Input ~ 0
IN_2
Wire Wire Line
	5100 10700 4900 10700
Text HLabel 4900 10800 0    50   Input ~ 0
IN_3
Wire Wire Line
	5100 10800 4900 10800
Text HLabel 4900 10900 0    50   Input ~ 0
IN_4
Wire Wire Line
	5100 10900 4900 10900
Text HLabel 4900 11000 0    50   Input ~ 0
IN_5
Wire Wire Line
	5100 11000 4900 11000
Text HLabel 4900 11100 0    50   Input ~ 0
IN_6
Wire Wire Line
	5100 11100 4900 11100
$Comp
L !ht3_ic:TPL5010 U2
U 1 1 6078EFD4
P 1650 4550
F 0 "U2" H 1700 4600 50  0000 C CNN
F 1 "TPL5010" H 2250 3900 50  0000 C CNN
F 2 "!ht3_smd:SOT-23-6" H 2100 3750 50  0001 C CNN
F 3 "http://www.ti.com/lit/ds/symlink/tpl5010.pdf" H 1800 3950 50  0001 C CNN
F 4 "00-00051970" H 1650 4550 50  0001 C CNN "KOSMODROM"
	1    1650 4550
	1    0    0    -1  
$EndComp
$Comp
L !ht3_passive:R R?
U 1 1 6078F9C5
P 1300 5100
AR Path="/6078F9C5" Ref="R?"  Part="1" 
AR Path="/61CC7676/6078F9C5" Ref="R12"  Part="1" 
F 0 "R12" H 1300 5200 45  0000 C CNN
F 1 "2K/0603" H 1300 5000 45  0000 C CNN
F 2 "!ht3_smd:R_0603(1608)" H 1330 5250 20  0001 C CNN
F 3 "" H 1300 5100 50  0001 C CNN
	1    1300 5100
	0    -1   -1   0   
$EndComp
Wire Wire Line
	1300 5250 1300 5350
NoConn ~ 2500 4950
Text Notes 8350 12300 0    118  ~ 24
Data format:\n4B(UNIX_TIME), 1B(INs), 2B(ADC), 1B-STATE, 2B-CRC = 10B
$Comp
L !ht3_misc:TestPoint TP?
U 1 1 62322B45
P 9200 7000
AR Path="/62322B45" Ref="TP?"  Part="1" 
AR Path="/61CC7676/62322B45" Ref="TP2"  Part="1" 
F 0 "TP2" H 9253 7045 45  0000 L CNN
F 1 "TestPoint_C1.5mm" H 9253 6958 50  0001 L CNN
F 2 "!ht3_misc:TestPoint_C1.5mm" H 9400 6850 50  0001 C CNN
F 3 "" H 9400 7000 50  0001 C CNN
F 4 "SD Card SCK" H 9253 6958 50  0000 L CNN "Field4"
	1    9200 7000
	1    0    0    -1  
$EndComp
Wire Wire Line
	2000 2450 2000 3300
$Comp
L power:GND #PWR?
U 1 1 60D7AB13
P 3000 3400
AR Path="/60D7AB13" Ref="#PWR?"  Part="1" 
AR Path="/63F2C63B/60D7AB13" Ref="#PWR?"  Part="1" 
AR Path="/618E2CEA/60D7AB13" Ref="#PWR?"  Part="1" 
AR Path="/61CC7676/60D7AB13" Ref="#PWR016"  Part="1" 
F 0 "#PWR016" H 3000 3150 50  0001 C CNN
F 1 "GND" H 3005 3227 50  0000 C CNN
F 2 "" H 3000 3400 50  0001 C CNN
F 3 "" H 3000 3400 50  0001 C CNN
	1    3000 3400
	1    0    0    -1  
$EndComp
Wire Wire Line
	3000 3400 3000 3300
Connection ~ 3000 3300
Connection ~ 1750 6800
Text Notes 5400 3650 0    50   ~ 0
"LOW BATT"
Text Notes 8350 12700 0    118  ~ 24
EST TIME: 256Mb = 32MB/10B = APPROC 3200000 / 60 / 60 / 24 = 37 days
Text Label 2600 4850 0    50   ~ 0
DONE
Wire Wire Line
	2500 4850 2600 4850
$Comp
L !ht3_passive:R R?
U 1 1 60FE232E
P 3150 4750
AR Path="/60FE232E" Ref="R?"  Part="1" 
AR Path="/61CC7676/60FE232E" Ref="R10"  Part="1" 
F 0 "R10" H 3150 4850 45  0000 C CNN
F 1 "2.2K/0603" H 3150 4650 45  0000 C CNN
F 2 "!ht3_smd:R_0603(1608)" H 3180 4900 20  0001 C CNN
F 3 "" H 3150 4750 50  0001 C CNN
	1    3150 4750
	1    0    0    -1  
$EndComp
Wire Wire Line
	3000 4750 2500 4750
Text Notes 3100 5000 0    50   ~ 0
NM
Wire Wire Line
	1450 4850 1300 4850
Text HLabel 1600 2350 0    50   Input ~ 0
USB_N
Wire Wire Line
	1600 2350 2100 2350
Text HLabel 1600 2550 0    50   Input ~ 0
USB_P
Wire Wire Line
	1600 2550 2100 2550
Text HLabel 1600 1700 0    50   Input ~ 0
USBV
Wire Wire Line
	1600 1700 2350 1700
$Comp
L !ht3_passive:R R?
U 1 1 6160FB35
P 3500 2550
AR Path="/6160FB35" Ref="R?"  Part="1" 
AR Path="/698A2E9A/6160FB35" Ref="R?"  Part="1" 
AR Path="/5CF802FC/6160FB35" Ref="R?"  Part="1" 
AR Path="/61CC7676/6160FB35" Ref="R8"  Part="1" 
F 0 "R8" H 3300 2600 45  0000 C CNN
F 1 "22/0603" H 3800 2600 45  0000 C CNN
F 2 "!ht3_smd:R_0603(1608)" H 3530 2700 20  0001 C CNN
F 3 "" H 3500 2550 50  0001 C CNN
	1    3500 2550
	1    0    0    -1  
$EndComp
Wire Wire Line
	3650 2550 4050 2550
Text Label 4050 2550 0    50   ~ 0
USB1_P
Text Label 6600 9200 0    50   ~ 0
ADC_IN_1
Wire Wire Line
	5600 12400 5900 12400
Wire Wire Line
	5900 12400 6000 12400
Wire Wire Line
	6000 12400 6000 12300
Connection ~ 5900 12400
$Comp
L !ht3_passive:C C18
U 1 1 606B0194
P 5800 13300
F 0 "C18" V 5750 13050 45  0000 L CNN
F 1 "2.2u/16V/0805" V 5750 13300 45  0000 L CNN
F 2 "!ht3_smd:C_0805(2012)" H 5830 13450 20  0001 C CNN
F 3 "" H 5800 13300 50  0001 C CNN
F 4 "C30926" H 5800 13300 50  0001 C CNN "LCSC"
	1    5800 13300
	1    0    0    -1  
$EndComp
$Comp
L power:GND #PWR?
U 1 1 606B019D
P 5800 13600
AR Path="/606B019D" Ref="#PWR?"  Part="1" 
AR Path="/63F2C63B/606B019D" Ref="#PWR?"  Part="1" 
AR Path="/618E2CEA/606B019D" Ref="#PWR?"  Part="1" 
AR Path="/61CC7676/606B019D" Ref="#PWR065"  Part="1" 
F 0 "#PWR065" H 5800 13350 50  0001 C CNN
F 1 "GND" H 5805 13427 50  0000 C CNN
F 2 "" H 5800 13600 50  0001 C CNN
F 3 "" H 5800 13600 50  0001 C CNN
	1    5800 13600
	1    0    0    -1  
$EndComp
Wire Wire Line
	5800 13500 5800 13600
Wire Wire Line
	5800 12300 5800 12500
$Comp
L !ht3_passive:C C19
U 1 1 607019E8
P 6000 13300
F 0 "C19" V 5950 13050 45  0000 L CNN
F 1 "2.2u/16V/0805" V 5950 13300 45  0000 L CNN
F 2 "!ht3_smd:C_0805(2012)" H 6030 13450 20  0001 C CNN
F 3 "" H 6000 13300 50  0001 C CNN
F 4 "C30926" H 6000 13300 50  0001 C CNN "LCSC"
	1    6000 13300
	1    0    0    -1  
$EndComp
$Comp
L power:GND #PWR?
U 1 1 607019EE
P 6000 13600
AR Path="/607019EE" Ref="#PWR?"  Part="1" 
AR Path="/63F2C63B/607019EE" Ref="#PWR?"  Part="1" 
AR Path="/618E2CEA/607019EE" Ref="#PWR?"  Part="1" 
AR Path="/61CC7676/607019EE" Ref="#PWR066"  Part="1" 
F 0 "#PWR066" H 6000 13350 50  0001 C CNN
F 1 "GND" H 6005 13427 50  0000 C CNN
F 2 "" H 6000 13600 50  0001 C CNN
F 3 "" H 6000 13600 50  0001 C CNN
	1    6000 13600
	1    0    0    -1  
$EndComp
Wire Wire Line
	6000 13500 6000 13600
Wire Wire Line
	6000 13200 6000 13100
Wire Wire Line
	6000 12500 5800 12500
Wire Wire Line
	5700 12300 5700 12600
Wire Wire Line
	5700 12600 5800 12600
Wire Wire Line
	5800 12600 5800 13100
Text Label 6600 11600 0    50   ~ 0
UART3_TX
Text Label 6600 11700 0    50   ~ 0
UART3_RX
$Comp
L !ht3_passive:R R16
U 1 1 60850643
P 10300 6150
F 0 "R16" H 10500 6100 45  0000 C CNN
F 1 "33K/0603" H 10000 6100 45  0000 C CNN
F 2 "!ht3_smd:R_0603(1608)" H 10330 6300 20  0001 C CNN
F 3 "" H 10300 6150 50  0001 C CNN
	1    10300 6150
	0    1    1    0   
$EndComp
$Comp
L !ht3_passive:R R17
U 1 1 60850746
P 10400 6150
F 0 "R17" H 10600 6100 45  0000 C CNN
F 1 "33K/0603" H 10100 6100 45  0000 C CNN
F 2 "!ht3_smd:R_0603(1608)" H 10430 6300 20  0001 C CNN
F 3 "" H 10400 6150 50  0001 C CNN
	1    10400 6150
	0    1    1    0   
$EndComp
$Comp
L !ht3_passive:R R18
U 1 1 608508F8
P 10500 6150
F 0 "R18" H 10700 6100 45  0000 C CNN
F 1 "33K/0603" H 10200 6100 45  0000 C CNN
F 2 "!ht3_smd:R_0603(1608)" H 10530 6300 20  0001 C CNN
F 3 "" H 10500 6150 50  0001 C CNN
	1    10500 6150
	0    1    1    0   
$EndComp
$Comp
L !ht3_passive:R R19
U 1 1 60850A54
P 10600 6150
F 0 "R19" H 10800 6100 45  0000 C CNN
F 1 "33K/0603" H 10300 6100 45  0000 C CNN
F 2 "!ht3_smd:R_0603(1608)" H 10630 6300 20  0001 C CNN
F 3 "" H 10600 6150 50  0001 C CNN
	1    10600 6150
	0    1    1    0   
$EndComp
Wire Wire Line
	8000 5700 8000 5800
Wire Wire Line
	8000 5700 7900 5700
Connection ~ 8000 5700
Wire Wire Line
	8000 6200 8000 6100
$Comp
L power:GND #PWR?
U 1 1 60859E58
P 8000 6200
AR Path="/600B9C6A/60859E58" Ref="#PWR?"  Part="1" 
AR Path="/5FF89635/60859E58" Ref="#PWR?"  Part="1" 
AR Path="/60EE5585/60859E58" Ref="#PWR?"  Part="1" 
AR Path="/62863B64/60859E58" Ref="#PWR?"  Part="1" 
AR Path="/62861DD1/60859E58" Ref="#PWR?"  Part="1" 
AR Path="/61CC7676/60859E58" Ref="#PWR030"  Part="1" 
F 0 "#PWR030" H 8000 5950 50  0001 C CNN
F 1 "GND" H 8005 6027 50  0000 C CNN
F 2 "" H 8000 6200 50  0001 C CNN
F 3 "" H 8000 6200 50  0001 C CNN
	1    8000 6200
	1    0    0    -1  
$EndComp
$Comp
L !ht3_passive:R R?
U 1 1 60859E5F
P 8000 5950
AR Path="/600B9C6A/60859E5F" Ref="R?"  Part="1" 
AR Path="/5FF89635/60859E5F" Ref="R?"  Part="1" 
AR Path="/60EE5585/60859E5F" Ref="R?"  Part="1" 
AR Path="/62863B64/60859E5F" Ref="R?"  Part="1" 
AR Path="/62861DD1/60859E5F" Ref="R?"  Part="1" 
AR Path="/61CC7676/60859E5F" Ref="R14"  Part="1" 
F 0 "R14" H 8000 5850 45  0000 C CNN
F 1 "10K/0603" H 8000 6050 45  0000 C CNN
F 2 "!ht3_smd:R_0603(1608)" H 8030 6100 20  0001 C CNN
F 3 "" H 8000 5950 50  0001 C CNN
F 4 "C269701" H 8000 5950 50  0001 C CNN "LCSC"
	1    8000 5950
	0    1    1    0   
$EndComp
Text Label 7900 5700 2    50   ~ 0
SD_CARD_PWR_ON
$Comp
L !ht3_switcher:SWITCH_G2-SMD SW1
U 1 1 60935658
P 2350 8550
F 0 "SW1" H 2527 8550 45  0000 L CNN
F 1 "SW_PUSH_6mm" H 2350 8550 45  0001 L BNN
F 2 "!ht3_swither:SW_PUSH_6mm" H 2380 8700 20  0001 C CNN
F 3 "" H 2350 8550 50  0001 C CNN
	1    2350 8550
	1    0    0    -1  
$EndComp
Wire Wire Line
	2450 8350 2450 8250
Wire Wire Line
	2450 8250 2350 8250
Wire Wire Line
	2350 8850 2450 8850
Wire Wire Line
	2450 8850 2450 8750
Connection ~ 2350 8850
Wire Wire Line
	2350 8850 2350 8950
$Comp
L !ht3_misc:TestPoint TP?
U 1 1 609CD873
P 10750 5400
AR Path="/609CD873" Ref="TP?"  Part="1" 
AR Path="/61CC7676/609CD873" Ref="TP1"  Part="1" 
F 0 "TP1" H 10803 5445 45  0000 L CNN
F 1 "TestPoint_C1.5mm" H 10803 5358 50  0001 L CNN
F 2 "!ht3_misc:TestPoint_C1.5mm" H 10950 5250 50  0001 C CNN
F 3 "" H 10950 5400 50  0001 C CNN
F 4 "SD Card power" H 10803 5358 50  0000 L CNN "Field4"
	1    10750 5400
	1    0    0    -1  
$EndComp
Wire Wire Line
	10750 5400 10750 5500
Connection ~ 10750 5500
Wire Notes Line
	850  3850 3750 3850
Wire Notes Line
	3750 3850 3750 5700
Wire Notes Line
	3750 5700 850  5700
Wire Notes Line
	850  5700 850  3850
Text Notes 2200 4350 0    50   ~ 0
Not mount
Text Notes 900  4000 0    79   Italic 16
External WatchDog
$Comp
L !ht3_module:OLED-1.3-SPI-THT-MODULE DS1
U 1 1 60B1BD2C
P 8400 3500
F 0 "DS1" H 8450 3550 45  0000 L CNN
F 1 "OLED_1.3_7PIN_SPI" H 8650 2650 45  0000 L CNN
F 2 "!ht3_module:OLED_1.3_7PIN_SPI" H 8430 3650 20  0001 C CNN
F 3 "" H 8400 3500 50  0001 C CNN
F 4 "OLED-1.30-128X64-7PIN-WHITE - 00-00050851" H 8400 3500 50  0001 C CNN "KOSMODROM"
F 5 " 00-00050851" H 8400 3500 50  0001 C CNN "Field5"
	1    8400 3500
	1    0    0    -1  
$EndComp
Text Label 8200 3900 2    50   ~ 0
SPI3_MOSI
Text Label 8200 4000 2    50   ~ 0
SPI3_SCK
Text Label 8200 3600 2    50   ~ 0
OLED_CS
Wire Wire Line
	8200 3900 8300 3900
Wire Wire Line
	8200 4000 8300 4000
Wire Wire Line
	8300 3600 8200 3600
$Comp
L power:GND #PWR?
U 1 1 60BD7689
P 8200 4300
AR Path="/60BD7689" Ref="#PWR?"  Part="1" 
AR Path="/61CC7676/60BD7689" Ref="#PWR020"  Part="1" 
F 0 "#PWR020" H 8200 4050 50  0001 C CNN
F 1 "GND" H 8205 4127 50  0000 C CNN
F 2 "" H 8200 4300 50  0001 C CNN
F 3 "" H 8200 4300 50  0001 C CNN
	1    8200 4300
	1    0    0    -1  
$EndComp
Wire Wire Line
	8200 4200 8200 4300
Wire Wire Line
	8300 4200 8200 4200
$Comp
L !ht3_misc:BATTERY BT1
U 1 1 6065FFB5
P 3450 8450
F 0 "BT1" H 3578 8442 45  0000 L CNN
F 1 "BATTHOLDER-SN2032" H 3578 8358 45  0000 L CNN
F 2 "!ht3_misc:BATTHOLDER-SN2032" H 3480 8600 20  0001 C CNN
F 3 "" H 3450 8450 50  0001 C CNN
	1    3450 8450
	1    0    0    -1  
$EndComp
Wire Wire Line
	8300 4100 7600 4100
$Comp
L power:+5V #PWR017
U 1 1 60722039
P 7600 3600
F 0 "#PWR017" H 7600 3450 50  0001 C CNN
F 1 "+5V" H 7615 3773 50  0000 C CNN
F 2 "" H 7600 3600 50  0001 C CNN
F 3 "" H 7600 3600 50  0001 C CNN
	1    7600 3600
	1    0    0    -1  
$EndComp
Wire Wire Line
	7600 3600 7600 4100
Text HLabel 1600 1350 0    50   Input ~ 0
+5V
Wire Wire Line
	1600 1350 3000 1350
Connection ~ 3000 1350
Wire Wire Line
	3000 1350 3000 1700
Text Label 6600 11800 0    50   ~ 0
EXT_MEM_CS
Text Label 8200 3800 2    50   ~ 0
OLED_RES
Wire Wire Line
	8200 3800 8300 3800
Text Label 8200 3700 2    50   ~ 0
OLED_DS
Wire Wire Line
	8200 3700 8300 3700
Text Label 5000 11500 2    50   ~ 0
OLED_CS
Text Label 5000 11400 2    50   ~ 0
OLED_RES
Text Label 5000 11700 2    50   ~ 0
OLED_DS
Text Label 5950 1700 0    50   ~ 0
KEY_OK
Wire Wire Line
	5850 1700 5950 1700
Text Label 6650 1700 0    50   ~ 0
KEY_UP
Text Label 7300 1700 0    50   ~ 0
KEY_DOWN
Text Label 8000 1700 0    50   ~ 0
KEY_RIGHT
Text Label 8700 1700 0    50   ~ 0
KEY_LEFT
$Comp
L !ht3_switcher:BUTTON-4P S1
U 1 1 60660A1E
P 5750 2000
F 0 "S1" H 5927 2000 45  0000 L CNN
F 1 "SW_PUSH_6mm" H 5927 1958 39  0001 L CNN
F 2 "!ht3_swither:SW_PUSH_6mm" H 5780 2150 20  0001 C CNN
F 3 "" H 5750 2000 50  0001 C CNN
	1    5750 2000
	1    0    0    -1  
$EndComp
$Comp
L !ht3_passive:R R?
U 1 1 60680164
P 5750 1450
AR Path="/60680164" Ref="R?"  Part="1" 
AR Path="/61CC7676/60680164" Ref="R2"  Part="1" 
F 0 "R2" H 5750 1350 45  0000 C CNN
F 1 "10K/0603" H 5750 1550 45  0000 C CNN
F 2 "!ht3_smd:R_0603(1608)" H 5780 1600 20  0001 C CNN
F 3 "" H 5750 1450 50  0001 C CNN
	1    5750 1450
	0    1    1    0   
$EndComp
Wire Wire Line
	5750 1300 5750 1200
Wire Wire Line
	5750 1800 5750 1700
Wire Wire Line
	5750 1700 5850 1700
Wire Wire Line
	5850 1700 5850 1800
Connection ~ 5750 1700
Wire Wire Line
	5750 1700 5750 1600
Wire Wire Line
	5750 2200 5750 2300
Wire Wire Line
	5750 2300 5850 2300
Wire Wire Line
	5850 2300 5850 2200
$Comp
L power:GND #PWR?
U 1 1 60719BCE
P 5850 2400
AR Path="/60719BCE" Ref="#PWR?"  Part="1" 
AR Path="/61CC7676/60719BCE" Ref="#PWR09"  Part="1" 
F 0 "#PWR09" H 5850 2150 50  0001 C CNN
F 1 "GND" H 5855 2227 50  0000 C CNN
F 2 "" H 5850 2400 50  0001 C CNN
F 3 "" H 5850 2400 50  0001 C CNN
	1    5850 2400
	1    0    0    -1  
$EndComp
Wire Wire Line
	5850 2400 5850 2300
Connection ~ 5850 2300
Connection ~ 5850 1700
$Comp
L power:+3.3V #PWR?
U 1 1 60758959
P 5750 1200
AR Path="/60758959" Ref="#PWR?"  Part="1" 
AR Path="/61CC7676/60758959" Ref="#PWR03"  Part="1" 
F 0 "#PWR03" H 5750 1050 50  0001 C CNN
F 1 "+3.3V" H 5765 1373 50  0000 C CNN
F 2 "" H 5750 1200 50  0001 C CNN
F 3 "" H 5750 1200 50  0001 C CNN
	1    5750 1200
	1    0    0    -1  
$EndComp
Wire Wire Line
	6550 1700 6650 1700
$Comp
L !ht3_switcher:BUTTON-4P S2
U 1 1 607968F4
P 6450 2000
F 0 "S2" H 6627 2000 45  0000 L CNN
F 1 "SW_PUSH_6mm" H 6627 1958 39  0001 L CNN
F 2 "!ht3_swither:SW_PUSH_6mm" H 6480 2150 20  0001 C CNN
F 3 "" H 6450 2000 50  0001 C CNN
	1    6450 2000
	1    0    0    -1  
$EndComp
$Comp
L !ht3_passive:R R?
U 1 1 607968FA
P 6450 1450
AR Path="/607968FA" Ref="R?"  Part="1" 
AR Path="/61CC7676/607968FA" Ref="R3"  Part="1" 
F 0 "R3" H 6450 1350 45  0000 C CNN
F 1 "10K/0603" H 6450 1550 45  0000 C CNN
F 2 "!ht3_smd:R_0603(1608)" H 6480 1600 20  0001 C CNN
F 3 "" H 6450 1450 50  0001 C CNN
	1    6450 1450
	0    1    1    0   
$EndComp
Wire Wire Line
	6450 1300 6450 1200
Wire Wire Line
	6450 1800 6450 1700
Wire Wire Line
	6450 1700 6550 1700
Wire Wire Line
	6550 1700 6550 1800
Connection ~ 6450 1700
Wire Wire Line
	6450 1700 6450 1600
Wire Wire Line
	6450 2200 6450 2300
Wire Wire Line
	6450 2300 6550 2300
Wire Wire Line
	6550 2300 6550 2200
$Comp
L power:GND #PWR?
U 1 1 60796909
P 6550 2400
AR Path="/60796909" Ref="#PWR?"  Part="1" 
AR Path="/61CC7676/60796909" Ref="#PWR010"  Part="1" 
F 0 "#PWR010" H 6550 2150 50  0001 C CNN
F 1 "GND" H 6555 2227 50  0000 C CNN
F 2 "" H 6550 2400 50  0001 C CNN
F 3 "" H 6550 2400 50  0001 C CNN
	1    6550 2400
	1    0    0    -1  
$EndComp
Wire Wire Line
	6550 2400 6550 2300
Connection ~ 6550 2300
Connection ~ 6550 1700
$Comp
L power:+3.3V #PWR?
U 1 1 60796912
P 6450 1200
AR Path="/60796912" Ref="#PWR?"  Part="1" 
AR Path="/61CC7676/60796912" Ref="#PWR04"  Part="1" 
F 0 "#PWR04" H 6450 1050 50  0001 C CNN
F 1 "+3.3V" H 6465 1373 50  0000 C CNN
F 2 "" H 6450 1200 50  0001 C CNN
F 3 "" H 6450 1200 50  0001 C CNN
	1    6450 1200
	1    0    0    -1  
$EndComp
Wire Wire Line
	7200 1700 7300 1700
$Comp
L !ht3_switcher:BUTTON-4P S3
U 1 1 607B6E00
P 7100 2000
F 0 "S3" H 7277 2000 45  0000 L CNN
F 1 "SW_PUSH_6mm" H 7277 1958 39  0001 L CNN
F 2 "!ht3_swither:SW_PUSH_6mm" H 7130 2150 20  0001 C CNN
F 3 "" H 7100 2000 50  0001 C CNN
	1    7100 2000
	1    0    0    -1  
$EndComp
$Comp
L !ht3_passive:R R?
U 1 1 607B6E06
P 7100 1450
AR Path="/607B6E06" Ref="R?"  Part="1" 
AR Path="/61CC7676/607B6E06" Ref="R4"  Part="1" 
F 0 "R4" H 7100 1350 45  0000 C CNN
F 1 "10K/0603" H 7100 1550 45  0000 C CNN
F 2 "!ht3_smd:R_0603(1608)" H 7130 1600 20  0001 C CNN
F 3 "" H 7100 1450 50  0001 C CNN
	1    7100 1450
	0    1    1    0   
$EndComp
Wire Wire Line
	7100 1300 7100 1200
Wire Wire Line
	7100 1800 7100 1700
Wire Wire Line
	7100 1700 7200 1700
Wire Wire Line
	7200 1700 7200 1800
Connection ~ 7100 1700
Wire Wire Line
	7100 1700 7100 1600
Wire Wire Line
	7100 2200 7100 2300
Wire Wire Line
	7100 2300 7200 2300
Wire Wire Line
	7200 2300 7200 2200
$Comp
L power:GND #PWR?
U 1 1 607B6E15
P 7200 2400
AR Path="/607B6E15" Ref="#PWR?"  Part="1" 
AR Path="/61CC7676/607B6E15" Ref="#PWR011"  Part="1" 
F 0 "#PWR011" H 7200 2150 50  0001 C CNN
F 1 "GND" H 7205 2227 50  0000 C CNN
F 2 "" H 7200 2400 50  0001 C CNN
F 3 "" H 7200 2400 50  0001 C CNN
	1    7200 2400
	1    0    0    -1  
$EndComp
Wire Wire Line
	7200 2400 7200 2300
Connection ~ 7200 2300
Connection ~ 7200 1700
$Comp
L power:+3.3V #PWR?
U 1 1 607B6E1E
P 7100 1200
AR Path="/607B6E1E" Ref="#PWR?"  Part="1" 
AR Path="/61CC7676/607B6E1E" Ref="#PWR05"  Part="1" 
F 0 "#PWR05" H 7100 1050 50  0001 C CNN
F 1 "+3.3V" H 7115 1373 50  0000 C CNN
F 2 "" H 7100 1200 50  0001 C CNN
F 3 "" H 7100 1200 50  0001 C CNN
	1    7100 1200
	1    0    0    -1  
$EndComp
Wire Wire Line
	7900 1700 8000 1700
$Comp
L !ht3_switcher:BUTTON-4P S4
U 1 1 607D869E
P 7800 2000
F 0 "S4" H 7977 2000 45  0000 L CNN
F 1 "SW_PUSH_6mm" H 7977 1958 39  0001 L CNN
F 2 "!ht3_swither:SW_PUSH_6mm" H 7830 2150 20  0001 C CNN
F 3 "" H 7800 2000 50  0001 C CNN
	1    7800 2000
	1    0    0    -1  
$EndComp
$Comp
L !ht3_passive:R R?
U 1 1 607D86A4
P 7800 1450
AR Path="/607D86A4" Ref="R?"  Part="1" 
AR Path="/61CC7676/607D86A4" Ref="R5"  Part="1" 
F 0 "R5" H 7800 1350 45  0000 C CNN
F 1 "10K/0603" H 7800 1550 45  0000 C CNN
F 2 "!ht3_smd:R_0603(1608)" H 7830 1600 20  0001 C CNN
F 3 "" H 7800 1450 50  0001 C CNN
	1    7800 1450
	0    1    1    0   
$EndComp
Wire Wire Line
	7800 1300 7800 1200
Wire Wire Line
	7800 1800 7800 1700
Wire Wire Line
	7800 1700 7900 1700
Wire Wire Line
	7900 1700 7900 1800
Connection ~ 7800 1700
Wire Wire Line
	7800 1700 7800 1600
Wire Wire Line
	7800 2200 7800 2300
Wire Wire Line
	7800 2300 7900 2300
Wire Wire Line
	7900 2300 7900 2200
$Comp
L power:GND #PWR?
U 1 1 607D86B3
P 7900 2400
AR Path="/607D86B3" Ref="#PWR?"  Part="1" 
AR Path="/61CC7676/607D86B3" Ref="#PWR012"  Part="1" 
F 0 "#PWR012" H 7900 2150 50  0001 C CNN
F 1 "GND" H 7905 2227 50  0000 C CNN
F 2 "" H 7900 2400 50  0001 C CNN
F 3 "" H 7900 2400 50  0001 C CNN
	1    7900 2400
	1    0    0    -1  
$EndComp
Wire Wire Line
	7900 2400 7900 2300
Connection ~ 7900 2300
Connection ~ 7900 1700
$Comp
L power:+3.3V #PWR?
U 1 1 607D86BC
P 7800 1200
AR Path="/607D86BC" Ref="#PWR?"  Part="1" 
AR Path="/61CC7676/607D86BC" Ref="#PWR06"  Part="1" 
F 0 "#PWR06" H 7800 1050 50  0001 C CNN
F 1 "+3.3V" H 7815 1373 50  0000 C CNN
F 2 "" H 7800 1200 50  0001 C CNN
F 3 "" H 7800 1200 50  0001 C CNN
	1    7800 1200
	1    0    0    -1  
$EndComp
Wire Wire Line
	8600 1700 8700 1700
$Comp
L !ht3_switcher:BUTTON-4P S5
U 1 1 607FB834
P 8500 2000
F 0 "S5" H 8677 2000 45  0000 L CNN
F 1 "SW_PUSH_6mm" H 8677 1958 39  0001 L CNN
F 2 "!ht3_swither:SW_PUSH_6mm" H 8530 2150 20  0001 C CNN
F 3 "" H 8500 2000 50  0001 C CNN
	1    8500 2000
	1    0    0    -1  
$EndComp
$Comp
L !ht3_passive:R R?
U 1 1 607FB83A
P 8500 1450
AR Path="/607FB83A" Ref="R?"  Part="1" 
AR Path="/61CC7676/607FB83A" Ref="R6"  Part="1" 
F 0 "R6" H 8500 1350 45  0000 C CNN
F 1 "10K/0603" H 8500 1550 45  0000 C CNN
F 2 "!ht3_smd:R_0603(1608)" H 8530 1600 20  0001 C CNN
F 3 "" H 8500 1450 50  0001 C CNN
	1    8500 1450
	0    1    1    0   
$EndComp
Wire Wire Line
	8500 1300 8500 1200
Wire Wire Line
	8500 1800 8500 1700
Wire Wire Line
	8500 1700 8600 1700
Wire Wire Line
	8600 1700 8600 1800
Connection ~ 8500 1700
Wire Wire Line
	8500 1700 8500 1600
Wire Wire Line
	8500 2200 8500 2300
Wire Wire Line
	8500 2300 8600 2300
Wire Wire Line
	8600 2300 8600 2200
$Comp
L power:GND #PWR?
U 1 1 607FB849
P 8600 2400
AR Path="/607FB849" Ref="#PWR?"  Part="1" 
AR Path="/61CC7676/607FB849" Ref="#PWR013"  Part="1" 
F 0 "#PWR013" H 8600 2150 50  0001 C CNN
F 1 "GND" H 8605 2227 50  0000 C CNN
F 2 "" H 8600 2400 50  0001 C CNN
F 3 "" H 8600 2400 50  0001 C CNN
	1    8600 2400
	1    0    0    -1  
$EndComp
Wire Wire Line
	8600 2400 8600 2300
Connection ~ 8600 2300
Connection ~ 8600 1700
$Comp
L power:+3.3V #PWR?
U 1 1 607FB852
P 8500 1200
AR Path="/607FB852" Ref="#PWR?"  Part="1" 
AR Path="/61CC7676/607FB852" Ref="#PWR07"  Part="1" 
F 0 "#PWR07" H 8500 1050 50  0001 C CNN
F 1 "+3.3V" H 8515 1373 50  0000 C CNN
F 2 "" H 8500 1200 50  0001 C CNN
F 3 "" H 8500 1200 50  0001 C CNN
	1    8500 1200
	1    0    0    -1  
$EndComp
Wire Wire Line
	6500 10800 6600 10800
Text HLabel 6600 11300 2    50   BiDi ~ 0
SDA
Wire Wire Line
	6600 11300 6500 11300
Text HLabel 6600 11200 2    50   BiDi ~ 0
SCL
Wire Wire Line
	6600 11200 6500 11200
$Comp
L !ht3_passive:R R?
U 1 1 60B06232
P 11550 10600
AR Path="/60B06232" Ref="R?"  Part="1" 
AR Path="/62861DD1/60B06232" Ref="R?"  Part="1" 
AR Path="/61CC7676/60B06232" Ref="R27"  Part="1" 
F 0 "R27" H 11350 10650 45  0000 C CNN
F 1 "4.7K/0603" H 11850 10650 45  0000 C CNN
F 2 "!ht3_smd:R_0603(1608)" H 11580 10750 20  0001 C CNN
F 3 "" H 11550 10600 50  0001 C CNN
F 4 "C23186" H 11550 10600 50  0001 C CNN "LCSC"
	1    11550 10600
	0    -1   -1   0   
$EndComp
Wire Wire Line
	11550 9850 11550 10450
$Comp
L !ht3_passive:R R?
U 1 1 60B2958E
P 11750 10600
AR Path="/60B2958E" Ref="R?"  Part="1" 
AR Path="/62861DD1/60B2958E" Ref="R?"  Part="1" 
AR Path="/61CC7676/60B2958E" Ref="R28"  Part="1" 
F 0 "R28" H 11550 10650 45  0000 C CNN
F 1 "4.7K/0603" H 12050 10650 45  0000 C CNN
F 2 "!ht3_smd:R_0603(1608)" H 11780 10750 20  0001 C CNN
F 3 "" H 11750 10600 50  0001 C CNN
F 4 "C23186" H 11750 10600 50  0001 C CNN "LCSC"
	1    11750 10600
	0    -1   -1   0   
$EndComp
Wire Wire Line
	11750 10950 11750 10750
Wire Wire Line
	11750 9850 11750 10450
Wire Wire Line
	11550 9850 11750 9850
Text HLabel 11850 10950 2    50   BiDi ~ 0
SDA
Text HLabel 11850 11050 2    50   BiDi ~ 0
SCL
Wire Wire Line
	11850 10950 11750 10950
Wire Wire Line
	11850 11050 11550 11050
Wire Wire Line
	11550 10750 11550 11050
$Comp
L power:+3.3V #PWR?
U 1 1 60C94356
P 5300 4250
AR Path="/60C94356" Ref="#PWR?"  Part="1" 
AR Path="/61CC7676/60C94356" Ref="#PWR019"  Part="1" 
F 0 "#PWR019" H 5300 4100 50  0001 C CNN
F 1 "+3.3V" H 5315 4423 50  0000 C CNN
F 2 "" H 5300 4250 50  0001 C CNN
F 3 "" H 5300 4250 50  0001 C CNN
	1    5300 4250
	1    0    0    -1  
$EndComp
$Comp
L power:+3.3V #PWR?
U 1 1 60CB835A
P 5300 3200
AR Path="/60CB835A" Ref="#PWR?"  Part="1" 
AR Path="/61CC7676/60CB835A" Ref="#PWR015"  Part="1" 
F 0 "#PWR015" H 5300 3050 50  0001 C CNN
F 1 "+3.3V" H 5315 3373 50  0000 C CNN
F 2 "" H 5300 3200 50  0001 C CNN
F 3 "" H 5300 3200 50  0001 C CNN
	1    5300 3200
	1    0    0    -1  
$EndComp
Wire Wire Line
	2900 2350 3350 2350
$Comp
L power:PWR_FLAG #FLG04
U 1 1 60D488C4
P 3650 8150
F 0 "#FLG04" H 3650 8225 50  0001 C CNN
F 1 "PWR_FLAG" V 3650 8450 50  0000 C CNN
F 2 "" H 3650 8150 50  0001 C CNN
F 3 "~" H 3650 8150 50  0001 C CNN
	1    3650 8150
	1    0    0    -1  
$EndComp
Wire Wire Line
	3450 8250 3650 8250
Wire Wire Line
	3650 8250 3650 8150
Wire Wire Line
	2900 2550 3350 2550
Wire Wire Line
	9050 7500 10250 7500
Wire Wire Line
	9600 7300 10100 7300
$Comp
L !ht3_diode:SUPPRESSOR-UNI D?
U 1 1 60EF714F
P 10400 8300
AR Path="/612C96BD/60EF714F" Ref="D?"  Part="1" 
AR Path="/612C8AD4/60EF714F" Ref="D?"  Part="1" 
AR Path="/612CBD5E/60EF714F" Ref="D?"  Part="1" 
AR Path="/60B99431/60EF714F" Ref="D?"  Part="1" 
AR Path="/60B9942B/60EF714F" Ref="D?"  Part="1" 
AR Path="/612CBD47/60EF714F" Ref="D?"  Part="1" 
AR Path="/61CC7676/60EF714F" Ref="D6"  Part="1" 
F 0 "D6" V 10350 8100 45  0000 L CNN
F 1 "ESD5Z5.0T1G" V 10350 8400 45  0000 L CNN
F 2 "!ht3_diode:D_SOD-523" H 10430 8450 20  0001 C CNN
F 3 "" H 10400 8300 50  0001 C CNN
	1    10400 8300
	1    0    0    -1  
$EndComp
$Comp
L power:GND #PWR?
U 1 1 60EF7155
P 10400 8550
AR Path="/60EF7155" Ref="#PWR?"  Part="1" 
AR Path="/61CC7676/60EF7155" Ref="#PWR046"  Part="1" 
AR Path="/60EBFB95/60EF7155" Ref="#PWR?"  Part="1" 
AR Path="/612BBFB4/60EF7155" Ref="#PWR?"  Part="1" 
AR Path="/612C8AD4/60EF7155" Ref="#PWR?"  Part="1" 
AR Path="/612C96BD/60EF7155" Ref="#PWR?"  Part="1" 
AR Path="/612CBD47/60EF7155" Ref="#PWR?"  Part="1" 
AR Path="/612CBD5E/60EF7155" Ref="#PWR?"  Part="1" 
AR Path="/60B9942B/60EF7155" Ref="#PWR?"  Part="1" 
AR Path="/60B99431/60EF7155" Ref="#PWR?"  Part="1" 
F 0 "#PWR046" H 10400 8300 50  0001 C CNN
F 1 "GND" H 10405 8377 50  0000 C CNN
F 2 "" H 10400 8550 50  0001 C CNN
F 3 "" H 10400 8550 50  0001 C CNN
	1    10400 8550
	1    0    0    -1  
$EndComp
Wire Wire Line
	10400 8550 10400 8400
Wire Wire Line
	10400 8200 10400 7600
$Comp
L !ht3_diode:SUPPRESSOR-UNI D?
U 1 1 60F5B6F3
P 10250 8300
AR Path="/612C96BD/60F5B6F3" Ref="D?"  Part="1" 
AR Path="/612C8AD4/60F5B6F3" Ref="D?"  Part="1" 
AR Path="/612CBD5E/60F5B6F3" Ref="D?"  Part="1" 
AR Path="/60B99431/60F5B6F3" Ref="D?"  Part="1" 
AR Path="/60B9942B/60F5B6F3" Ref="D?"  Part="1" 
AR Path="/612CBD47/60F5B6F3" Ref="D?"  Part="1" 
AR Path="/61CC7676/60F5B6F3" Ref="D5"  Part="1" 
F 0 "D5" V 10200 8100 45  0000 L CNN
F 1 "ESD5Z5.0T1G" V 10200 8400 45  0000 L CNN
F 2 "!ht3_diode:D_SOD-523" H 10280 8450 20  0001 C CNN
F 3 "" H 10250 8300 50  0001 C CNN
	1    10250 8300
	1    0    0    -1  
$EndComp
$Comp
L power:GND #PWR?
U 1 1 60F5B6F9
P 10250 8550
AR Path="/60F5B6F9" Ref="#PWR?"  Part="1" 
AR Path="/61CC7676/60F5B6F9" Ref="#PWR045"  Part="1" 
AR Path="/60EBFB95/60F5B6F9" Ref="#PWR?"  Part="1" 
AR Path="/612BBFB4/60F5B6F9" Ref="#PWR?"  Part="1" 
AR Path="/612C8AD4/60F5B6F9" Ref="#PWR?"  Part="1" 
AR Path="/612C96BD/60F5B6F9" Ref="#PWR?"  Part="1" 
AR Path="/612CBD47/60F5B6F9" Ref="#PWR?"  Part="1" 
AR Path="/612CBD5E/60F5B6F9" Ref="#PWR?"  Part="1" 
AR Path="/60B9942B/60F5B6F9" Ref="#PWR?"  Part="1" 
AR Path="/60B99431/60F5B6F9" Ref="#PWR?"  Part="1" 
F 0 "#PWR045" H 10250 8300 50  0001 C CNN
F 1 "GND" H 10255 8377 50  0000 C CNN
F 2 "" H 10250 8550 50  0001 C CNN
F 3 "" H 10250 8550 50  0001 C CNN
	1    10250 8550
	1    0    0    -1  
$EndComp
Wire Wire Line
	10250 8550 10250 8400
$Comp
L !ht3_diode:SUPPRESSOR-UNI D?
U 1 1 60F7CD24
P 10100 8300
AR Path="/612C96BD/60F7CD24" Ref="D?"  Part="1" 
AR Path="/612C8AD4/60F7CD24" Ref="D?"  Part="1" 
AR Path="/612CBD5E/60F7CD24" Ref="D?"  Part="1" 
AR Path="/60B99431/60F7CD24" Ref="D?"  Part="1" 
AR Path="/60B9942B/60F7CD24" Ref="D?"  Part="1" 
AR Path="/612CBD47/60F7CD24" Ref="D?"  Part="1" 
AR Path="/61CC7676/60F7CD24" Ref="D4"  Part="1" 
F 0 "D4" V 10050 8100 45  0000 L CNN
F 1 "ESD5Z5.0T1G" V 10050 8400 45  0000 L CNN
F 2 "!ht3_diode:D_SOD-523" H 10130 8450 20  0001 C CNN
F 3 "" H 10100 8300 50  0001 C CNN
	1    10100 8300
	1    0    0    -1  
$EndComp
$Comp
L power:GND #PWR?
U 1 1 60F7CD2A
P 10100 8550
AR Path="/60F7CD2A" Ref="#PWR?"  Part="1" 
AR Path="/61CC7676/60F7CD2A" Ref="#PWR044"  Part="1" 
AR Path="/60EBFB95/60F7CD2A" Ref="#PWR?"  Part="1" 
AR Path="/612BBFB4/60F7CD2A" Ref="#PWR?"  Part="1" 
AR Path="/612C8AD4/60F7CD2A" Ref="#PWR?"  Part="1" 
AR Path="/612C96BD/60F7CD2A" Ref="#PWR?"  Part="1" 
AR Path="/612CBD47/60F7CD2A" Ref="#PWR?"  Part="1" 
AR Path="/612CBD5E/60F7CD2A" Ref="#PWR?"  Part="1" 
AR Path="/60B9942B/60F7CD2A" Ref="#PWR?"  Part="1" 
AR Path="/60B99431/60F7CD2A" Ref="#PWR?"  Part="1" 
F 0 "#PWR044" H 10100 8300 50  0001 C CNN
F 1 "GND" H 10105 8377 50  0000 C CNN
F 2 "" H 10100 8550 50  0001 C CNN
F 3 "" H 10100 8550 50  0001 C CNN
	1    10100 8550
	1    0    0    -1  
$EndComp
Wire Wire Line
	10100 8550 10100 8400
$Comp
L !ht3_diode:SUPPRESSOR-UNI D?
U 1 1 60F9E2EB
P 9950 8300
AR Path="/612C96BD/60F9E2EB" Ref="D?"  Part="1" 
AR Path="/612C8AD4/60F9E2EB" Ref="D?"  Part="1" 
AR Path="/612CBD5E/60F9E2EB" Ref="D?"  Part="1" 
AR Path="/60B99431/60F9E2EB" Ref="D?"  Part="1" 
AR Path="/60B9942B/60F9E2EB" Ref="D?"  Part="1" 
AR Path="/612CBD47/60F9E2EB" Ref="D?"  Part="1" 
AR Path="/61CC7676/60F9E2EB" Ref="D3"  Part="1" 
F 0 "D3" V 9900 8100 45  0000 L CNN
F 1 "ESD5Z5.0T1G" V 9900 8400 45  0000 L CNN
F 2 "!ht3_diode:D_SOD-523" H 9980 8450 20  0001 C CNN
F 3 "" H 9950 8300 50  0001 C CNN
	1    9950 8300
	1    0    0    -1  
$EndComp
$Comp
L power:GND #PWR?
U 1 1 60F9E2F1
P 9950 8550
AR Path="/60F9E2F1" Ref="#PWR?"  Part="1" 
AR Path="/61CC7676/60F9E2F1" Ref="#PWR043"  Part="1" 
AR Path="/60EBFB95/60F9E2F1" Ref="#PWR?"  Part="1" 
AR Path="/612BBFB4/60F9E2F1" Ref="#PWR?"  Part="1" 
AR Path="/612C8AD4/60F9E2F1" Ref="#PWR?"  Part="1" 
AR Path="/612C96BD/60F9E2F1" Ref="#PWR?"  Part="1" 
AR Path="/612CBD47/60F9E2F1" Ref="#PWR?"  Part="1" 
AR Path="/612CBD5E/60F9E2F1" Ref="#PWR?"  Part="1" 
AR Path="/60B9942B/60F9E2F1" Ref="#PWR?"  Part="1" 
AR Path="/60B99431/60F9E2F1" Ref="#PWR?"  Part="1" 
F 0 "#PWR043" H 9950 8300 50  0001 C CNN
F 1 "GND" H 9955 8377 50  0000 C CNN
F 2 "" H 9950 8550 50  0001 C CNN
F 3 "" H 9950 8550 50  0001 C CNN
	1    9950 8550
	1    0    0    -1  
$EndComp
Wire Wire Line
	9950 8550 9950 8400
Wire Wire Line
	10250 8200 10250 7500
Connection ~ 10250 7500
Wire Wire Line
	10250 7500 10300 7500
Connection ~ 10100 7300
Wire Wire Line
	10100 7300 11000 7300
Wire Wire Line
	9950 8200 9950 7100
Connection ~ 9950 7100
Wire Wire Line
	9950 7100 10200 7100
$Comp
L !ht3_diode:SUPPRESSOR-UNI D?
U 1 1 61028591
P 10550 8300
AR Path="/612C96BD/61028591" Ref="D?"  Part="1" 
AR Path="/612C8AD4/61028591" Ref="D?"  Part="1" 
AR Path="/612CBD5E/61028591" Ref="D?"  Part="1" 
AR Path="/60B99431/61028591" Ref="D?"  Part="1" 
AR Path="/60B9942B/61028591" Ref="D?"  Part="1" 
AR Path="/612CBD47/61028591" Ref="D?"  Part="1" 
AR Path="/61CC7676/61028591" Ref="D7"  Part="1" 
F 0 "D7" V 10500 8100 45  0000 L CNN
F 1 "ESD5Z5.0T1G" V 10500 8400 45  0000 L CNN
F 2 "!ht3_diode:D_SOD-523" H 10580 8450 20  0001 C CNN
F 3 "" H 10550 8300 50  0001 C CNN
	1    10550 8300
	1    0    0    -1  
$EndComp
$Comp
L power:GND #PWR?
U 1 1 61028597
P 10550 8550
AR Path="/61028597" Ref="#PWR?"  Part="1" 
AR Path="/61CC7676/61028597" Ref="#PWR047"  Part="1" 
AR Path="/60EBFB95/61028597" Ref="#PWR?"  Part="1" 
AR Path="/612BBFB4/61028597" Ref="#PWR?"  Part="1" 
AR Path="/612C8AD4/61028597" Ref="#PWR?"  Part="1" 
AR Path="/612C96BD/61028597" Ref="#PWR?"  Part="1" 
AR Path="/612CBD47/61028597" Ref="#PWR?"  Part="1" 
AR Path="/612CBD5E/61028597" Ref="#PWR?"  Part="1" 
AR Path="/60B9942B/61028597" Ref="#PWR?"  Part="1" 
AR Path="/60B99431/61028597" Ref="#PWR?"  Part="1" 
F 0 "#PWR047" H 10550 8300 50  0001 C CNN
F 1 "GND" H 10555 8377 50  0000 C CNN
F 2 "" H 10550 8550 50  0001 C CNN
F 3 "" H 10550 8550 50  0001 C CNN
	1    10550 8550
	1    0    0    -1  
$EndComp
Wire Wire Line
	10550 8550 10550 8400
Wire Wire Line
	10550 8200 10550 7900
Wire Wire Line
	10550 7900 10750 7900
Connection ~ 10750 7900
Wire Wire Line
	10750 7900 10750 8000
$Comp
L !ht3_passive:R R?
U 1 1 61071190
P 11350 10600
AR Path="/61071190" Ref="R?"  Part="1" 
AR Path="/62861DD1/61071190" Ref="R?"  Part="1" 
AR Path="/61CC7676/61071190" Ref="R26"  Part="1" 
F 0 "R26" H 11150 10650 45  0000 C CNN
F 1 "4.7K/0603" H 11650 10650 45  0000 C CNN
F 2 "!ht3_smd:R_0603(1608)" H 11380 10750 20  0001 C CNN
F 3 "" H 11350 10600 50  0001 C CNN
F 4 "C23186" H 11350 10600 50  0001 C CNN "LCSC"
	1    11350 10600
	0    -1   -1   0   
$EndComp
Wire Wire Line
	11350 10450 11350 9850
Wire Wire Line
	11350 9850 11550 9850
Connection ~ 11550 9850
Text Label 11250 11050 2    50   ~ 0
CD
Wire Wire Line
	11250 11050 11350 11050
Wire Wire Line
	11350 10750 11350 11050
Text Label 6600 10600 0    50   ~ 0
CD
Text Label 6600 9500 0    50   ~ 0
KEY_OK
Text Label 6600 9600 0    50   ~ 0
KEY_UP
Text Label 6600 9700 0    50   ~ 0
KEY_DOWN
Text Label 6600 9800 0    50   ~ 0
KEY_RIGHT
Text Label 6600 9900 0    50   ~ 0
KEY_LEFT
Wire Wire Line
	6500 11400 6600 11400
Text HLabel 6600 11400 2    50   Input ~ 0
I2C_ON
Text Label 11250 9850 2    50   ~ 0
VDD_ON
Wire Wire Line
	11250 9850 11350 9850
Connection ~ 11350 9850
Wire Wire Line
	5800 8600 5700 8600
Connection ~ 5700 8600
Wire Wire Line
	5700 8600 5700 8700
$Comp
L power:+3.3VA #PWR035
U 1 1 607854AD
P 2450 6700
F 0 "#PWR035" H 2450 6550 50  0001 C CNN
F 1 "+3.3VA" H 2465 6873 50  0000 C CNN
F 2 "" H 2450 6700 50  0001 C CNN
F 3 "" H 2450 6700 50  0001 C CNN
	1    2450 6700
	1    0    0    -1  
$EndComp
Wire Wire Line
	2250 6800 2450 6800
Wire Wire Line
	2450 6800 2450 6700
Connection ~ 2250 6800
Text Notes 8850 3250 0    79   Italic 16
OLED
Wire Wire Line
	6500 9900 6600 9900
Text Label 6600 11000 0    50   ~ 0
SPI1_MISO
Text Label 6600 10700 0    50   ~ 0
SD_CARD_PWR_ON
Wire Wire Line
	6600 10700 6500 10700
Wire Wire Line
	6600 10600 6500 10600
NoConn ~ 6500 11500
Wire Wire Line
	5100 10400 5000 10400
Wire Wire Line
	5100 11200 5000 11200
Wire Wire Line
	5000 11300 5100 11300
NoConn ~ 6500 9100
NoConn ~ 6500 8900
NoConn ~ 6500 9300
NoConn ~ 6500 9400
Wire Wire Line
	10100 7300 10100 8200
$Comp
L !ht3_connector:CON-3P X?
U 1 1 60C5AE5D
P 7750 11500
AR Path="/62863B64/60C5AE5D" Ref="X?"  Part="1" 
AR Path="/61CC7676/60C5AE5D" Ref="X6"  Part="1" 
F 0 "X6" H 7750 11550 45  0000 L CNN
F 1 "PinHeader_1x03_P2.54mm_Vertical" H 7750 11050 45  0001 L CNN
F 2 "!ht3_connector:PinHeader_1x03_P2.54mm_Vertical" H 7780 11650 20  0001 C CNN
F 3 "" H 7750 11500 50  0001 C CNN
	1    7750 11500
	1    0    0    -1  
$EndComp
$Comp
L power:GND #PWR?
U 1 1 60CA67C7
P 7550 11900
AR Path="/60CA67C7" Ref="#PWR?"  Part="1" 
AR Path="/63F2C63B/60CA67C7" Ref="#PWR?"  Part="1" 
AR Path="/618E2CEA/60CA67C7" Ref="#PWR?"  Part="1" 
AR Path="/61CC7676/60CA67C7" Ref="#PWR061"  Part="1" 
F 0 "#PWR061" H 7550 11650 50  0001 C CNN
F 1 "GND" H 7555 11727 50  0000 C CNN
F 2 "" H 7550 11900 50  0001 C CNN
F 3 "" H 7550 11900 50  0001 C CNN
	1    7550 11900
	1    0    0    -1  
$EndComp
Wire Wire Line
	7550 11800 7550 11900
Wire Wire Line
	7650 11800 7550 11800
Wire Wire Line
	6500 11700 7650 11700
Wire Wire Line
	6500 11600 7650 11600
$Comp
L power:PWR_FLAG #FLG?
U 1 1 60D684DF
P 5700 13100
AR Path="/60D684DF" Ref="#FLG?"  Part="1" 
AR Path="/61CC7676/60D684DF" Ref="#FLG05"  Part="1" 
F 0 "#FLG05" H 5700 13175 50  0001 C CNN
F 1 "PWR_FLAG" V 5700 13400 50  0000 C CNN
F 2 "" H 5700 13100 50  0001 C CNN
F 3 "~" H 5700 13100 50  0001 C CNN
	1    5700 13100
	0    -1   -1   0   
$EndComp
$Comp
L power:PWR_FLAG #FLG?
U 1 1 60D8EDBE
P 6100 13100
AR Path="/60D8EDBE" Ref="#FLG?"  Part="1" 
AR Path="/61CC7676/60D8EDBE" Ref="#FLG06"  Part="1" 
F 0 "#FLG06" H 6100 13175 50  0001 C CNN
F 1 "PWR_FLAG" V 6100 13400 50  0000 C CNN
F 2 "" H 6100 13100 50  0001 C CNN
F 3 "~" H 6100 13100 50  0001 C CNN
	1    6100 13100
	0    1    1    0   
$EndComp
Wire Wire Line
	5700 13100 5800 13100
Connection ~ 5800 13100
Wire Wire Line
	5800 13100 5800 13200
Wire Wire Line
	6000 13100 6100 13100
Connection ~ 6000 13100
Wire Wire Line
	6000 13100 6000 12500
Text Label 5000 11300 2    50   ~ 0
LED_FAULT
Text Label 5000 10400 2    50   ~ 0
DONE
Text Label 5000 11200 2    50   ~ 0
LED_LOW_BATT
Wire Wire Line
	8300 5500 8300 6050
$Comp
L !ht3_passive:C C?
U 1 1 60927F96
P 9700 6150
AR Path="/5F50ED51/60927F96" Ref="C?"  Part="1" 
AR Path="/60927F96" Ref="C?"  Part="1" 
AR Path="/607B5AB8/60927F96" Ref="C?"  Part="1" 
AR Path="/61CC7676/60927F96" Ref="C4"  Part="1" 
F 0 "C4" V 9650 5900 45  0000 L CNN
F 1 "10u/6.3V/0805" V 9650 6150 45  0000 L CNN
F 2 "!ht3_smd:C_0805(2012)" H 9730 6300 20  0001 C CNN
F 3 "" H 9700 6150 50  0001 C CNN
	1    9700 6150
	1    0    0    -1  
$EndComp
$Comp
L !ht3_passive:C C?
U 1 1 60927F9C
P 8300 6150
AR Path="/5F50ED51/60927F9C" Ref="C?"  Part="1" 
AR Path="/60927F9C" Ref="C?"  Part="1" 
AR Path="/607B5AB8/60927F9C" Ref="C?"  Part="1" 
AR Path="/61CC7676/60927F9C" Ref="C2"  Part="1" 
F 0 "C2" V 8250 5900 45  0000 L CNN
F 1 "10u/6.3V/0805" V 8250 6150 45  0000 L CNN
F 2 "!ht3_smd:C_0805(2012)" H 8330 6300 20  0001 C CNN
F 3 "" H 8300 6150 50  0001 C CNN
	1    8300 6150
	1    0    0    -1  
$EndComp
Wire Wire Line
	8300 6350 8300 6450
$Comp
L !ht3_passive:C C?
U 1 1 60927FA3
P 9400 6150
AR Path="/5F50ED51/60927FA3" Ref="C?"  Part="1" 
AR Path="/60927FA3" Ref="C?"  Part="1" 
AR Path="/607B5AB8/60927FA3" Ref="C?"  Part="1" 
AR Path="/61CC7676/60927FA3" Ref="C3"  Part="1" 
F 0 "C3" V 9350 5900 45  0000 L CNN
F 1 "100n/0603" V 9350 6150 45  0000 L CNN
F 2 "!ht3_smd:C_0603(1608)" H 9430 6300 20  0001 C CNN
F 3 "" H 9400 6150 50  0001 C CNN
	1    9400 6150
	1    0    0    -1  
$EndComp
Wire Wire Line
	9400 6350 9400 6450
Wire Wire Line
	9700 6350 9700 6450
Text Notes 8550 6000 0    50   ~ 0
AP2112K-3.3TRG1\nLDK220
$Comp
L !ht3_ic:LP2985 U?
U 1 1 60927FAC
P 8600 5400
AR Path="/5F50ED51/60927FAC" Ref="U?"  Part="1" 
AR Path="/60927FAC" Ref="U?"  Part="1" 
AR Path="/607B5AB8/60927FAC" Ref="U?"  Part="1" 
AR Path="/61CC7676/60927FAC" Ref="U3"  Part="1" 
F 0 "U3" H 8900 5554 45  0000 C CNN
F 1 "LP2985A-33DBVR" H 8900 5470 45  0000 C CNN
F 2 "!ht3_smd:SOT-23-5" H 8630 5550 20  0001 C CNN
F 3 "" H 8600 5400 50  0001 C CNN
F 4 "00-00027213" H 8600 5400 50  0001 C CNN "Field4"
	1    8600 5400
	1    0    0    -1  
$EndComp
Wire Wire Line
	9700 5500 9700 6050
Wire Wire Line
	8500 5600 8400 5600
Wire Wire Line
	8400 5600 8400 5800
Wire Wire Line
	9400 5700 9400 6050
Wire Wire Line
	9300 5700 9400 5700
Wire Wire Line
	9300 5500 9700 5500
Wire Wire Line
	8300 5500 8500 5500
Wire Wire Line
	8300 5400 8300 5500
Connection ~ 9700 5500
Connection ~ 8300 5500
$Comp
L power:+5V #PWR024
U 1 1 60A6C5F7
P 8300 5400
F 0 "#PWR024" H 8300 5250 50  0001 C CNN
F 1 "+5V" H 8315 5573 50  0000 C CNN
F 2 "" H 8300 5400 50  0001 C CNN
F 3 "" H 8300 5400 50  0001 C CNN
	1    8300 5400
	1    0    0    -1  
$EndComp
Wire Wire Line
	8000 5700 8500 5700
$Comp
L power:GND #PWR?
U 1 1 60CA5384
P 8300 6450
AR Path="/600B9C6A/60CA5384" Ref="#PWR?"  Part="1" 
AR Path="/5FF89635/60CA5384" Ref="#PWR?"  Part="1" 
AR Path="/60EE5585/60CA5384" Ref="#PWR?"  Part="1" 
AR Path="/62863B64/60CA5384" Ref="#PWR?"  Part="1" 
AR Path="/62861DD1/60CA5384" Ref="#PWR?"  Part="1" 
AR Path="/61CC7676/60CA5384" Ref="#PWR031"  Part="1" 
F 0 "#PWR031" H 8300 6200 50  0001 C CNN
F 1 "GND" H 8305 6277 50  0000 C CNN
F 2 "" H 8300 6450 50  0001 C CNN
F 3 "" H 8300 6450 50  0001 C CNN
	1    8300 6450
	1    0    0    -1  
$EndComp
$Comp
L power:GND #PWR?
U 1 1 60CA5590
P 8400 5800
AR Path="/600B9C6A/60CA5590" Ref="#PWR?"  Part="1" 
AR Path="/5FF89635/60CA5590" Ref="#PWR?"  Part="1" 
AR Path="/60EE5585/60CA5590" Ref="#PWR?"  Part="1" 
AR Path="/62863B64/60CA5590" Ref="#PWR?"  Part="1" 
AR Path="/62861DD1/60CA5590" Ref="#PWR?"  Part="1" 
AR Path="/61CC7676/60CA5590" Ref="#PWR026"  Part="1" 
F 0 "#PWR026" H 8400 5550 50  0001 C CNN
F 1 "GND" H 8405 5627 50  0000 C CNN
F 2 "" H 8400 5800 50  0001 C CNN
F 3 "" H 8400 5800 50  0001 C CNN
	1    8400 5800
	1    0    0    -1  
$EndComp
$Comp
L power:GND #PWR?
U 1 1 60CA572A
P 9400 6450
AR Path="/600B9C6A/60CA572A" Ref="#PWR?"  Part="1" 
AR Path="/5FF89635/60CA572A" Ref="#PWR?"  Part="1" 
AR Path="/60EE5585/60CA572A" Ref="#PWR?"  Part="1" 
AR Path="/62863B64/60CA572A" Ref="#PWR?"  Part="1" 
AR Path="/62861DD1/60CA572A" Ref="#PWR?"  Part="1" 
AR Path="/61CC7676/60CA572A" Ref="#PWR032"  Part="1" 
F 0 "#PWR032" H 9400 6200 50  0001 C CNN
F 1 "GND" H 9405 6277 50  0000 C CNN
F 2 "" H 9400 6450 50  0001 C CNN
F 3 "" H 9400 6450 50  0001 C CNN
	1    9400 6450
	1    0    0    -1  
$EndComp
$Comp
L power:GND #PWR?
U 1 1 60CA592F
P 9700 6450
AR Path="/600B9C6A/60CA592F" Ref="#PWR?"  Part="1" 
AR Path="/5FF89635/60CA592F" Ref="#PWR?"  Part="1" 
AR Path="/60EE5585/60CA592F" Ref="#PWR?"  Part="1" 
AR Path="/62863B64/60CA592F" Ref="#PWR?"  Part="1" 
AR Path="/62861DD1/60CA592F" Ref="#PWR?"  Part="1" 
AR Path="/61CC7676/60CA592F" Ref="#PWR033"  Part="1" 
F 0 "#PWR033" H 9700 6200 50  0001 C CNN
F 1 "GND" H 9705 6277 50  0000 C CNN
F 2 "" H 9700 6450 50  0001 C CNN
F 3 "" H 9700 6450 50  0001 C CNN
	1    9700 6450
	1    0    0    -1  
$EndComp
Wire Wire Line
	9050 7300 9300 7300
Wire Wire Line
	9200 7000 9200 7100
Connection ~ 9200 7100
Wire Wire Line
	9200 7100 9950 7100
$Comp
L !ht3_connector:CON-1P X3
U 1 1 606CD413
P 9950 2200
F 0 "X3" H 9950 2250 45  0000 L CNN
F 1 "PinHeader_1x01_P2.54mm_Vertical" H 10078 2058 45  0001 L CNN
F 2 "!ht3_connector:PinHeader_1x01_P2.54mm_Vertical" H 9980 2350 20  0001 C CNN
F 3 "" H 9950 2200 50  0001 C CNN
	1    9950 2200
	1    0    0    -1  
$EndComp
$Comp
L power:GND #PWR?
U 1 1 606CE9F4
P 9750 2400
AR Path="/606CE9F4" Ref="#PWR?"  Part="1" 
AR Path="/61CC7676/606CE9F4" Ref="#PWR014"  Part="1" 
F 0 "#PWR014" H 9750 2150 50  0001 C CNN
F 1 "GND" H 9755 2227 50  0000 C CNN
F 2 "" H 9750 2400 50  0001 C CNN
F 3 "" H 9750 2400 50  0001 C CNN
	1    9750 2400
	1    0    0    -1  
$EndComp
Wire Wire Line
	9750 2400 9750 2300
Wire Wire Line
	9850 2300 9750 2300
$Comp
L !ht3_passive:R R?
U 1 1 608243CE
P 1700 13250
AR Path="/5D3600C7/608243CE" Ref="R?"  Part="1" 
AR Path="/608243CE" Ref="R?"  Part="1" 
AR Path="/60EE5585/608243CE" Ref="R?"  Part="1" 
AR Path="/5FF89635/608243CE" Ref="R?"  Part="1" 
AR Path="/62863B64/608243CE" Ref="R?"  Part="1" 
AR Path="/61CC7676/608243CE" Ref="R31"  Part="1" 
F 0 "R31" H 1700 13350 45  0000 C CNN
F 1 "10K/0603" H 1700 13150 45  0000 C CNN
F 2 "!ht3_smd:R_0603(1608)" H 1730 13400 20  0001 C CNN
F 3 "" H 1700 13250 50  0001 C CNN
F 4 "C269701" H 1700 13250 50  0001 C CNN "LCSC"
	1    1700 13250
	0    -1   -1   0   
$EndComp
Wire Wire Line
	1700 13500 1700 13400
$Comp
L power:GND #PWR?
U 1 1 608243D5
P 1700 13500
AR Path="/608243D5" Ref="#PWR?"  Part="1" 
AR Path="/60EE5585/608243D5" Ref="#PWR?"  Part="1" 
AR Path="/5FF89635/608243D5" Ref="#PWR?"  Part="1" 
AR Path="/62863B64/608243D5" Ref="#PWR?"  Part="1" 
AR Path="/61CC7676/608243D5" Ref="#PWR063"  Part="1" 
F 0 "#PWR063" H 1700 13250 50  0001 C CNN
F 1 "GND" H 1705 13327 50  0000 C CNN
F 2 "" H 1700 13500 50  0001 C CNN
F 3 "" H 1700 13500 50  0001 C CNN
	1    1700 13500
	1    0    0    -1  
$EndComp
Wire Wire Line
	1700 12900 1700 13000
Connection ~ 1700 13000
Wire Wire Line
	1700 13000 1700 13100
$Comp
L !ht3_passive:R R?
U 1 1 608243DF
P 1700 12750
AR Path="/5D3600C7/608243DF" Ref="R?"  Part="1" 
AR Path="/608243DF" Ref="R?"  Part="1" 
AR Path="/60EE5585/608243DF" Ref="R?"  Part="1" 
AR Path="/5FF89635/608243DF" Ref="R?"  Part="1" 
AR Path="/62863B64/608243DF" Ref="R?"  Part="1" 
AR Path="/61CC7676/608243DF" Ref="R29"  Part="1" 
F 0 "R29" H 1700 12850 45  0000 C CNN
F 1 "39K/0603" H 1700 12650 45  0000 C CNN
F 2 "!ht3_smd:R_0603(1608)" H 1730 12900 20  0001 C CNN
F 3 "" H 1700 12750 50  0001 C CNN
F 4 "C88615" H 1700 12750 50  0001 C CNN "LCSC"
	1    1700 12750
	0    -1   -1   0   
$EndComp
Wire Wire Line
	1700 12500 1700 12600
$Comp
L !ht3_diode:SUPPRESSOR-UNI D?
U 1 1 608243E6
P 2350 13300
AR Path="/612C96BD/608243E6" Ref="D?"  Part="1" 
AR Path="/61CC7676/608243E6" Ref="D8"  Part="1" 
AR Path="/62863B64/608243E6" Ref="D?"  Part="1" 
F 0 "D8" H 2428 13342 45  0000 L CNN
F 1 "ESD5Z5.0T1G" H 2428 13258 45  0000 L CNN
F 2 "!ht3_diode:D_SOD-523" H 2380 13450 20  0001 C CNN
F 3 "" H 2350 13300 50  0001 C CNN
	1    2350 13300
	1    0    0    -1  
$EndComp
$Comp
L power:GND #PWR?
U 1 1 608243EC
P 2350 13500
AR Path="/608243EC" Ref="#PWR?"  Part="1" 
AR Path="/61CC7676/608243EC" Ref="#PWR064"  Part="1" 
AR Path="/60EBFB95/608243EC" Ref="#PWR?"  Part="1" 
AR Path="/612BBFB4/608243EC" Ref="#PWR?"  Part="1" 
AR Path="/612C8AD4/608243EC" Ref="#PWR?"  Part="1" 
AR Path="/612C96BD/608243EC" Ref="#PWR?"  Part="1" 
AR Path="/612CBD47/608243EC" Ref="#PWR?"  Part="1" 
AR Path="/612CBD5E/608243EC" Ref="#PWR?"  Part="1" 
AR Path="/60B9942B/608243EC" Ref="#PWR?"  Part="1" 
AR Path="/60B99431/608243EC" Ref="#PWR?"  Part="1" 
AR Path="/62863B64/608243EC" Ref="#PWR?"  Part="1" 
F 0 "#PWR064" H 2350 13250 50  0001 C CNN
F 1 "GND" H 2355 13327 50  0000 C CNN
F 2 "" H 2350 13500 50  0001 C CNN
F 3 "" H 2350 13500 50  0001 C CNN
	1    2350 13500
	1    0    0    -1  
$EndComp
Wire Wire Line
	2350 13500 2350 13400
Wire Wire Line
	2350 13200 2350 13000
Connection ~ 2350 13000
$Comp
L power:GND #PWR?
U 1 1 608243F5
P 3200 14000
AR Path="/608243F5" Ref="#PWR?"  Part="1" 
AR Path="/61CC7676/608243F5" Ref="#PWR067"  Part="1" 
AR Path="/60EBFB95/608243F5" Ref="#PWR?"  Part="1" 
AR Path="/612BBFB4/608243F5" Ref="#PWR?"  Part="1" 
AR Path="/612C8AD4/608243F5" Ref="#PWR?"  Part="1" 
AR Path="/612C96BD/608243F5" Ref="#PWR?"  Part="1" 
AR Path="/612CBD47/608243F5" Ref="#PWR?"  Part="1" 
AR Path="/612CBD5E/608243F5" Ref="#PWR?"  Part="1" 
AR Path="/60B9942B/608243F5" Ref="#PWR?"  Part="1" 
AR Path="/60B99431/608243F5" Ref="#PWR?"  Part="1" 
AR Path="/62863B64/608243F5" Ref="#PWR?"  Part="1" 
F 0 "#PWR067" H 3200 13750 50  0001 C CNN
F 1 "GND" H 3205 13827 50  0000 C CNN
F 2 "" H 3200 14000 50  0001 C CNN
F 3 "" H 3200 14000 50  0001 C CNN
	1    3200 14000
	1    0    0    -1  
$EndComp
Wire Wire Line
	3200 14000 3200 13900
Wire Wire Line
	3450 14000 3450 13950
$Comp
L power:GND #PWR?
U 1 1 608243FD
P 3450 14000
AR Path="/608243FD" Ref="#PWR?"  Part="1" 
AR Path="/698A2E9A/608243FD" Ref="#PWR?"  Part="1" 
AR Path="/5CF802FC/608243FD" Ref="#PWR?"  Part="1" 
AR Path="/697F25D5/608243FD" Ref="#PWR?"  Part="1" 
AR Path="/60299051/608243FD" Ref="#PWR?"  Part="1" 
AR Path="/62863B64/608243FD" Ref="#PWR?"  Part="1" 
AR Path="/60EBFB95/608243FD" Ref="#PWR?"  Part="1" 
AR Path="/612BBFB4/608243FD" Ref="#PWR?"  Part="1" 
AR Path="/612C8AD4/608243FD" Ref="#PWR?"  Part="1" 
AR Path="/612C96BD/608243FD" Ref="#PWR?"  Part="1" 
AR Path="/612CBD47/608243FD" Ref="#PWR?"  Part="1" 
AR Path="/612CBD5E/608243FD" Ref="#PWR?"  Part="1" 
AR Path="/60B9942B/608243FD" Ref="#PWR?"  Part="1" 
AR Path="/60B99431/608243FD" Ref="#PWR?"  Part="1" 
AR Path="/61CC7676/608243FD" Ref="#PWR068"  Part="1" 
F 0 "#PWR068" H 3450 13750 50  0001 C CNN
F 1 "GND" H 3455 13827 50  0000 C CNN
F 2 "" H 3450 14000 50  0001 C CNN
F 3 "" H 3450 14000 50  0001 C CNN
	1    3450 14000
	1    0    0    -1  
$EndComp
$Comp
L !ht3_diode:SUPPRESSOR-UNI D?
U 1 1 60824404
P 3200 13800
AR Path="/60824404" Ref="D?"  Part="1" 
AR Path="/5E6509AE/60824404" Ref="D?"  Part="1" 
AR Path="/5D0EB132/60824404" Ref="D?"  Part="1" 
AR Path="/5CF802FC/60824404" Ref="D?"  Part="1" 
AR Path="/697F25D5/60824404" Ref="D?"  Part="1" 
AR Path="/60299051/60824404" Ref="D?"  Part="1" 
AR Path="/62863B64/60824404" Ref="D?"  Part="1" 
AR Path="/60EBFB95/60824404" Ref="D?"  Part="1" 
AR Path="/612BBFB4/60824404" Ref="D?"  Part="1" 
AR Path="/612C8AD4/60824404" Ref="D?"  Part="1" 
AR Path="/612C96BD/60824404" Ref="D?"  Part="1" 
AR Path="/612CBD47/60824404" Ref="D?"  Part="1" 
AR Path="/612CBD5E/60824404" Ref="D?"  Part="1" 
AR Path="/60B9942B/60824404" Ref="D?"  Part="1" 
AR Path="/60B99431/60824404" Ref="D?"  Part="1" 
AR Path="/61CC7676/60824404" Ref="D9"  Part="1" 
F 0 "D9" V 3150 13600 45  0000 L CNN
F 1 "BZX384-B3V3.115" V 3150 13900 45  0000 L CNN
F 2 "!ht3_diode:D_SOD-323F" H 3230 13950 20  0001 C CNN
F 3 "" H 3200 13800 50  0001 C CNN
F 4 "00-00054413" V 3200 13800 50  0001 C CNN "kosmodrom"
F 5 "00-00054413" H 3200 13800 50  0001 C CNN "Field4"
	1    3200 13800
	1    0    0    -1  
$EndComp
$Comp
L !ht3_passive:R R?
U 1 1 6082440B
P 2700 13000
AR Path="/600B9C6A/6082440B" Ref="R?"  Part="1" 
AR Path="/5FF89635/6082440B" Ref="R?"  Part="1" 
AR Path="/60EBFB95/6082440B" Ref="R?"  Part="1" 
AR Path="/612BBFB4/6082440B" Ref="R?"  Part="1" 
AR Path="/612C8AD4/6082440B" Ref="R?"  Part="1" 
AR Path="/612C96BD/6082440B" Ref="R?"  Part="1" 
AR Path="/612CBD47/6082440B" Ref="R?"  Part="1" 
AR Path="/612CBD5E/6082440B" Ref="R?"  Part="1" 
AR Path="/60B9942B/6082440B" Ref="R?"  Part="1" 
AR Path="/60B99431/6082440B" Ref="R?"  Part="1" 
AR Path="/61CC7676/6082440B" Ref="R30"  Part="1" 
AR Path="/62863B64/6082440B" Ref="R?"  Part="1" 
F 0 "R30" H 2700 12900 45  0000 C CNN
F 1 "100/0603" H 2700 13100 45  0000 C CNN
F 2 "!ht3_smd:R_0603(1608)" H 2730 13150 20  0001 C CNN
F 3 "" H 2700 13000 50  0001 C CNN
F 4 "C269701" H 2700 13000 50  0001 C CNN "LCSC"
	1    2700 13000
	-1   0    0    1   
$EndComp
Connection ~ 3200 13000
$Comp
L !ht3_passive:C C?
U 1 1 60824413
P 3450 13750
AR Path="/60824413" Ref="C?"  Part="1" 
AR Path="/61CC7676/60824413" Ref="C20"  Part="1" 
AR Path="/60EBFB95/60824413" Ref="C?"  Part="1" 
AR Path="/612BBFB4/60824413" Ref="C?"  Part="1" 
AR Path="/612C8AD4/60824413" Ref="C?"  Part="1" 
AR Path="/612C96BD/60824413" Ref="C?"  Part="1" 
AR Path="/612CBD47/60824413" Ref="C?"  Part="1" 
AR Path="/612CBD5E/60824413" Ref="C?"  Part="1" 
AR Path="/60B9942B/60824413" Ref="C?"  Part="1" 
AR Path="/60B99431/60824413" Ref="C?"  Part="1" 
AR Path="/62863B64/60824413" Ref="C?"  Part="1" 
F 0 "C20" V 3400 13500 45  0000 L CNN
F 1 "10n/0603" V 3400 13750 45  0000 L CNN
F 2 "!ht3_smd:C_0603(1608)" H 3480 13900 20  0001 C CNN
F 3 "" H 3450 13750 50  0001 C CNN
F 4 "C30926" H 3450 13750 50  0001 C CNN "LCSC"
	1    3450 13750
	1    0    0    -1  
$EndComp
Wire Wire Line
	3200 13000 3200 13700
Wire Wire Line
	3200 13000 3450 13000
Wire Wire Line
	3450 13650 3450 13000
Connection ~ 3450 13000
Wire Wire Line
	2850 13000 3200 13000
Wire Wire Line
	3450 13000 3550 13000
Wire Wire Line
	2350 13000 2550 13000
Wire Wire Line
	1700 13000 2350 13000
Text HLabel 1600 12500 0    50   Input ~ 0
AIN
Wire Wire Line
	1700 12500 1600 12500
Text Label 3550 13000 0    50   ~ 0
ADC_IN_1
Text Notes 2050 12700 0    50   ~ 0
10K / ( 10K + 39K ) = approc. 4,9 ADC coefficient
Text Notes 6100 12400 0    50   ~ 0
STM32F205RBT6
$EndSCHEMATC
