EESchema Schematic File Version 4
EELAYER 30 0
EELAYER END
$Descr A3 11693 16535 portrait
encoding utf-8
Sheet 4 10
Title ""
Date ""
Rev ""
Comp ""
Comment1 ""
Comment2 ""
Comment3 ""
Comment4 ""
$EndDescr
Wire Wire Line
	3400 4650 3850 4650
Text HLabel 8800 4650 2    50   Output ~ 0
+3.3V
Text Notes 6000 4250 0    79   Italic 16
LDO 3.3V
$Comp
L Mechanical:Fiducial FID?
U 1 1 628B5E8A
P 1750 3000
AR Path="/607681B9/628B5E8A" Ref="FID?"  Part="1" 
AR Path="/60EE5585/628B5E8A" Ref="FID?"  Part="1" 
AR Path="/62863B64/628B5E8A" Ref="FID1"  Part="1" 
F 0 "FID1" H 1835 3046 50  0000 L CNN
F 1 "Fiducial_0.5mm_Mask1mm" H 1835 2955 50  0000 L CNN
F 2 "!ht3_misc:Fiducial_0.5mm_Mask1mm" H 1750 3000 50  0001 C CNN
F 3 "~" H 1750 3000 50  0001 C CNN
F 4 "Not Mount!" H 1750 3000 50  0001 C CNN "LCSC"
	1    1750 3000
	1    0    0    -1  
$EndComp
$Comp
L Mechanical:Fiducial FID?
U 1 1 628B5E91
P 1750 3250
AR Path="/607681B9/628B5E91" Ref="FID?"  Part="1" 
AR Path="/60EE5585/628B5E91" Ref="FID?"  Part="1" 
AR Path="/62863B64/628B5E91" Ref="FID2"  Part="1" 
F 0 "FID2" H 1835 3296 50  0000 L CNN
F 1 "Fiducial_0.5mm_Mask1mm" H 1835 3205 50  0000 L CNN
F 2 "!ht3_misc:Fiducial_0.5mm_Mask1mm" H 1750 3250 50  0001 C CNN
F 3 "~" H 1750 3250 50  0001 C CNN
F 4 "Not Mount!" H 1750 3250 50  0001 C CNN "LCSC"
	1    1750 3250
	1    0    0    -1  
$EndComp
$Comp
L !ht3_misc:LOGO LOGO?
U 1 1 628B5E98
P 1200 2900
AR Path="/607681B9/628B5E98" Ref="LOGO?"  Part="1" 
AR Path="/60EE5585/628B5E98" Ref="LOGO?"  Part="1" 
AR Path="/62863B64/628B5E98" Ref="LOGO1"  Part="1" 
F 0 "LOGO1" H 1328 2800 45  0000 L CNN
F 1 "WEEE-Logo_4.2x6mm_SilkScreen" H 1200 2650 45  0001 L BNN
F 2 "!ht3_misc:WEEE-Logo_4.2x6mm_SilkScreen" H 1230 3050 20  0001 C CNN
F 3 "" H 1200 2900 50  0001 C CNN
F 4 "Not Mount!" H 1200 2900 50  0001 C CNN "LCSC"
	1    1200 2900
	1    0    0    -1  
$EndComp
$Comp
L !ht3_misc:LOGO LOGO?
U 1 1 628B5E9F
P 1200 3050
AR Path="/607681B9/628B5E9F" Ref="LOGO?"  Part="1" 
AR Path="/60EE5585/628B5E9F" Ref="LOGO?"  Part="1" 
AR Path="/62863B64/628B5E9F" Ref="LOGO2"  Part="1" 
F 0 "LOGO2" H 1328 2950 45  0000 L CNN
F 1 "ESD-Logo_6.6x6mm_SilkScreen" H 1200 2800 45  0001 L BNN
F 2 "!ht3_misc:ESD-Logo_6.6x6mm_SilkScreen" H 1230 3200 20  0001 C CNN
F 3 "" H 1200 3050 50  0001 C CNN
F 4 "Not Mount!" H 1200 3050 50  0001 C CNN "LCSC"
	1    1200 3050
	1    0    0    -1  
$EndComp
$Comp
L !ht3_misc:LOGO LOGO?
U 1 1 628B5EA6
P 1200 3200
AR Path="/607681B9/628B5EA6" Ref="LOGO?"  Part="1" 
AR Path="/60EE5585/628B5EA6" Ref="LOGO?"  Part="1" 
AR Path="/62863B64/628B5EA6" Ref="LOGO3"  Part="1" 
F 0 "LOGO3" H 1328 3100 45  0000 L CNN
F 1 "Logo-OMEGA-COPPER" H 1200 2950 45  0001 L BNN
F 2 "!ht3_misc:Logo-OMEGA-COPPER" H 1230 3350 20  0001 C CNN
F 3 "" H 1200 3200 50  0001 C CNN
F 4 "Not Mount!" H 1200 3200 50  0001 C CNN "LCSC"
	1    1200 3200
	1    0    0    -1  
$EndComp
$Comp
L Graphic:SYM_ESD_Large #SYM?
U 1 1 628B5EAC
P 1350 2500
AR Path="/607681B9/628B5EAC" Ref="#SYM?"  Part="1" 
AR Path="/60EE5585/628B5EAC" Ref="#SYM?"  Part="1" 
AR Path="/62863B64/628B5EAC" Ref="#SYM1"  Part="1" 
F 0 "#SYM1" H 1350 2700 50  0001 C CNN
F 1 "SYM_ESD_Large" H 1350 2250 50  0001 C CNN
F 2 "" H 1345 2470 50  0001 C CNN
F 3 "~" H 1345 2470 50  0001 C CNN
	1    1350 2500
	1    0    0    -1  
$EndComp
$Comp
L power:PWR_FLAG #FLG?
U 1 1 628B5EB2
P 2650 1200
AR Path="/5D3600C7/628B5EB2" Ref="#FLG?"  Part="1" 
AR Path="/628B5EB2" Ref="#FLG?"  Part="1" 
AR Path="/607681B9/628B5EB2" Ref="#FLG?"  Part="1" 
AR Path="/60EE5585/628B5EB2" Ref="#FLG?"  Part="1" 
AR Path="/62863B64/628B5EB2" Ref="#FLG09"  Part="1" 
F 0 "#FLG09" H 2650 1275 50  0001 C CNN
F 1 "PWR_FLAG" V 2650 1500 50  0000 C CNN
F 2 "" H 2650 1200 50  0001 C CNN
F 3 "~" H 2650 1200 50  0001 C CNN
	1    2650 1200
	1    0    0    -1  
$EndComp
Wire Wire Line
	2650 1200 2650 1300
$Comp
L power:+12V #PWR?
U 1 1 628B5EEF
P 4550 1200
AR Path="/628B5EEF" Ref="#PWR?"  Part="1" 
AR Path="/607681B9/628B5EEF" Ref="#PWR?"  Part="1" 
AR Path="/60EE5585/628B5EEF" Ref="#PWR?"  Part="1" 
AR Path="/62863B64/628B5EEF" Ref="#PWR085"  Part="1" 
F 0 "#PWR085" H 4550 1050 50  0001 C CNN
F 1 "+12V" H 4565 1373 50  0000 C CNN
F 2 "" H 4550 1200 50  0001 C CNN
F 3 "" H 4550 1200 50  0001 C CNN
	1    4550 1200
	1    0    0    -1  
$EndComp
Wire Wire Line
	4550 1200 4550 1300
Connection ~ 4550 1300
$Comp
L power:GND #PWR?
U 1 1 628B5EFD
P 4550 2400
AR Path="/628B5EFD" Ref="#PWR?"  Part="1" 
AR Path="/698A2E9A/628B5EFD" Ref="#PWR?"  Part="1" 
AR Path="/607681B9/628B5EFD" Ref="#PWR?"  Part="1" 
AR Path="/60EE5585/628B5EFD" Ref="#PWR?"  Part="1" 
AR Path="/62863B64/628B5EFD" Ref="#PWR089"  Part="1" 
F 0 "#PWR089" H 4550 2150 50  0001 C CNN
F 1 "GND" H 4555 2227 50  0000 C CNN
F 2 "" H 4550 2400 50  0001 C CNN
F 3 "" H 4550 2400 50  0001 C CNN
	1    4550 2400
	1    0    0    -1  
$EndComp
$Comp
L !ht3_misc:FUSE F?
U 1 1 628B5F49
P 3000 1300
AR Path="/628B5F49" Ref="F?"  Part="1" 
AR Path="/607681B9/628B5F49" Ref="F?"  Part="1" 
AR Path="/60EE5585/628B5F49" Ref="F?"  Part="1" 
AR Path="/62863B64/628B5F49" Ref="F2"  Part="1" 
F 0 "F2" H 3000 1400 45  0000 C CNN
F 1 "MINISMDC075F-2" H 3000 1200 45  0000 C CNN
F 2 "!ht3_smd:R_1812(4532)" H 3030 1450 20  0001 C CNN
F 3 "" H 3000 1300 50  0001 C CNN
F 4 "C444865" H 3000 1300 50  0001 C CNN "LCSC"
	1    3000 1300
	1    0    0    -1  
$EndComp
$Comp
L !ht3_triode:FETP-SOT-23 Q?
U 1 1 628B5F8F
P 4050 4750
AR Path="/628B5F8F" Ref="Q?"  Part="1" 
AR Path="/63F2C63B/628B5F8F" Ref="Q?"  Part="1" 
AR Path="/618E2CEA/628B5F8F" Ref="Q?"  Part="1" 
AR Path="/60B95DE6/628B5F8F" Ref="Q?"  Part="1" 
AR Path="/60EE5585/628B5F8F" Ref="Q?"  Part="1" 
AR Path="/62863B64/628B5F8F" Ref="Q2"  Part="1" 
F 0 "Q2" V 4439 4750 45  0000 C CNN
F 1 "IRLML9301" V 4355 4750 45  0000 C CNN
F 2 "!ht3_smd:SOT-23" H 4080 4900 20  0001 C CNN
F 3 "" H 4050 4750 50  0001 C CNN
F 4 "C82056" H 4050 4750 50  0001 C CNN "LCSC"
F 5 "00-00032390" V 4050 4750 50  0001 C CNN "Field5"
	1    4050 4750
	0    1    -1   0   
$EndComp
$Comp
L !ht3_passive:R R?
U 1 1 628B5F9D
P 4150 5500
AR Path="/628B5F9D" Ref="R?"  Part="1" 
AR Path="/698A2E9A/628B5F9D" Ref="R?"  Part="1" 
AR Path="/607681B9/628B5F9D" Ref="R?"  Part="1" 
AR Path="/60EE5585/628B5F9D" Ref="R?"  Part="1" 
AR Path="/62863B64/628B5F9D" Ref="R59"  Part="1" 
F 0 "R59" H 4050 5600 45  0000 L CNN
F 1 "10K/0603" H 3950 5400 45  0000 L CNN
F 2 "!ht3_smd:R_0603(1608)" H 4180 5650 20  0001 C CNN
F 3 "" H 4150 5500 50  0001 C CNN
F 4 "C269701" H 4150 5500 50  0001 C CNN "LCSC"
	1    4150 5500
	0    -1   -1   0   
$EndComp
$Comp
L power:GND #PWR?
U 1 1 628B5FA3
P 4150 5850
AR Path="/628B5FA3" Ref="#PWR?"  Part="1" 
AR Path="/698A2E9A/628B5FA3" Ref="#PWR?"  Part="1" 
AR Path="/607681B9/628B5FA3" Ref="#PWR?"  Part="1" 
AR Path="/60EE5585/628B5FA3" Ref="#PWR?"  Part="1" 
AR Path="/62863B64/628B5FA3" Ref="#PWR0108"  Part="1" 
F 0 "#PWR0108" H 4150 5600 50  0001 C CNN
F 1 "GND" H 4155 5677 50  0000 C CNN
F 2 "" H 4150 5850 50  0001 C CNN
F 3 "" H 4150 5850 50  0001 C CNN
	1    4150 5850
	1    0    0    -1  
$EndComp
Text Notes 2800 2050 0    50   ~ 0
22V
$Comp
L !ht3_diode:SUPPRESSOR-BI D?
U 1 1 628B60D7
P 2650 1850
AR Path="/60EE5585/628B60D7" Ref="D?"  Part="1" 
AR Path="/62863B64/628B60D7" Ref="D22"  Part="1" 
F 0 "D22" H 2750 1900 45  0000 L CNN
F 1 "SM6T27CA" H 2750 1800 45  0000 L CNN
F 2 "!ht3_diode:D_SMB" H 2680 2000 20  0001 C CNN
F 3 "" H 2650 1850 50  0001 C CNN
F 4 "C133692" H 2650 1850 50  0001 C CNN "LCSC"
F 5 "00-00056658" H 2650 1850 50  0001 C CNN "Field5"
	1    2650 1850
	1    0    0    -1  
$EndComp
$Comp
L power:PWR_FLAG #FLG?
U 1 1 628B60DD
P 4350 1200
AR Path="/5D3600C7/628B60DD" Ref="#FLG?"  Part="1" 
AR Path="/628B60DD" Ref="#FLG?"  Part="1" 
AR Path="/5CF802FC/628B60DD" Ref="#FLG?"  Part="1" 
AR Path="/60EE5585/628B60DD" Ref="#FLG?"  Part="1" 
AR Path="/62863B64/628B60DD" Ref="#FLG010"  Part="1" 
F 0 "#FLG010" H 4350 1275 50  0001 C CNN
F 1 "PWR_FLAG" H 4350 1374 50  0000 C CNN
F 2 "" H 4350 1200 50  0001 C CNN
F 3 "~" H 4350 1200 50  0001 C CNN
	1    4350 1200
	1    0    0    -1  
$EndComp
Wire Wire Line
	4350 1200 4350 1300
Wire Wire Line
	2650 2250 2650 1950
Wire Wire Line
	2650 1300 2650 1750
Connection ~ 2650 1300
Connection ~ 4350 1300
$Comp
L power:+5V #PWR?
U 1 1 628B613E
P 3950 5050
AR Path="/60EE5585/628B613E" Ref="#PWR?"  Part="1" 
AR Path="/62863B64/628B613E" Ref="#PWR0103"  Part="1" 
F 0 "#PWR0103" H 3950 4900 50  0001 C CNN
F 1 "+5V" H 3965 5223 50  0000 C CNN
F 2 "" H 3950 5050 50  0001 C CNN
F 3 "" H 3950 5050 50  0001 C CNN
	1    3950 5050
	1    0    0    -1  
$EndComp
Wire Wire Line
	3950 5150 3950 5050
Wire Wire Line
	4550 2300 4550 2400
Wire Wire Line
	4550 1300 4550 2000
$Comp
L power:GND #PWR?
U 1 1 628B61A0
P 4350 2400
AR Path="/628B61A0" Ref="#PWR?"  Part="1" 
AR Path="/698A2E9A/628B61A0" Ref="#PWR?"  Part="1" 
AR Path="/5CF802FC/628B61A0" Ref="#PWR?"  Part="1" 
AR Path="/607681B9/628B61A0" Ref="#PWR?"  Part="1" 
AR Path="/60EE5585/628B61A0" Ref="#PWR?"  Part="1" 
AR Path="/62863B64/628B61A0" Ref="#PWR088"  Part="1" 
F 0 "#PWR088" H 4350 2150 50  0001 C CNN
F 1 "GND" H 4355 2227 50  0000 C CNN
F 2 "" H 4350 2400 50  0001 C CNN
F 3 "" H 4350 2400 50  0001 C CNN
	1    4350 2400
	1    0    0    -1  
$EndComp
$Comp
L !ht3_passive:C C?
U 1 1 628B61A7
P 4350 2100
AR Path="/60EE5585/628B61A7" Ref="C?"  Part="1" 
AR Path="/62863B64/628B61A7" Ref="C24"  Part="1" 
F 0 "C24" V 4300 1850 45  0000 L CNN
F 1 "4.7u/50V/X5R/1206" V 4300 2150 45  0000 L CNN
F 2 "!ht3_smd:C_1206(3216)" H 4380 2250 20  0001 C CNN
F 3 "" H 4350 2100 50  0001 C CNN
F 4 "C105481" V 4350 2100 50  0001 C CNN "LCSC"
	1    4350 2100
	1    0    0    -1  
$EndComp
Wire Wire Line
	4350 2300 4350 2400
Wire Wire Line
	4350 1300 4350 2000
Wire Notes Line
	8150 8300 4650 8300
$Comp
L !ht3_misc:TestPoint TP?
U 1 1 6293D1B3
P 4650 5050
AR Path="/63F41370/6293D1B3" Ref="TP?"  Part="1" 
AR Path="/698A2E9A/6293D1B3" Ref="TP?"  Part="1" 
AR Path="/6293D1B3" Ref="TP?"  Part="1" 
AR Path="/62863B64/6293D1B3" Ref="TP5"  Part="1" 
F 0 "TP5" H 4550 5150 50  0000 L CNN
F 1 "TestPoint_C1.5mm" V 4900 4550 50  0001 L CNN
F 2 "!ht3_misc:TestPoint_C1.5mm" H 4850 5050 50  0001 C CNN
F 3 "~" H 4850 5050 50  0001 C CNN
	1    4650 5050
	1    0    0    -1  
$EndComp
Text Notes 7950 -1100 0    50   ~ 0
AP3211H \nXRP7659\nAOZ1282 \nNJW1933F1-AT-TE2\nLT1933\nLMR14203XMKX/NOPB
Text Notes 9050 -1150 0    50   ~ 0
AOZ1236QI-02
Text Notes 9050 -1250 0    50   ~ 0
MP2315GJ-Z
Text Notes 500  200  0    197  ~ 39
Power unit, conv., etc
Wire Wire Line
	2850 1300 2650 1300
$Comp
L !ht3_diode:SCHOTTKY D?
U 1 1 62EA498F
P 1800 1300
AR Path="/62EA498F" Ref="D?"  Part="1" 
AR Path="/698A2E9A/62EA498F" Ref="D?"  Part="1" 
AR Path="/607681B9/62EA498F" Ref="D?"  Part="1" 
AR Path="/60EE5585/62EA498F" Ref="D?"  Part="1" 
AR Path="/62863B64/62EA498F" Ref="D21"  Part="1" 
F 0 "D21" H 1600 1350 45  0000 C CNN
F 1 "ES2G" H 2050 1350 45  0000 C CNN
F 2 "!ht3_diode:D_SMB" H 1830 1450 20  0001 C CNN
F 3 "" H 1800 1300 50  0001 C CNN
F 4 "C64973" H 1800 1300 50  0001 C CNN "LCSC"
F 5 "00-00050789" H 1800 1300 50  0001 C CNN "KOSMODROM"
	1    1800 1300
	1    0    0    -1  
$EndComp
Wire Wire Line
	1900 1300 2250 1300
Wire Notes Line
	4650 8350 4650 11000
Text HLabel 8000 9500 2    50   Output ~ 0
ADC_PWR_V
$Comp
L !ht3_passive:R R?
U 1 1 628B5FEE
P 5900 9750
AR Path="/5D3600C7/628B5FEE" Ref="R?"  Part="1" 
AR Path="/628B5FEE" Ref="R?"  Part="1" 
AR Path="/60EE5585/628B5FEE" Ref="R?"  Part="1" 
AR Path="/5FF89635/628B5FEE" Ref="R?"  Part="1" 
AR Path="/62863B64/628B5FEE" Ref="R67"  Part="1" 
F 0 "R67" H 5900 9850 45  0000 C CNN
F 1 "10K/0603" H 5900 9650 45  0000 C CNN
F 2 "!ht3_smd:R_0603(1608)" H 5930 9900 20  0001 C CNN
F 3 "" H 5900 9750 50  0001 C CNN
F 4 "C269701" H 5900 9750 50  0001 C CNN "LCSC"
	1    5900 9750
	0    -1   -1   0   
$EndComp
Wire Wire Line
	5900 10000 5900 9900
$Comp
L power:GND #PWR?
U 1 1 628B5FD6
P 5900 10000
AR Path="/628B5FD6" Ref="#PWR?"  Part="1" 
AR Path="/60EE5585/628B5FD6" Ref="#PWR?"  Part="1" 
AR Path="/5FF89635/628B5FD6" Ref="#PWR?"  Part="1" 
AR Path="/62863B64/628B5FD6" Ref="#PWR0118"  Part="1" 
F 0 "#PWR0118" H 5900 9750 50  0001 C CNN
F 1 "GND" H 5905 9827 50  0000 C CNN
F 2 "" H 5900 10000 50  0001 C CNN
F 3 "" H 5900 10000 50  0001 C CNN
	1    5900 10000
	1    0    0    -1  
$EndComp
Wire Wire Line
	5900 9400 5900 9500
Connection ~ 5900 9500
Wire Wire Line
	5900 9500 5900 9600
$Comp
L !ht3_passive:CP C?
U 1 1 603A694A
P 3400 4950
AR Path="/603A694A" Ref="C?"  Part="1" 
AR Path="/63F41370/603A694A" Ref="C?"  Part="1" 
AR Path="/5D0E2920/603A694A" Ref="C?"  Part="1" 
AR Path="/697F25D5/603A694A" Ref="C?"  Part="1" 
AR Path="/60299051/603A694A" Ref="C?"  Part="1" 
AR Path="/62863B64/603A694A" Ref="C33"  Part="1" 
F 0 "C33" H 3500 4950 45  0000 L CNN
F 1 "1F/2.7V" H 3500 4850 45  0000 L CNN
F 2 "!ht3_tht:CP_Radial_D8.0mm_P3.50mm" H 3430 5100 20  0001 C CNN
F 3 "" H 3400 4950 50  0001 C CNN
F 4 "00-00038306" H 3400 4950 50  0001 C CNN "KOSMODROM"
	1    3400 4950
	1    0    0    -1  
$EndComp
Wire Wire Line
	3400 5150 3400 5250
$Comp
L !ht3_passive:R R?
U 1 1 603A6951
P 3150 5000
AR Path="/603A6951" Ref="R?"  Part="1" 
AR Path="/697F25D5/603A6951" Ref="R?"  Part="1" 
AR Path="/60299051/603A6951" Ref="R?"  Part="1" 
AR Path="/62863B64/603A6951" Ref="R57"  Part="1" 
F 0 "R57" H 3150 5100 45  0000 C CNN
F 1 "1M/0603" H 3150 4900 45  0000 C CNN
F 2 "!ht3_smd:R_0603(1608)" H 3180 5150 20  0001 C CNN
F 3 "" H 3150 5000 50  0001 C CNN
	1    3150 5000
	0    -1   -1   0   
$EndComp
Wire Wire Line
	3150 4850 3150 4750
Wire Wire Line
	3150 4750 3400 4750
Wire Wire Line
	3400 4750 3400 4850
Wire Wire Line
	3150 5150 3150 5250
Wire Wire Line
	3150 5250 3400 5250
Connection ~ 3400 5250
Wire Wire Line
	3400 5250 3400 5350
Wire Wire Line
	3150 5350 3150 5250
Connection ~ 3150 5250
Connection ~ 3400 4750
Text Notes 3450 5300 0    50   ~ 0
DRL1/2.7
Wire Wire Line
	3400 5750 3400 5650
Connection ~ 3400 5750
Wire Wire Line
	3150 5750 3400 5750
Wire Wire Line
	3150 5650 3150 5750
$Comp
L !ht3_passive:R R?
U 1 1 603A6A13
P 3150 5500
AR Path="/603A6A13" Ref="R?"  Part="1" 
AR Path="/697F25D5/603A6A13" Ref="R?"  Part="1" 
AR Path="/60299051/603A6A13" Ref="R?"  Part="1" 
AR Path="/62863B64/603A6A13" Ref="R58"  Part="1" 
F 0 "R58" H 3150 5600 45  0000 C CNN
F 1 "1M/0603" H 3150 5400 45  0000 C CNN
F 2 "!ht3_smd:R_0603(1608)" H 3180 5650 20  0001 C CNN
F 3 "" H 3150 5500 50  0001 C CNN
	1    3150 5500
	0    -1   -1   0   
$EndComp
Wire Wire Line
	3400 5850 3400 5750
$Comp
L power:GND #PWR?
U 1 1 6170A62C
P 3400 5850
AR Path="/6170A62C" Ref="#PWR?"  Part="1" 
AR Path="/697F25D5/6170A62C" Ref="#PWR?"  Part="1" 
AR Path="/60299051/6170A62C" Ref="#PWR?"  Part="1" 
AR Path="/62863B64/6170A62C" Ref="#PWR0107"  Part="1" 
F 0 "#PWR0107" H 3400 5600 50  0001 C CNN
F 1 "GND" H 3405 5677 50  0000 C CNN
F 2 "" H 3400 5850 50  0001 C CNN
F 3 "" H 3400 5850 50  0001 C CNN
	1    3400 5850
	1    0    0    -1  
$EndComp
$Comp
L !ht3_passive:CP C?
U 1 1 603A6A20
P 3400 5450
AR Path="/603A6A20" Ref="C?"  Part="1" 
AR Path="/63F41370/603A6A20" Ref="C?"  Part="1" 
AR Path="/5D0E2920/603A6A20" Ref="C?"  Part="1" 
AR Path="/697F25D5/603A6A20" Ref="C?"  Part="1" 
AR Path="/60299051/603A6A20" Ref="C?"  Part="1" 
AR Path="/62863B64/603A6A20" Ref="C37"  Part="1" 
F 0 "C37" H 3500 5450 45  0000 L CNN
F 1 "1F/2.7V" H 3500 5350 45  0000 L CNN
F 2 "!ht3_tht:CP_Radial_D8.0mm_P3.50mm" H 3430 5600 20  0001 C CNN
F 3 "" H 3400 5450 50  0001 C CNN
F 4 "00-00038306" H 3400 5450 50  0001 C CNN "KOSMODROM"
	1    3400 5450
	1    0    0    -1  
$EndComp
Wire Wire Line
	3250 7000 3250 6800
Connection ~ 3250 7000
$Comp
L power:GND #PWR?
U 1 1 6166ED4B
P 3250 7750
AR Path="/6166ED4B" Ref="#PWR?"  Part="1" 
AR Path="/63F2C63B/6166ED4B" Ref="#PWR?"  Part="1" 
AR Path="/618E2CEA/6166ED4B" Ref="#PWR?"  Part="1" 
AR Path="/60B95DE6/6166ED4B" Ref="#PWR?"  Part="1" 
AR Path="/60EE5585/6166ED4B" Ref="#PWR?"  Part="1" 
AR Path="/600B9C6A/6166ED4B" Ref="#PWR?"  Part="1" 
AR Path="/5F3AEDBA/6166ED4B" Ref="#PWR?"  Part="1" 
AR Path="/63AE53EC/6166ED4B" Ref="#PWR?"  Part="1" 
AR Path="/5FB51C8B/6166ED4B" Ref="#PWR?"  Part="1" 
AR Path="/600B2C94/6166ED4B" Ref="#PWR?"  Part="1" 
AR Path="/62863B64/6166ED4B" Ref="#PWR0116"  Part="1" 
F 0 "#PWR0116" H 3250 7500 50  0001 C CNN
F 1 "GND" H 3255 7577 50  0000 C CNN
F 2 "" H 3250 7750 50  0001 C CNN
F 3 "" H 3250 7750 50  0001 C CNN
	1    3250 7750
	1    0    0    -1  
$EndComp
Wire Wire Line
	3400 4650 3400 4750
Connection ~ 3400 4650
$Comp
L power:+5V #PWR?
U 1 1 609FB2C6
P 2150 4550
AR Path="/60EE5585/609FB2C6" Ref="#PWR?"  Part="1" 
AR Path="/62863B64/609FB2C6" Ref="#PWR0101"  Part="1" 
F 0 "#PWR0101" H 2150 4400 50  0001 C CNN
F 1 "+5V" H 2165 4723 50  0000 C CNN
F 2 "" H 2150 4550 50  0001 C CNN
F 3 "" H 2150 4550 50  0001 C CNN
	1    2150 4550
	1    0    0    -1  
$EndComp
Wire Wire Line
	2150 4650 2150 4550
Wire Wire Line
	2650 4650 2750 4650
$Comp
L !ht3_passive:R R?
U 1 1 60B10EFF
P 2400 1300
AR Path="/60B10EFF" Ref="R?"  Part="1" 
AR Path="/698A2E9A/60B10EFF" Ref="R?"  Part="1" 
AR Path="/5CF802FC/60B10EFF" Ref="R?"  Part="1" 
AR Path="/62863B64/60B10EFF" Ref="R47"  Part="1" 
F 0 "R47" H 2350 1400 45  0000 L CNN
F 1 "0/0805" H 2250 1200 45  0000 L CNN
F 2 "!ht3_smd:R_0805(2012)" H 2430 1450 20  0001 C CNN
F 3 "" H 2400 1300 50  0001 C CNN
	1    2400 1300
	1    0    0    -1  
$EndComp
Wire Wire Line
	2550 1300 2650 1300
$Comp
L !ht3_passive:R R?
U 1 1 60B62A9B
P 8450 4650
AR Path="/60B62A9B" Ref="R?"  Part="1" 
AR Path="/698A2E9A/60B62A9B" Ref="R?"  Part="1" 
AR Path="/5CF802FC/60B62A9B" Ref="R?"  Part="1" 
AR Path="/62863B64/60B62A9B" Ref="R56"  Part="1" 
F 0 "R56" H 8400 4750 45  0000 L CNN
F 1 "0/0805" H 8350 4550 45  0000 L CNN
F 2 "!ht3_smd:R_0805(2012)" H 8480 4800 20  0001 C CNN
F 3 "" H 8450 4650 50  0001 C CNN
	1    8450 4650
	1    0    0    -1  
$EndComp
Wire Wire Line
	8600 4650 8700 4650
Text Notes 2650 4100 0    79   Italic 16
Ionistors for timesave
Wire Wire Line
	5600 7100 5600 7600
Wire Wire Line
	5600 7100 5700 7100
Wire Wire Line
	6000 6500 6000 6600
Wire Wire Line
	6400 6500 6400 6600
Wire Wire Line
	6350 7400 6350 7500
Connection ~ 6350 7400
Wire Wire Line
	6250 7400 6250 7300
Wire Wire Line
	6350 7400 6250 7400
Wire Wire Line
	6350 7300 6350 7400
Wire Wire Line
	6700 6950 7050 6950
Wire Wire Line
	7050 6600 7050 6950
$Comp
L !ht3_ic:STBB1-APUR U?
U 1 1 6446F599
P 5800 6700
AR Path="/6446F599" Ref="U?"  Part="1" 
AR Path="/62863B64/6446F599" Ref="U12"  Part="1" 
F 0 "U12" H 6744 6492 45  0000 L CNN
F 1 "STBB1-APUR" H 6400 6150 45  0000 L CNN
F 2 "!ht3_smd:DFN-10-1EP_3x3mm_P0.5mm_EP1.75x2.7mm" H 5830 6850 20  0001 C CNN
F 3 "" H 5800 6700 50  0001 C CNN
F 4 " 00-00046075" H 5800 6700 50  0001 C CNN "Field4"
	1    5800 6700
	1    0    0    -1  
$EndComp
Wire Wire Line
	7650 7100 7550 7100
Connection ~ 7650 6600
Wire Wire Line
	7050 6600 7650 6600
Wire Wire Line
	7650 6600 7950 6600
$Comp
L !ht3_passive:R R?
U 1 1 628B5E30
P 7400 7100
AR Path="/628B5E30" Ref="R?"  Part="1" 
AR Path="/698A2E9A/628B5E30" Ref="R?"  Part="1" 
AR Path="/60EE5585/628B5E30" Ref="R?"  Part="1" 
AR Path="/62863B64/628B5E30" Ref="R63"  Part="1" 
F 0 "R63" H 7400 7200 45  0000 C CNN
F 1 "0/0603" H 7400 7000 45  0000 C CNN
F 2 "!ht3_smd:R_0603(1608)" H 7430 7250 20  0001 C CNN
F 3 "" H 7400 7100 50  0001 C CNN
F 4 "C163836" H 7400 7100 50  0001 C CNN "LCSC"
	1    7400 7100
	1    0    0    -1  
$EndComp
$Comp
L power:GND #PWR?
U 1 1 628B5E36
P 6350 7500
AR Path="/628B5E36" Ref="#PWR?"  Part="1" 
AR Path="/698A2E9A/628B5E36" Ref="#PWR?"  Part="1" 
AR Path="/60EE5585/628B5E36" Ref="#PWR?"  Part="1" 
AR Path="/62863B64/628B5E36" Ref="#PWR0109"  Part="1" 
F 0 "#PWR0109" H 6350 7250 50  0001 C CNN
F 1 "GND" H 6355 7327 50  0000 C CNN
F 2 "" H 6350 7500 50  0001 C CNN
F 3 "" H 6350 7500 50  0001 C CNN
	1    6350 7500
	1    0    0    -1  
$EndComp
Wire Wire Line
	5350 6800 5350 6900
$Comp
L power:GND #PWR?
U 1 1 628B5E3D
P 5350 7600
AR Path="/628B5E3D" Ref="#PWR?"  Part="1" 
AR Path="/698A2E9A/628B5E3D" Ref="#PWR?"  Part="1" 
AR Path="/60EE5585/628B5E3D" Ref="#PWR?"  Part="1" 
AR Path="/62863B64/628B5E3D" Ref="#PWR0111"  Part="1" 
F 0 "#PWR0111" H 5350 7350 50  0001 C CNN
F 1 "GND" H 5355 7427 50  0000 C CNN
F 2 "" H 5350 7600 50  0001 C CNN
F 3 "" H 5350 7600 50  0001 C CNN
	1    5350 7600
	1    0    0    -1  
$EndComp
$Comp
L !ht3_passive:CP C?
U 1 1 628B5E44
P 5350 7300
AR Path="/628B5E44" Ref="C?"  Part="1" 
AR Path="/698A2E9A/628B5E44" Ref="C?"  Part="1" 
AR Path="/60EE5585/628B5E44" Ref="C?"  Part="1" 
AR Path="/62863B64/628B5E44" Ref="C39"  Part="1" 
F 0 "C39" H 5443 7292 45  0000 L CNN
F 1 "47u/10V/B" H 5400 7150 45  0000 L CNN
F 2 "!ht3_smd:CP_EIA-3528-21_Kemet-B" H 5380 7450 20  0001 C CNN
F 3 "" H 5350 7300 50  0001 C CNN
F 4 "C147768" H 5350 7300 50  0001 C CNN "LCSC"
	1    5350 7300
	1    0    0    -1  
$EndComp
Wire Wire Line
	5350 7600 5350 7500
Wire Wire Line
	7650 7000 7650 7100
Wire Wire Line
	7650 6700 7650 6600
$Comp
L !ht3_passive:R R?
U 1 1 628B5E4E
P 7650 6850
AR Path="/628B5E4E" Ref="R?"  Part="1" 
AR Path="/698A2E9A/628B5E4E" Ref="R?"  Part="1" 
AR Path="/60EE5585/628B5E4E" Ref="R?"  Part="1" 
AR Path="/62863B64/628B5E4E" Ref="R61"  Part="1" 
F 0 "R61" V 7608 6913 45  0000 L CNN
F 1 "560K/0603" H 7450 6750 45  0000 L CNN
F 2 "!ht3_smd:R_0603(1608)" H 7680 7000 20  0001 C CNN
F 3 "" H 7650 6850 50  0001 C CNN
F 4 "C103201" H 7650 6850 50  0001 C CNN "LCSC"
	1    7650 6850
	0    -1   -1   0   
$EndComp
$Comp
L !ht3_inductor:L L?
U 1 1 628B5E55
P 6200 6500
AR Path="/628B5E55" Ref="L?"  Part="1" 
AR Path="/698A2E9A/628B5E55" Ref="L?"  Part="1" 
AR Path="/60EE5585/628B5E55" Ref="L?"  Part="1" 
AR Path="/62863B64/628B5E55" Ref="L4"  Part="1" 
F 0 "L4" H 6200 6600 45  0000 C CNN
F 1 "CDRH4D18NP-2R2" H 6600 6550 45  0000 C CNN
F 2 "!ht3_inductor:CDRH4D18" H 6230 6650 20  0001 C CNN
F 3 "" H 6200 6500 50  0001 C CNN
F 4 "C237985" H 6200 6500 50  0001 C CNN "LCSC"
F 5 "00-00039375" H 6200 6500 50  0001 C CNN "Field5"
	1    6200 6500
	1    0    0    -1  
$EndComp
Wire Wire Line
	5350 6800 5700 6800
Wire Wire Line
	6050 6500 6000 6500
Wire Wire Line
	6350 6500 6400 6500
Wire Wire Line
	6700 7100 7050 7100
Connection ~ 7050 7100
Wire Wire Line
	7050 7500 7050 7600
$Comp
L power:GND #PWR?
U 1 1 628B602E
P 7050 7600
AR Path="/628B602E" Ref="#PWR?"  Part="1" 
AR Path="/698A2E9A/628B602E" Ref="#PWR?"  Part="1" 
AR Path="/60EE5585/628B602E" Ref="#PWR?"  Part="1" 
AR Path="/62863B64/628B602E" Ref="#PWR0113"  Part="1" 
F 0 "#PWR0113" H 7050 7350 50  0001 C CNN
F 1 "GND" H 7055 7427 50  0000 C CNN
F 2 "" H 7050 7600 50  0001 C CNN
F 3 "" H 7050 7600 50  0001 C CNN
	1    7050 7600
	1    0    0    -1  
$EndComp
$Comp
L !ht3_passive:R R?
U 1 1 628B6034
P 7050 7350
AR Path="/628B6034" Ref="R?"  Part="1" 
AR Path="/698A2E9A/628B6034" Ref="R?"  Part="1" 
AR Path="/60EE5585/628B6034" Ref="R?"  Part="1" 
AR Path="/62863B64/628B6034" Ref="R64"  Part="1" 
F 0 "R64" H 6950 7450 45  0000 L CNN
F 1 "100K/0603" H 6850 7250 45  0000 L CNN
F 2 "!ht3_smd:R_0603(1608)" H 7080 7500 20  0001 C CNN
F 3 "" H 7050 7350 50  0001 C CNN
	1    7050 7350
	0    -1   -1   0   
$EndComp
Wire Wire Line
	7050 7100 7050 7200
Wire Wire Line
	7050 7100 7250 7100
Connection ~ 5350 6900
Wire Wire Line
	5350 6900 5350 7200
$Comp
L !ht3_passive:C C?
U 1 1 628B6063
P 5150 7300
AR Path="/628B6063" Ref="C?"  Part="1" 
AR Path="/60EE5585/628B6063" Ref="C?"  Part="1" 
AR Path="/62863B64/628B6063" Ref="C38"  Part="1" 
F 0 "C38" V 5100 7050 45  0000 L CNN
F 1 "4.7u/16V/0805" V 5100 7350 45  0000 L CNN
F 2 "!ht3_smd:C_0805(2012)" H 5180 7450 20  0001 C CNN
F 3 "" H 5150 7300 50  0001 C CNN
F 4 "C408144" H 5150 7300 50  0001 C CNN "LCSC"
	1    5150 7300
	1    0    0    -1  
$EndComp
Wire Wire Line
	5150 7200 5150 6900
Wire Wire Line
	5150 6900 5350 6900
$Comp
L power:GND #PWR?
U 1 1 628B606B
P 5150 7600
AR Path="/628B606B" Ref="#PWR?"  Part="1" 
AR Path="/698A2E9A/628B606B" Ref="#PWR?"  Part="1" 
AR Path="/60EE5585/628B606B" Ref="#PWR?"  Part="1" 
AR Path="/62863B64/628B606B" Ref="#PWR0110"  Part="1" 
F 0 "#PWR0110" H 5150 7350 50  0001 C CNN
F 1 "GND" H 5155 7427 50  0000 C CNN
F 2 "" H 5150 7600 50  0001 C CNN
F 3 "" H 5150 7600 50  0001 C CNN
	1    5150 7600
	1    0    0    -1  
$EndComp
Wire Wire Line
	5150 7600 5150 7500
$Comp
L power:GND #PWR?
U 1 1 628B6072
P 5600 7600
AR Path="/628B6072" Ref="#PWR?"  Part="1" 
AR Path="/698A2E9A/628B6072" Ref="#PWR?"  Part="1" 
AR Path="/60EE5585/628B6072" Ref="#PWR?"  Part="1" 
AR Path="/62863B64/628B6072" Ref="#PWR0112"  Part="1" 
F 0 "#PWR0112" H 5600 7350 50  0001 C CNN
F 1 "GND" H 5605 7427 50  0000 C CNN
F 2 "" H 5600 7600 50  0001 C CNN
F 3 "" H 5600 7600 50  0001 C CNN
	1    5600 7600
	1    0    0    -1  
$EndComp
Text Notes 6400 7500 0    50   ~ 0
TPS63020\nRT6154AGQW
Wire Wire Line
	7950 7500 7950 7600
$Comp
L power:GND #PWR?
U 1 1 628B6147
P 7950 7600
AR Path="/628B6147" Ref="#PWR?"  Part="1" 
AR Path="/698A2E9A/628B6147" Ref="#PWR?"  Part="1" 
AR Path="/60EE5585/628B6147" Ref="#PWR?"  Part="1" 
AR Path="/62863B64/628B6147" Ref="#PWR0114"  Part="1" 
F 0 "#PWR0114" H 7950 7350 50  0001 C CNN
F 1 "GND" H 7955 7427 50  0000 C CNN
F 2 "" H 7950 7600 50  0001 C CNN
F 3 "" H 7950 7600 50  0001 C CNN
	1    7950 7600
	1    0    0    -1  
$EndComp
Wire Wire Line
	7950 7200 7950 6600
$Comp
L !ht3_passive:C C?
U 1 1 628B6151
P 7950 7300
AR Path="/628B6151" Ref="C?"  Part="1" 
AR Path="/60EE5585/628B6151" Ref="C?"  Part="1" 
AR Path="/62863B64/628B6151" Ref="C40"  Part="1" 
F 0 "C40" V 7900 7050 45  0000 L CNN
F 1 "4.7u/16V/0805" V 7900 7350 45  0000 L CNN
F 2 "!ht3_smd:C_0805(2012)" H 7980 7450 20  0001 C CNN
F 3 "" H 7950 7300 50  0001 C CNN
F 4 "C408144" H 7950 7300 50  0001 C CNN "LCSC"
	1    7950 7300
	1    0    0    -1  
$EndComp
Text Notes 7250 7350 0    50   ~ 0
for 3.3V out
Wire Wire Line
	4650 5050 4650 5150
Wire Notes Line
	4650 8300 4650 5900
Wire Notes Line
	8150 5900 8150 8300
Wire Notes Line
	4650 5900 8150 5900
Connection ~ 7950 6600
Connection ~ 5350 6800
Text HLabel 1350 1300 0    50   Input ~ 0
+24V_IN
Wire Wire Line
	1350 1300 1700 1300
$Comp
L !ht3_passive:R R?
U 1 1 628B5FF5
P 5900 9250
AR Path="/5D3600C7/628B5FF5" Ref="R?"  Part="1" 
AR Path="/628B5FF5" Ref="R?"  Part="1" 
AR Path="/60EE5585/628B5FF5" Ref="R?"  Part="1" 
AR Path="/5FF89635/628B5FF5" Ref="R?"  Part="1" 
AR Path="/62863B64/628B5FF5" Ref="R65"  Part="1" 
F 0 "R65" H 5900 9350 45  0000 C CNN
F 1 "39K/0603" H 5900 9150 45  0000 C CNN
F 2 "!ht3_smd:R_0603(1608)" H 5930 9400 20  0001 C CNN
F 3 "" H 5900 9250 50  0001 C CNN
F 4 "C88615" H 5900 9250 50  0001 C CNN "LCSC"
	1    5900 9250
	0    -1   -1   0   
$EndComp
$Comp
L power:GND #PWR?
U 1 1 6062B991
P 2650 2250
AR Path="/6062B991" Ref="#PWR?"  Part="1" 
AR Path="/698A2E9A/6062B991" Ref="#PWR?"  Part="1" 
AR Path="/5CF802FC/6062B991" Ref="#PWR?"  Part="1" 
AR Path="/62863B64/6062B991" Ref="#PWR086"  Part="1" 
F 0 "#PWR086" H 2650 2000 50  0001 C CNN
F 1 "GND" H 2655 2077 50  0000 C CNN
F 2 "" H 2650 2250 50  0001 C CNN
F 3 "" H 2650 2250 50  0001 C CNN
	1    2650 2250
	1    0    0    -1  
$EndComp
Text Notes 5350 6100 0    79   Italic 16
or SEPIC for  3.3V
Connection ~ 4550 4650
Wire Wire Line
	4150 4850 4150 5150
$Comp
L !ht3_passive:R R?
U 1 1 60AF68D4
P 2900 4650
AR Path="/60AF68D4" Ref="R?"  Part="1" 
AR Path="/697F25D5/60AF68D4" Ref="R?"  Part="1" 
AR Path="/60299051/60AF68D4" Ref="R?"  Part="1" 
AR Path="/62863B64/60AF68D4" Ref="R55"  Part="1" 
F 0 "R55" H 2900 4750 45  0000 C CNN
F 1 "5.1/0805" H 2900 4550 45  0000 C CNN
F 2 "!ht3_smd:R_0805(2012)" H 2930 4800 20  0001 C CNN
F 3 "" H 2900 4650 50  0001 C CNN
	1    2900 4650
	1    0    0    -1  
$EndComp
Wire Wire Line
	3050 4650 3400 4650
Wire Wire Line
	3550 2200 3550 2400
$Comp
L power:PWR_FLAG #FLG?
U 1 1 60D65E67
P 3550 2200
AR Path="/60D65E67" Ref="#FLG?"  Part="1" 
AR Path="/5CF802FC/60D65E67" Ref="#FLG?"  Part="1" 
AR Path="/61CC7676/60D65E67" Ref="#FLG?"  Part="1" 
AR Path="/62863B64/60D65E67" Ref="#FLG012"  Part="1" 
F 0 "#FLG012" H 3550 2275 50  0001 C CNN
F 1 "PWR_FLAG" V 3550 2550 50  0000 C CNN
F 2 "" H 3550 2200 50  0001 C CNN
F 3 "~" H 3550 2200 50  0001 C CNN
	1    3550 2200
	1    0    0    -1  
$EndComp
$Comp
L power:GND #PWR?
U 1 1 60D65E6D
P 3550 2400
AR Path="/60D65E6D" Ref="#PWR?"  Part="1" 
AR Path="/698A2E9A/60D65E6D" Ref="#PWR?"  Part="1" 
AR Path="/5CF802FC/60D65E6D" Ref="#PWR?"  Part="1" 
AR Path="/61CC7676/60D65E6D" Ref="#PWR?"  Part="1" 
AR Path="/62863B64/60D65E6D" Ref="#PWR087"  Part="1" 
F 0 "#PWR087" H 3550 2150 50  0001 C CNN
F 1 "GND" H 3555 2227 50  0000 C CNN
F 2 "" H 3550 2400 50  0001 C CNN
F 3 "" H 3550 2400 50  0001 C CNN
	1    3550 2400
	1    0    0    -1  
$EndComp
$Comp
L !ht3_ic:LM5576MH U10
U 1 1 6171E387
P 6000 1200
F 0 "U10" H 6050 1250 50  0000 C CNN
F 1 "LM5576MH" H 6950 -550 50  0000 C CNN
F 2 "!ht3_smd:HTSSOP-20-1EP_4.4x6.5mm_P0.65mm_EP3.4x6.5mm_Mask2.75x3.43mm_ThermalVias_HandSolder" H 6500 100 50  0001 L BNN
F 3 "" H 6500 100 50  0001 L BNN
F 4 "LM5576MH" H 6500 100 50  0001 L BNN "MPN"
F 5 "1325422" H 6500 100 50  0001 L BNN "OC_FARNELL"
F 6 "32M1276" H 6500 100 50  0001 L BNN "OC_NEWARK"
F 7 "TSSOP-20" H 6500 100 50  0001 L BNN "PACKAGE"
F 8 "NationalSemiconductor" H 6500 100 50  0001 L BNN "SUPPLIER"
F 9 "00-00027102" H 6000 1200 50  0001 C CNN "Field5"
	1    6000 1200
	1    0    0    -1  
$EndComp
$Comp
L power:GND #PWR?
U 1 1 617517BD
P 6400 3300
AR Path="/617517BD" Ref="#PWR?"  Part="1" 
AR Path="/698A2E9A/617517BD" Ref="#PWR?"  Part="1" 
AR Path="/607681B9/617517BD" Ref="#PWR?"  Part="1" 
AR Path="/60EE5585/617517BD" Ref="#PWR?"  Part="1" 
AR Path="/62863B64/617517BD" Ref="#PWR0100"  Part="1" 
F 0 "#PWR0100" H 6400 3050 50  0001 C CNN
F 1 "GND" H 6405 3127 50  0000 C CNN
F 2 "" H 6400 3300 50  0001 C CNN
F 3 "" H 6400 3300 50  0001 C CNN
	1    6400 3300
	1    0    0    -1  
$EndComp
Wire Wire Line
	6400 3300 6400 3200
Wire Wire Line
	6400 3200 6500 3200
Wire Wire Line
	6500 3200 6500 3100
Connection ~ 6400 3200
Wire Wire Line
	6400 3200 6400 3100
Wire Wire Line
	6500 3200 6600 3200
Wire Wire Line
	6600 3200 6600 3100
Connection ~ 6500 3200
Wire Wire Line
	5800 1300 5700 1300
Connection ~ 5700 1300
Wire Wire Line
	5700 1300 4550 1300
Wire Wire Line
	5800 1400 5700 1400
Wire Wire Line
	5700 1400 5700 1300
$Comp
L power:GND #PWR?
U 1 1 618553D2
P 5000 3250
AR Path="/618553D2" Ref="#PWR?"  Part="1" 
AR Path="/698A2E9A/618553D2" Ref="#PWR?"  Part="1" 
AR Path="/5CF802FC/618553D2" Ref="#PWR?"  Part="1" 
AR Path="/607681B9/618553D2" Ref="#PWR?"  Part="1" 
AR Path="/60EE5585/618553D2" Ref="#PWR?"  Part="1" 
AR Path="/62863B64/618553D2" Ref="#PWR095"  Part="1" 
F 0 "#PWR095" H 5000 3000 50  0001 C CNN
F 1 "GND" H 5005 3077 50  0000 C CNN
F 2 "" H 5000 3250 50  0001 C CNN
F 3 "" H 5000 3250 50  0001 C CNN
	1    5000 3250
	1    0    0    -1  
$EndComp
$Comp
L !ht3_passive:C C?
U 1 1 618553D9
P 5000 2950
AR Path="/60EE5585/618553D9" Ref="C?"  Part="1" 
AR Path="/62863B64/618553D9" Ref="C30"  Part="1" 
F 0 "C30" V 4950 2700 45  0000 L CNN
F 1 "1u/50V/X7R/0805" V 4950 3000 45  0000 L CNN
F 2 "!ht3_smd:C_0805(2012)" H 5030 3100 20  0001 C CNN
F 3 "" H 5000 2950 50  0001 C CNN
F 4 "C105481" V 5000 2950 50  0001 C CNN "LCSC"
	1    5000 2950
	1    0    0    -1  
$EndComp
Wire Wire Line
	5000 3150 5000 3250
Wire Wire Line
	5800 1600 5000 1600
Wire Wire Line
	5000 1600 5000 2850
NoConn ~ 5800 1800
$Comp
L power:GND #PWR?
U 1 1 618C58F6
P 5200 3250
AR Path="/618C58F6" Ref="#PWR?"  Part="1" 
AR Path="/698A2E9A/618C58F6" Ref="#PWR?"  Part="1" 
AR Path="/5CF802FC/618C58F6" Ref="#PWR?"  Part="1" 
AR Path="/607681B9/618C58F6" Ref="#PWR?"  Part="1" 
AR Path="/60EE5585/618C58F6" Ref="#PWR?"  Part="1" 
AR Path="/62863B64/618C58F6" Ref="#PWR096"  Part="1" 
F 0 "#PWR096" H 5200 3000 50  0001 C CNN
F 1 "GND" H 5205 3077 50  0000 C CNN
F 2 "" H 5200 3250 50  0001 C CNN
F 3 "" H 5200 3250 50  0001 C CNN
	1    5200 3250
	1    0    0    -1  
$EndComp
$Comp
L !ht3_passive:C C?
U 1 1 618C58FD
P 5200 2950
AR Path="/60EE5585/618C58FD" Ref="C?"  Part="1" 
AR Path="/62863B64/618C58FD" Ref="C31"  Part="1" 
F 0 "C31" V 5150 2700 45  0000 L CNN
F 1 "300p/0603" V 5150 3000 45  0000 L CNN
F 2 "!ht3_smd:C_0603(1608)" H 5230 3100 20  0001 C CNN
F 3 "" H 5200 2950 50  0001 C CNN
F 4 "C105481" V 5200 2950 50  0001 C CNN "LCSC"
	1    5200 2950
	1    0    0    -1  
$EndComp
Wire Wire Line
	5200 3150 5200 3250
Wire Wire Line
	5800 2000 5200 2000
Wire Wire Line
	5200 2000 5200 2850
$Comp
L power:GND #PWR?
U 1 1 618F3246
P 5400 3250
AR Path="/618F3246" Ref="#PWR?"  Part="1" 
AR Path="/698A2E9A/618F3246" Ref="#PWR?"  Part="1" 
AR Path="/5CF802FC/618F3246" Ref="#PWR?"  Part="1" 
AR Path="/607681B9/618F3246" Ref="#PWR?"  Part="1" 
AR Path="/60EE5585/618F3246" Ref="#PWR?"  Part="1" 
AR Path="/62863B64/618F3246" Ref="#PWR097"  Part="1" 
F 0 "#PWR097" H 5400 3000 50  0001 C CNN
F 1 "GND" H 5405 3077 50  0000 C CNN
F 2 "" H 5400 3250 50  0001 C CNN
F 3 "" H 5400 3250 50  0001 C CNN
	1    5400 3250
	1    0    0    -1  
$EndComp
$Comp
L !ht3_passive:C C?
U 1 1 618F324D
P 5400 2950
AR Path="/60EE5585/618F324D" Ref="C?"  Part="1" 
AR Path="/62863B64/618F324D" Ref="C32"  Part="1" 
F 0 "C32" V 5350 2700 45  0000 L CNN
F 1 "10n/0805" V 5350 3000 45  0000 L CNN
F 2 "!ht3_smd:C_0805(2012)" H 5430 3100 20  0001 C CNN
F 3 "" H 5400 2950 50  0001 C CNN
F 4 "C105481" V 5400 2950 50  0001 C CNN "LCSC"
	1    5400 2950
	1    0    0    -1  
$EndComp
Wire Wire Line
	5400 3150 5400 3250
Wire Wire Line
	5800 2200 5400 2200
Wire Wire Line
	5400 2200 5400 2850
Wire Wire Line
	5800 2100 5550 2100
Wire Wire Line
	5550 2100 5550 3250
$Comp
L power:GND #PWR?
U 1 1 619392B1
P 5550 3250
AR Path="/619392B1" Ref="#PWR?"  Part="1" 
AR Path="/698A2E9A/619392B1" Ref="#PWR?"  Part="1" 
AR Path="/5CF802FC/619392B1" Ref="#PWR?"  Part="1" 
AR Path="/607681B9/619392B1" Ref="#PWR?"  Part="1" 
AR Path="/60EE5585/619392B1" Ref="#PWR?"  Part="1" 
AR Path="/62863B64/619392B1" Ref="#PWR098"  Part="1" 
F 0 "#PWR098" H 5550 3000 50  0001 C CNN
F 1 "GND" H 5555 3077 50  0000 C CNN
F 2 "" H 5550 3250 50  0001 C CNN
F 3 "" H 5550 3250 50  0001 C CNN
	1    5550 3250
	1    0    0    -1  
$EndComp
Wire Wire Line
	5700 3150 5700 3250
$Comp
L power:GND #PWR?
U 1 1 61939B09
P 5700 3250
AR Path="/61939B09" Ref="#PWR?"  Part="1" 
AR Path="/698A2E9A/61939B09" Ref="#PWR?"  Part="1" 
AR Path="/5CF802FC/61939B09" Ref="#PWR?"  Part="1" 
AR Path="/62863B64/61939B09" Ref="#PWR099"  Part="1" 
F 0 "#PWR099" H 5700 3000 50  0001 C CNN
F 1 "GND" H 5705 3077 50  0000 C CNN
F 2 "" H 5700 3250 50  0001 C CNN
F 3 "" H 5700 3250 50  0001 C CNN
	1    5700 3250
	1    0    0    -1  
$EndComp
$Comp
L !ht3_passive:R R?
U 1 1 61939B0F
P 5700 3000
AR Path="/61939B0F" Ref="R?"  Part="1" 
AR Path="/698A2E9A/61939B0F" Ref="R?"  Part="1" 
AR Path="/5CF802FC/61939B0F" Ref="R?"  Part="1" 
AR Path="/62863B64/61939B0F" Ref="R54"  Part="1" 
F 0 "R54" H 5450 3050 45  0000 L CNN
F 1 "13K/0603" H 5850 3050 45  0000 L CNN
F 2 "!ht3_smd:R_0603(1608)" H 5730 3150 20  0001 C CNN
F 3 "" H 5700 3000 50  0001 C CNN
	1    5700 3000
	0    -1   -1   0   
$EndComp
Wire Wire Line
	5800 2300 5700 2300
Wire Wire Line
	5700 2300 5700 2850
Wire Wire Line
	9850 2000 9850 1900
$Comp
L !ht3_passive:R R?
U 1 1 6199F885
P 9850 1750
AR Path="/60EE5585/6199F885" Ref="R?"  Part="1" 
AR Path="/62863B64/6199F885" Ref="R50"  Part="1" 
F 0 "R50" V 9900 1600 45  0000 C CNN
F 1 "10K/0603" V 9800 1500 45  0000 C CNN
F 2 "!ht3_smd:R_0603(1608)" H 9880 1900 20  0001 C CNN
F 3 "" H 9850 1750 50  0001 C CNN
F 4 "C269701" H 9850 1750 50  0001 C CNN "LCSC"
	1    9850 1750
	0    -1   -1   0   
$EndComp
$Comp
L !ht3_led:LED D?
U 1 1 6199F88C
P 9850 2100
AR Path="/60EE5585/6199F88C" Ref="D?"  Part="1" 
AR Path="/62863B64/6199F88C" Ref="D24"  Part="1" 
F 0 "D24" H 9950 2100 45  0000 L CNN
F 1 "LED-GREEN/0603" H 9950 2000 45  0000 L CNN
F 2 "!ht3_led:LED_0603(1608)_GREEN" H 9880 2250 20  0001 C CNN
F 3 "" H 9850 2100 50  0001 C CNN
F 4 "C192666" H 9850 2100 50  0001 C CNN "LCSC"
	1    9850 2100
	1    0    0    -1  
$EndComp
Wire Wire Line
	9850 2400 9850 2300
$Comp
L power:GND #PWR?
U 1 1 6199F893
P 9850 2400
AR Path="/6199F893" Ref="#PWR?"  Part="1" 
AR Path="/698A2E9A/6199F893" Ref="#PWR?"  Part="1" 
AR Path="/5CF802FC/6199F893" Ref="#PWR?"  Part="1" 
AR Path="/607681B9/6199F893" Ref="#PWR?"  Part="1" 
AR Path="/60EE5585/6199F893" Ref="#PWR?"  Part="1" 
AR Path="/62863B64/6199F893" Ref="#PWR092"  Part="1" 
F 0 "#PWR092" H 9850 2150 50  0001 C CNN
F 1 "GND" H 9855 2227 50  0000 C CNN
F 2 "" H 9850 2400 50  0001 C CNN
F 3 "" H 9850 2400 50  0001 C CNN
	1    9850 2400
	1    0    0    -1  
$EndComp
Text Notes 9950 2350 0    50   ~ 0
"PWR"
$Comp
L !ht3_inductor:L L?
U 1 1 6199F89A
P 7800 1400
AR Path="/6199F89A" Ref="L?"  Part="1" 
AR Path="/698A2E9A/6199F89A" Ref="L?"  Part="1" 
AR Path="/5CF802FC/6199F89A" Ref="L?"  Part="1" 
AR Path="/62863B64/6199F89A" Ref="L3"  Part="1" 
F 0 "L3" H 7800 1589 45  0000 C CNN
F 1 "SRN6045-220M" H 7900 1500 45  0000 C CNN
F 2 "!ht3_inductor:SRN6045" H 7830 1550 20  0001 C CNN
F 3 "" H 7800 1400 50  0001 C CNN
F 4 "00-00062250" H 7800 1400 50  0001 C CNN "Field4"
	1    7800 1400
	1    0    0    -1  
$EndComp
Wire Wire Line
	8750 2300 8750 2400
$Comp
L !ht3_passive:R R?
U 1 1 6199F8A1
P 8750 1650
AR Path="/6199F8A1" Ref="R?"  Part="1" 
AR Path="/698A2E9A/6199F8A1" Ref="R?"  Part="1" 
AR Path="/5CF802FC/6199F8A1" Ref="R?"  Part="1" 
AR Path="/62863B64/6199F8A1" Ref="R49"  Part="1" 
F 0 "R49" V 8708 1713 45  0000 L CNN
F 1 "5.1K/0603" H 8550 1550 45  0000 L CNN
F 2 "!ht3_smd:R_0603(1608)" H 8780 1800 20  0001 C CNN
F 3 "" H 8750 1650 50  0001 C CNN
	1    8750 1650
	0    -1   -1   0   
$EndComp
Wire Wire Line
	8750 1500 8750 1400
Wire Wire Line
	8750 1800 8750 1900
$Comp
L !ht3_passive:R R?
U 1 1 6199F8AB
P 8750 2150
AR Path="/6199F8AB" Ref="R?"  Part="1" 
AR Path="/698A2E9A/6199F8AB" Ref="R?"  Part="1" 
AR Path="/5CF802FC/6199F8AB" Ref="R?"  Part="1" 
AR Path="/62863B64/6199F8AB" Ref="R51"  Part="1" 
F 0 "R51" V 8708 2213 45  0000 L CNN
F 1 "1.5K/0603" H 8550 2050 45  0000 L CNN
F 2 "!ht3_smd:R_0603(1608)" H 8780 2300 20  0001 C CNN
F 3 "" H 8750 2150 50  0001 C CNN
	1    8750 2150
	0    -1   -1   0   
$EndComp
Wire Wire Line
	8750 2000 8750 1900
Connection ~ 8750 1900
Wire Wire Line
	8700 7600 8700 7500
$Comp
L !ht3_passive:CP C?
U 1 1 6199F8B4
P 8700 7300
AR Path="/6199F8B4" Ref="C?"  Part="1" 
AR Path="/698A2E9A/6199F8B4" Ref="C?"  Part="1" 
AR Path="/5CF802FC/6199F8B4" Ref="C?"  Part="1" 
AR Path="/62863B64/6199F8B4" Ref="C41"  Part="1" 
F 0 "C41" V 8650 7000 45  0000 L CNN
F 1 "47u/10V/B" V 8650 7400 45  0000 L CNN
F 2 "!ht3_smd:CP_EIA-3528-21_Kemet-B" H 8730 7450 20  0001 C CNN
F 3 "" H 8700 7300 50  0001 C CNN
	1    8700 7300
	1    0    0    -1  
$EndComp
$Comp
L power:GND #PWR?
U 1 1 6199F8BA
P 8700 7600
AR Path="/6199F8BA" Ref="#PWR?"  Part="1" 
AR Path="/698A2E9A/6199F8BA" Ref="#PWR?"  Part="1" 
AR Path="/5CF802FC/6199F8BA" Ref="#PWR?"  Part="1" 
AR Path="/62863B64/6199F8BA" Ref="#PWR0115"  Part="1" 
F 0 "#PWR0115" H 8700 7350 50  0001 C CNN
F 1 "GND" H 8705 7427 50  0000 C CNN
F 2 "" H 8700 7600 50  0001 C CNN
F 3 "" H 8700 7600 50  0001 C CNN
	1    8700 7600
	1    0    0    -1  
$EndComp
Wire Wire Line
	8700 6600 8700 7200
$Comp
L !ht3_diode:SCHOTTKY D?
U 1 1 6199F8C3
P 7500 2100
AR Path="/6199F8C3" Ref="D?"  Part="1" 
AR Path="/698A2E9A/6199F8C3" Ref="D?"  Part="1" 
AR Path="/5CF802FC/6199F8C3" Ref="D?"  Part="1" 
AR Path="/62863B64/6199F8C3" Ref="D23"  Part="1" 
F 0 "D23" H 7350 2150 45  0000 C CNN
F 1 "SS26" H 7700 2150 45  0000 C CNN
F 2 "!ht3_diode:D_SMA" H 7530 2250 20  0001 C CNN
F 3 "" H 7500 2100 50  0001 C CNN
	1    7500 2100
	1    0    0    -1  
$EndComp
Wire Wire Line
	7300 900  7300 750 
Wire Wire Line
	7300 750  7550 750 
Wire Wire Line
	7550 750  7550 1400
Connection ~ 7550 1400
Wire Wire Line
	7550 1400 7650 1400
Wire Wire Line
	7200 1300 7300 1300
Wire Wire Line
	7300 1300 7300 1200
Wire Wire Line
	7550 1400 7550 1800
$Comp
L power:GND #PWR?
U 1 1 6199F8E6
P 9150 2400
AR Path="/6199F8E6" Ref="#PWR?"  Part="1" 
AR Path="/698A2E9A/6199F8E6" Ref="#PWR?"  Part="1" 
AR Path="/5CF802FC/6199F8E6" Ref="#PWR?"  Part="1" 
AR Path="/62863B64/6199F8E6" Ref="#PWR090"  Part="1" 
F 0 "#PWR090" H 9150 2150 50  0001 C CNN
F 1 "GND" H 9155 2227 50  0000 C CNN
F 2 "" H 9150 2400 50  0001 C CNN
F 3 "" H 9150 2400 50  0001 C CNN
	1    9150 2400
	1    0    0    -1  
$EndComp
Wire Wire Line
	9150 2400 9150 2300
Wire Wire Line
	9150 2000 9150 1400
Connection ~ 9150 1400
Text Notes 9050 3100 0    50   ~ 0
Visout load current <2mA\n5V - 10K- 53K\n3.3 - 10K - 32K
$Comp
L power:PWR_FLAG #FLG?
U 1 1 6199F8FB
P 9850 1300
AR Path="/5D3600C7/6199F8FB" Ref="#FLG?"  Part="1" 
AR Path="/6199F8FB" Ref="#FLG?"  Part="1" 
AR Path="/5CF802FC/6199F8FB" Ref="#FLG?"  Part="1" 
AR Path="/62863B64/6199F8FB" Ref="#FLG011"  Part="1" 
F 0 "#FLG011" H 9850 1375 50  0001 C CNN
F 1 "PWR_FLAG" V 9850 1600 50  0000 C CNN
F 2 "" H 9850 1300 50  0001 C CNN
F 3 "~" H 9850 1300 50  0001 C CNN
	1    9850 1300
	1    0    0    -1  
$EndComp
Wire Wire Line
	9850 1400 9850 1300
Wire Wire Line
	7300 1700 7300 1800
Wire Wire Line
	8750 2700 8750 2800
$Comp
L power:GND #PWR?
U 1 1 6199F912
P 8750 2800
AR Path="/6199F912" Ref="#PWR?"  Part="1" 
AR Path="/698A2E9A/6199F912" Ref="#PWR?"  Part="1" 
AR Path="/5CF802FC/6199F912" Ref="#PWR?"  Part="1" 
AR Path="/62863B64/6199F912" Ref="#PWR093"  Part="1" 
F 0 "#PWR093" H 8750 2550 50  0001 C CNN
F 1 "GND" H 8755 2627 50  0000 C CNN
F 2 "" H 8750 2800 50  0001 C CNN
F 3 "" H 8750 2800 50  0001 C CNN
	1    8750 2800
	1    0    0    -1  
$EndComp
$Comp
L !ht3_passive:R R?
U 1 1 6199F918
P 8750 2550
AR Path="/6199F918" Ref="R?"  Part="1" 
AR Path="/698A2E9A/6199F918" Ref="R?"  Part="1" 
AR Path="/5CF802FC/6199F918" Ref="R?"  Part="1" 
AR Path="/62863B64/6199F918" Ref="R52"  Part="1" 
F 0 "R52" V 8708 2613 45  0000 L CNN
F 1 "150/0603" H 8550 2450 45  0000 L CNN
F 2 "!ht3_smd:R_0603(1608)" H 8780 2700 20  0001 C CNN
F 3 "" H 8750 2550 50  0001 C CNN
	1    8750 2550
	0    -1   -1   0   
$EndComp
Text HLabel 9950 1400 2    50   Output ~ 0
+5V
Wire Wire Line
	9950 1400 9850 1400
Wire Wire Line
	7200 1800 7300 1800
Wire Wire Line
	7200 1700 7300 1700
Wire Wire Line
	7200 1900 7300 1900
Wire Wire Line
	7300 1900 7300 1800
Connection ~ 7300 1800
Wire Wire Line
	7300 1800 7550 1800
Wire Wire Line
	7200 1500 8550 1500
Wire Wire Line
	7950 1400 8550 1400
Wire Wire Line
	8550 1500 8550 1400
Connection ~ 8550 1400
$Comp
L !ht3_passive:R R?
U 1 1 61BC0421
P 8150 2600
AR Path="/61BC0421" Ref="R?"  Part="1" 
AR Path="/698A2E9A/61BC0421" Ref="R?"  Part="1" 
AR Path="/5CF802FC/61BC0421" Ref="R?"  Part="1" 
AR Path="/62863B64/61BC0421" Ref="R53"  Part="1" 
F 0 "R53" H 8100 2700 45  0000 L CNN
F 1 "22K/0603" H 7950 2500 45  0000 L CNN
F 2 "!ht3_smd:R_0603(1608)" H 8180 2750 20  0001 C CNN
F 3 "" H 8150 2600 50  0001 C CNN
	1    8150 2600
	1    0    0    -1  
$EndComp
$Comp
L !ht3_passive:C C?
U 1 1 61BC08DA
P 7950 2850
AR Path="/61BC08DA" Ref="C?"  Part="1" 
AR Path="/698A2E9A/61BC08DA" Ref="C?"  Part="1" 
AR Path="/607681B9/61BC08DA" Ref="C?"  Part="1" 
AR Path="/60EE5585/61BC08DA" Ref="C?"  Part="1" 
AR Path="/62863B64/61BC08DA" Ref="C29"  Part="1" 
F 0 "C29" V 7900 2550 45  0000 L CNN
F 1 "NP/0805" V 7900 2900 45  0000 L CNN
F 2 "!ht3_smd:Z_0805(2012)" H 7980 3000 20  0001 C CNN
F 3 "" H 7950 2850 50  0001 C CNN
F 4 "C354353" H 7950 2850 50  0001 C CNN "LCSC"
	1    7950 2850
	0    1    1    0   
$EndComp
$Comp
L !ht3_passive:C C?
U 1 1 61BC1471
P 7700 2600
AR Path="/61BC1471" Ref="C?"  Part="1" 
AR Path="/698A2E9A/61BC1471" Ref="C?"  Part="1" 
AR Path="/607681B9/61BC1471" Ref="C?"  Part="1" 
AR Path="/60EE5585/61BC1471" Ref="C?"  Part="1" 
AR Path="/62863B64/61BC1471" Ref="C28"  Part="1" 
F 0 "C28" V 7650 2350 45  0000 L CNN
F 1 "10n/0805" V 7800 2400 45  0000 L CNN
F 2 "!ht3_smd:C_0805(2012)" H 7730 2750 20  0001 C CNN
F 3 "" H 7700 2600 50  0001 C CNN
F 4 "C354353" H 7700 2600 50  0001 C CNN "LCSC"
	1    7700 2600
	0    1    1    0   
$EndComp
Wire Wire Line
	8300 2600 8400 2600
Wire Wire Line
	8400 2600 8400 2400
Wire Wire Line
	8050 2850 8400 2850
Wire Wire Line
	8400 2850 8400 2600
Connection ~ 8400 2600
Wire Wire Line
	7200 2600 7400 2600
Wire Wire Line
	7200 2200 7300 2200
Wire Wire Line
	7300 2200 7300 2100
Wire Wire Line
	7300 2100 7200 2100
Wire Wire Line
	7400 2100 7300 2100
Connection ~ 7300 2100
Wire Wire Line
	7600 2100 7850 2100
Wire Wire Line
	7850 2100 7850 1800
Wire Wire Line
	7850 1800 7550 1800
Connection ~ 7550 1800
Wire Wire Line
	7200 2400 8400 2400
Connection ~ 8400 2400
Wire Wire Line
	8400 1900 8400 2400
$Comp
L power:GND #PWR?
U 1 1 61DBD29F
P 7300 3000
AR Path="/61DBD29F" Ref="#PWR?"  Part="1" 
AR Path="/698A2E9A/61DBD29F" Ref="#PWR?"  Part="1" 
AR Path="/607681B9/61DBD29F" Ref="#PWR?"  Part="1" 
AR Path="/60EE5585/61DBD29F" Ref="#PWR?"  Part="1" 
AR Path="/62863B64/61DBD29F" Ref="#PWR094"  Part="1" 
F 0 "#PWR094" H 7300 2750 50  0001 C CNN
F 1 "GND" H 7305 2827 50  0000 C CNN
F 2 "" H 7300 3000 50  0001 C CNN
F 3 "" H 7300 3000 50  0001 C CNN
	1    7300 3000
	1    0    0    -1  
$EndComp
Wire Wire Line
	7200 2800 7300 2800
Wire Wire Line
	7300 2800 7300 3000
$Comp
L !ht3_passive:R R?
U 1 1 61E40E5C
P 3700 7000
AR Path="/63AE53EC/61E40E5C" Ref="R?"  Part="1" 
AR Path="/5FB51C8B/61E40E5C" Ref="R?"  Part="1" 
AR Path="/61E40E5C" Ref="R?"  Part="1" 
AR Path="/600B2C94/61E40E5C" Ref="R?"  Part="1" 
AR Path="/62863B64/61E40E5C" Ref="R62"  Part="1" 
F 0 "R62" H 3700 6900 45  0000 C CNN
F 1 "10K/0603" H 3700 7100 45  0000 C CNN
F 2 "!ht3_smd:R_0603(1608)" H 3730 7150 20  0001 C CNN
F 3 "" H 3700 7000 50  0001 C CNN
F 4 "" H 3700 7000 50  0001 C CNN "LCSC"
	1    3700 7000
	-1   0    0    1   
$EndComp
Wire Wire Line
	3250 6800 4550 6800
Wire Wire Line
	4150 5650 4150 5850
Wire Wire Line
	4550 4650 4550 5150
$Comp
L !ht3_diode:SCHOTTKY D?
U 1 1 61ECF885
P 4350 5150
AR Path="/61ECF885" Ref="D?"  Part="1" 
AR Path="/698A2E9A/61ECF885" Ref="D?"  Part="1" 
AR Path="/5CF802FC/61ECF885" Ref="D?"  Part="1" 
AR Path="/62863B64/61ECF885" Ref="D26"  Part="1" 
F 0 "D26" H 4350 5250 45  0000 C CNN
F 1 "SS26" H 4350 5050 45  0000 C CNN
F 2 "!ht3_diode:D_SMA" H 4380 5300 20  0001 C CNN
F 3 "" H 4350 5150 50  0001 C CNN
F 4 "00-00033386" H 4350 5150 50  0001 C CNN "Field4"
	1    4350 5150
	1    0    0    -1  
$EndComp
Wire Wire Line
	4250 5150 4150 5150
Connection ~ 4150 5150
Wire Wire Line
	4150 5150 4150 5350
Wire Wire Line
	4450 5150 4550 5150
Connection ~ 4550 5150
Wire Wire Line
	3950 5150 4150 5150
$Comp
L power:PWR_FLAG #FLG?
U 1 1 61F5CAD8
P 4550 4550
AR Path="/5D3600C7/61F5CAD8" Ref="#FLG?"  Part="1" 
AR Path="/61F5CAD8" Ref="#FLG?"  Part="1" 
AR Path="/5CF802FC/61F5CAD8" Ref="#FLG?"  Part="1" 
AR Path="/62863B64/61F5CAD8" Ref="#FLG013"  Part="1" 
F 0 "#FLG013" H 4550 4625 50  0001 C CNN
F 1 "PWR_FLAG" V 4550 4850 50  0000 C CNN
F 2 "" H 4550 4550 50  0001 C CNN
F 3 "~" H 4550 4550 50  0001 C CNN
	1    4550 4550
	1    0    0    -1  
$EndComp
Wire Wire Line
	4550 4550 4550 4650
Text Label 4650 4650 0    50   ~ 0
VCC
Text Notes 5600 8550 0    79   Italic 16
ADC divider for power monitor
Text Notes 5550 10850 0    50   ~ 0
10K / ( 10K + 39K ) = approc. 4,9 ADC coefficient
$Comp
L power:+12V #PWR?
U 1 1 6206DAD4
P 5900 9000
AR Path="/6206DAD4" Ref="#PWR?"  Part="1" 
AR Path="/607681B9/6206DAD4" Ref="#PWR?"  Part="1" 
AR Path="/60EE5585/6206DAD4" Ref="#PWR?"  Part="1" 
AR Path="/62863B64/6206DAD4" Ref="#PWR0117"  Part="1" 
F 0 "#PWR0117" H 5900 8850 50  0001 C CNN
F 1 "+12V" H 5915 9173 50  0000 C CNN
F 2 "" H 5900 9000 50  0001 C CNN
F 3 "" H 5900 9000 50  0001 C CNN
	1    5900 9000
	1    0    0    -1  
$EndComp
Wire Wire Line
	5900 9000 5900 9100
$Comp
L !ht3_misc:TestPoint TP?
U 1 1 6095EC59
P 8750 1300
AR Path="/63F41370/6095EC59" Ref="TP?"  Part="1" 
AR Path="/698A2E9A/6095EC59" Ref="TP?"  Part="1" 
AR Path="/6095EC59" Ref="TP?"  Part="1" 
AR Path="/62863B64/6095EC59" Ref="TP3"  Part="1" 
F 0 "TP3" H 8650 1400 50  0000 L CNN
F 1 "TestPoint_C1.5mm" V 9000 800 50  0001 L CNN
F 2 "!ht3_misc:TestPoint_C1.5mm" H 8950 1300 50  0001 C CNN
F 3 "~" H 8950 1300 50  0001 C CNN
	1    8750 1300
	1    0    0    -1  
$EndComp
Wire Wire Line
	8750 1300 8750 1400
$Comp
L power:PWR_FLAG #FLG?
U 1 1 60D6F986
P 8700 4550
AR Path="/5D3600C7/60D6F986" Ref="#FLG?"  Part="1" 
AR Path="/60D6F986" Ref="#FLG?"  Part="1" 
AR Path="/5CF802FC/60D6F986" Ref="#FLG?"  Part="1" 
AR Path="/62863B64/60D6F986" Ref="#FLG014"  Part="1" 
F 0 "#FLG014" H 8700 4625 50  0001 C CNN
F 1 "PWR_FLAG" V 8700 4850 50  0000 C CNN
F 2 "" H 8700 4550 50  0001 C CNN
F 3 "~" H 8700 4550 50  0001 C CNN
	1    8700 4550
	1    0    0    -1  
$EndComp
Wire Wire Line
	8700 4550 8700 4650
Connection ~ 8700 4650
Wire Wire Line
	8700 4650 8800 4650
$Comp
L !ht3_passive:R R?
U 1 1 60D96464
P 9600 1400
AR Path="/60D96464" Ref="R?"  Part="1" 
AR Path="/698A2E9A/60D96464" Ref="R?"  Part="1" 
AR Path="/5CF802FC/60D96464" Ref="R?"  Part="1" 
AR Path="/62863B64/60D96464" Ref="R48"  Part="1" 
F 0 "R48" H 9550 1500 45  0000 L CNN
F 1 "0/0805" H 9500 1300 45  0000 L CNN
F 2 "!ht3_smd:R_0805(2012)" H 9630 1550 20  0001 C CNN
F 3 "" H 9600 1400 50  0001 C CNN
	1    9600 1400
	1    0    0    -1  
$EndComp
Wire Wire Line
	9750 1400 9850 1400
Wire Wire Line
	9850 1400 9850 1600
Connection ~ 9850 1400
Connection ~ 8750 1400
Wire Wire Line
	8750 1400 9150 1400
Wire Wire Line
	8400 1900 8750 1900
Wire Wire Line
	8550 1400 8750 1400
$Comp
L !ht3_passive:C C?
U 1 1 6199F8CB
P 7300 1000
AR Path="/6199F8CB" Ref="C?"  Part="1" 
AR Path="/698A2E9A/6199F8CB" Ref="C?"  Part="1" 
AR Path="/5CF802FC/6199F8CB" Ref="C?"  Part="1" 
AR Path="/62863B64/6199F8CB" Ref="C23"  Part="1" 
F 0 "C23" V 7250 1050 45  0000 L CNN
F 1 "10n/0805" V 7450 750 45  0000 L CNN
F 2 "!ht3_smd:C_0805(2012)" H 7330 1150 20  0001 C CNN
F 3 "" H 7300 1000 50  0001 C CNN
	1    7300 1000
	1    0    0    -1  
$EndComp
Wire Wire Line
	7800 2600 8000 2600
Wire Wire Line
	7400 2850 7750 2850
Connection ~ 7400 2600
Wire Wire Line
	7400 2600 7500 2600
Wire Wire Line
	7400 2600 7400 2850
Wire Wire Line
	4350 1300 4550 1300
$Comp
L !ht3_passive:CP C?
U 1 1 6132D800
P 9150 2100
AR Path="/6132D800" Ref="C?"  Part="1" 
AR Path="/698A2E9A/6132D800" Ref="C?"  Part="1" 
AR Path="/5CF802FC/6132D800" Ref="C?"  Part="1" 
AR Path="/62863B64/6132D800" Ref="C26"  Part="1" 
F 0 "C26" V 9100 1850 45  0000 L CNN
F 1 "220u/10V/D" V 9100 2250 45  0000 L CNN
F 2 "!ht3_smd:CP_EIA-7343-31_Kemet-D" H 9180 2250 20  0001 C CNN
F 3 "" H 9150 2100 50  0001 C CNN
	1    9150 2100
	1    0    0    -1  
$EndComp
Text Notes 3300 6750 0    79   Italic 16
Power on start
Wire Wire Line
	5350 6900 5700 6900
$Comp
L !ht3_passive:R R?
U 1 1 60E08858
P 8450 6600
AR Path="/60E08858" Ref="R?"  Part="1" 
AR Path="/698A2E9A/60E08858" Ref="R?"  Part="1" 
AR Path="/5CF802FC/60E08858" Ref="R?"  Part="1" 
AR Path="/62863B64/60E08858" Ref="R60"  Part="1" 
F 0 "R60" H 8400 6700 45  0000 L CNN
F 1 "0/0805" H 8350 6500 45  0000 L CNN
F 2 "!ht3_smd:R_0805(2012)" H 8480 6750 20  0001 C CNN
F 3 "" H 8450 6600 50  0001 C CNN
	1    8450 6600
	1    0    0    -1  
$EndComp
Wire Wire Line
	8600 6600 8700 6600
Wire Wire Line
	8700 6600 8700 5000
Wire Wire Line
	7950 6600 8300 6600
$Comp
L !ht3_ic:MCP111 U13
U 1 1 606903F6
P 3450 7450
F 0 "U13" H 3550 7500 45  0000 C CNN
F 1 "MCP111" H 3700 7100 45  0000 C CNN
F 2 "!ht3_smd:SOT-23" H 3580 7600 20  0001 C CNN
F 3 "" H 3550 7450 50  0001 C CNN
F 4 "00-00027891" H 3450 7450 50  0001 C CNN "Field4"
	1    3450 7450
	1    0    0    -1  
$EndComp
Wire Wire Line
	3850 7000 4100 7000
Wire Wire Line
	3250 7000 3550 7000
Wire Wire Line
	3350 7650 3250 7650
Wire Wire Line
	3250 7650 3250 7750
Wire Wire Line
	3350 7550 3250 7550
Wire Wire Line
	3250 7000 3250 7550
Wire Wire Line
	4000 7550 4100 7550
Wire Wire Line
	4100 7550 4100 7000
Connection ~ 4100 7000
Wire Wire Line
	4100 7000 4900 7000
Wire Wire Line
	3150 1300 4350 1300
Wire Wire Line
	5700 4650 5700 5200
Connection ~ 5700 4650
$Comp
L !ht3_passive:C C?
U 1 1 60476E57
P 7100 5300
AR Path="/5F50ED51/60476E57" Ref="C?"  Part="1" 
AR Path="/60476E57" Ref="C?"  Part="1" 
AR Path="/607B5AB8/60476E57" Ref="C?"  Part="1" 
AR Path="/62863B64/60476E57" Ref="C36"  Part="1" 
F 0 "C36" V 7050 5050 45  0000 L CNN
F 1 "10u/6.3V/0805" V 7050 5300 45  0000 L CNN
F 2 "!ht3_smd:C_0805(2012)" H 7130 5450 20  0001 C CNN
F 3 "" H 7100 5300 50  0001 C CNN
	1    7100 5300
	1    0    0    -1  
$EndComp
$Comp
L !ht3_passive:C C?
U 1 1 60476E5D
P 5700 5300
AR Path="/5F50ED51/60476E5D" Ref="C?"  Part="1" 
AR Path="/60476E5D" Ref="C?"  Part="1" 
AR Path="/607B5AB8/60476E5D" Ref="C?"  Part="1" 
AR Path="/62863B64/60476E5D" Ref="C34"  Part="1" 
F 0 "C34" V 5650 5050 45  0000 L CNN
F 1 "10u/6.3V/0805" V 5650 5300 45  0000 L CNN
F 2 "!ht3_smd:C_0805(2012)" H 5730 5450 20  0001 C CNN
F 3 "" H 5700 5300 50  0001 C CNN
	1    5700 5300
	1    0    0    -1  
$EndComp
Wire Wire Line
	5700 5500 5700 5600
$Comp
L !ht3_passive:C C?
U 1 1 60476E67
P 6800 5300
AR Path="/5F50ED51/60476E67" Ref="C?"  Part="1" 
AR Path="/60476E67" Ref="C?"  Part="1" 
AR Path="/607B5AB8/60476E67" Ref="C?"  Part="1" 
AR Path="/62863B64/60476E67" Ref="C35"  Part="1" 
F 0 "C35" V 6750 5050 45  0000 L CNN
F 1 "100n/0603" V 6750 5300 45  0000 L CNN
F 2 "!ht3_smd:C_0603(1608)" H 6830 5450 20  0001 C CNN
F 3 "" H 6800 5300 50  0001 C CNN
	1    6800 5300
	1    0    0    -1  
$EndComp
Wire Wire Line
	6800 5500 6800 5600
Wire Wire Line
	7100 5500 7100 5600
Text Notes 5950 5150 0    50   ~ 0
AP2112K-3.3TRG1\nLDK220
$Comp
L !ht3_ic:LP2985 U?
U 1 1 60476E70
P 6000 4550
AR Path="/5F50ED51/60476E70" Ref="U?"  Part="1" 
AR Path="/60476E70" Ref="U?"  Part="1" 
AR Path="/607B5AB8/60476E70" Ref="U?"  Part="1" 
AR Path="/62863B64/60476E70" Ref="U11"  Part="1" 
F 0 "U11" H 6300 4704 45  0000 C CNN
F 1 "LP2985A-33DBVR" H 6300 4620 45  0000 C CNN
F 2 "!ht3_smd:SOT-23-5" H 6030 4700 20  0001 C CNN
F 3 "" H 6000 4550 50  0001 C CNN
	1    6000 4550
	1    0    0    -1  
$EndComp
Wire Wire Line
	7100 4650 7100 5200
Wire Wire Line
	5900 4750 5800 4750
Wire Wire Line
	5800 4750 5800 4950
Wire Wire Line
	6800 4850 6800 5200
Wire Wire Line
	6700 4850 6800 4850
Wire Wire Line
	6700 4650 7100 4650
Wire Wire Line
	5700 4650 5900 4650
Wire Wire Line
	4250 4650 4550 4650
Wire Wire Line
	4650 5150 4550 5150
Wire Wire Line
	5350 6800 4550 6800
Connection ~ 4550 6800
Wire Wire Line
	4550 5150 4550 6800
Wire Wire Line
	4550 4650 5700 4650
Connection ~ 7100 4650
Wire Wire Line
	5900 4850 4900 4850
Wire Wire Line
	4900 4850 4900 7000
Connection ~ 4900 7000
Wire Wire Line
	4900 7000 5700 7000
$Comp
L power:GND #PWR?
U 1 1 6097AE18
P 5700 5600
AR Path="/6097AE18" Ref="#PWR?"  Part="1" 
AR Path="/698A2E9A/6097AE18" Ref="#PWR?"  Part="1" 
AR Path="/607681B9/6097AE18" Ref="#PWR?"  Part="1" 
AR Path="/60EE5585/6097AE18" Ref="#PWR?"  Part="1" 
AR Path="/62863B64/6097AE18" Ref="#PWR0104"  Part="1" 
F 0 "#PWR0104" H 5700 5350 50  0001 C CNN
F 1 "GND" H 5705 5427 50  0000 C CNN
F 2 "" H 5700 5600 50  0001 C CNN
F 3 "" H 5700 5600 50  0001 C CNN
	1    5700 5600
	1    0    0    -1  
$EndComp
$Comp
L power:GND #PWR?
U 1 1 6097B015
P 5800 4950
AR Path="/6097B015" Ref="#PWR?"  Part="1" 
AR Path="/698A2E9A/6097B015" Ref="#PWR?"  Part="1" 
AR Path="/607681B9/6097B015" Ref="#PWR?"  Part="1" 
AR Path="/60EE5585/6097B015" Ref="#PWR?"  Part="1" 
AR Path="/62863B64/6097B015" Ref="#PWR0102"  Part="1" 
F 0 "#PWR0102" H 5800 4700 50  0001 C CNN
F 1 "GND" H 5805 4777 50  0000 C CNN
F 2 "" H 5800 4950 50  0001 C CNN
F 3 "" H 5800 4950 50  0001 C CNN
	1    5800 4950
	1    0    0    -1  
$EndComp
$Comp
L power:GND #PWR?
U 1 1 6097B1C9
P 6800 5600
AR Path="/6097B1C9" Ref="#PWR?"  Part="1" 
AR Path="/698A2E9A/6097B1C9" Ref="#PWR?"  Part="1" 
AR Path="/607681B9/6097B1C9" Ref="#PWR?"  Part="1" 
AR Path="/60EE5585/6097B1C9" Ref="#PWR?"  Part="1" 
AR Path="/62863B64/6097B1C9" Ref="#PWR0105"  Part="1" 
F 0 "#PWR0105" H 6800 5350 50  0001 C CNN
F 1 "GND" H 6805 5427 50  0000 C CNN
F 2 "" H 6800 5600 50  0001 C CNN
F 3 "" H 6800 5600 50  0001 C CNN
	1    6800 5600
	1    0    0    -1  
$EndComp
$Comp
L power:GND #PWR?
U 1 1 6097B54C
P 7100 5600
AR Path="/6097B54C" Ref="#PWR?"  Part="1" 
AR Path="/698A2E9A/6097B54C" Ref="#PWR?"  Part="1" 
AR Path="/607681B9/6097B54C" Ref="#PWR?"  Part="1" 
AR Path="/60EE5585/6097B54C" Ref="#PWR?"  Part="1" 
AR Path="/62863B64/6097B54C" Ref="#PWR0106"  Part="1" 
F 0 "#PWR0106" H 7100 5350 50  0001 C CNN
F 1 "GND" H 7105 5427 50  0000 C CNN
F 2 "" H 7100 5600 50  0001 C CNN
F 3 "" H 7100 5600 50  0001 C CNN
	1    7100 5600
	1    0    0    -1  
$EndComp
Wire Wire Line
	9150 1400 9350 1400
Connection ~ 8700 6600
Wire Wire Line
	7100 4650 8300 4650
Text Notes 1550 9200 0    118  Italic 24
TEST:\n1) T3 - 5V\n2) T4 - 3.3V\n3) T5 - 4.8V
$Comp
L !ht3_diode:SCHOTTKY D?
U 1 1 60D7CFFC
P 2550 4650
AR Path="/60D7CFFC" Ref="D?"  Part="1" 
AR Path="/698A2E9A/60D7CFFC" Ref="D?"  Part="1" 
AR Path="/5CF802FC/60D7CFFC" Ref="D?"  Part="1" 
AR Path="/62863B64/60D7CFFC" Ref="D25"  Part="1" 
F 0 "D25" H 2550 4750 45  0000 C CNN
F 1 "SS26" H 2550 4550 45  0000 C CNN
F 2 "!ht3_diode:D_SMA" H 2580 4800 20  0001 C CNN
F 3 "" H 2550 4650 50  0001 C CNN
	1    2550 4650
	1    0    0    -1  
$EndComp
Wire Wire Line
	2150 4650 2450 4650
$Comp
L !ht3_diode:SUPPRESSOR-UNI D?
U 1 1 60E5FFE8
P 6550 9800
AR Path="/612C96BD/60E5FFE8" Ref="D?"  Part="1" 
AR Path="/61CC7676/60E5FFE8" Ref="D?"  Part="1" 
AR Path="/62863B64/60E5FFE8" Ref="D27"  Part="1" 
F 0 "D27" H 6628 9842 45  0000 L CNN
F 1 "ESD5Z5.0T1G" H 6628 9758 45  0000 L CNN
F 2 "!ht3_diode:D_SOD-523" H 6580 9950 20  0001 C CNN
F 3 "" H 6550 9800 50  0001 C CNN
	1    6550 9800
	1    0    0    -1  
$EndComp
$Comp
L power:GND #PWR?
U 1 1 60E5FFEE
P 6550 10000
AR Path="/60E5FFEE" Ref="#PWR?"  Part="1" 
AR Path="/61CC7676/60E5FFEE" Ref="#PWR?"  Part="1" 
AR Path="/60EBFB95/60E5FFEE" Ref="#PWR?"  Part="1" 
AR Path="/612BBFB4/60E5FFEE" Ref="#PWR?"  Part="1" 
AR Path="/612C8AD4/60E5FFEE" Ref="#PWR?"  Part="1" 
AR Path="/612C96BD/60E5FFEE" Ref="#PWR?"  Part="1" 
AR Path="/612CBD47/60E5FFEE" Ref="#PWR?"  Part="1" 
AR Path="/612CBD5E/60E5FFEE" Ref="#PWR?"  Part="1" 
AR Path="/60B9942B/60E5FFEE" Ref="#PWR?"  Part="1" 
AR Path="/60B99431/60E5FFEE" Ref="#PWR?"  Part="1" 
AR Path="/62863B64/60E5FFEE" Ref="#PWR0119"  Part="1" 
F 0 "#PWR0119" H 6550 9750 50  0001 C CNN
F 1 "GND" H 6555 9827 50  0000 C CNN
F 2 "" H 6550 10000 50  0001 C CNN
F 3 "" H 6550 10000 50  0001 C CNN
	1    6550 10000
	1    0    0    -1  
$EndComp
Wire Wire Line
	6550 10000 6550 9900
Wire Wire Line
	6550 9700 6550 9500
Connection ~ 6550 9500
$Comp
L power:GND #PWR?
U 1 1 607353D2
P 9350 2400
AR Path="/607353D2" Ref="#PWR?"  Part="1" 
AR Path="/698A2E9A/607353D2" Ref="#PWR?"  Part="1" 
AR Path="/5CF802FC/607353D2" Ref="#PWR?"  Part="1" 
AR Path="/607681B9/607353D2" Ref="#PWR?"  Part="1" 
AR Path="/60EE5585/607353D2" Ref="#PWR?"  Part="1" 
AR Path="/62863B64/607353D2" Ref="#PWR091"  Part="1" 
F 0 "#PWR091" H 9350 2150 50  0001 C CNN
F 1 "GND" H 9355 2227 50  0000 C CNN
F 2 "" H 9350 2400 50  0001 C CNN
F 3 "" H 9350 2400 50  0001 C CNN
	1    9350 2400
	1    0    0    -1  
$EndComp
$Comp
L !ht3_passive:C C?
U 1 1 607353D9
P 9350 2100
AR Path="/60EE5585/607353D9" Ref="C?"  Part="1" 
AR Path="/62863B64/607353D9" Ref="C27"  Part="1" 
F 0 "C27" V 9300 1850 45  0000 L CNN
F 1 "4.7u/50V/X5R/1206" V 9300 2100 45  0000 L CNN
F 2 "!ht3_smd:C_1206(3216)" H 9380 2250 20  0001 C CNN
F 3 "" H 9350 2100 50  0001 C CNN
F 4 "C105481" V 9350 2100 50  0001 C CNN "LCSC"
	1    9350 2100
	1    0    0    -1  
$EndComp
Wire Wire Line
	9350 2300 9350 2400
Wire Wire Line
	9350 2000 9350 1400
Connection ~ 9350 1400
Wire Wire Line
	9350 1400 9450 1400
$Comp
L !ht3_misc:TestPoint TP?
U 1 1 6074C305
P 8850 4900
AR Path="/63F41370/6074C305" Ref="TP?"  Part="1" 
AR Path="/698A2E9A/6074C305" Ref="TP?"  Part="1" 
AR Path="/6074C305" Ref="TP?"  Part="1" 
AR Path="/62863B64/6074C305" Ref="TP4"  Part="1" 
F 0 "TP4" H 8750 5000 50  0000 L CNN
F 1 "TestPoint_C1.5mm" V 9100 4400 50  0001 L CNN
F 2 "!ht3_misc:TestPoint_C1.5mm" H 9050 4900 50  0001 C CNN
F 3 "~" H 9050 4900 50  0001 C CNN
	1    8850 4900
	1    0    0    -1  
$EndComp
Wire Wire Line
	8850 4900 8850 5000
Wire Wire Line
	8850 5000 8700 5000
Connection ~ 8700 5000
Wire Wire Line
	8700 5000 8700 4650
Wire Wire Line
	6250 7400 6150 7400
Wire Wire Line
	6150 7400 6150 7300
Connection ~ 6250 7400
$Comp
L !ht3_passive:C C?
U 1 1 606CDBCC
P 4550 2100
AR Path="/60EE5585/606CDBCC" Ref="C?"  Part="1" 
AR Path="/62863B64/606CDBCC" Ref="C25"  Part="1" 
F 0 "C25" V 4500 1850 45  0000 L CNN
F 1 "4.7u/50V/X5R/1206" V 4500 2150 45  0000 L CNN
F 2 "!ht3_smd:C_1206(3216)" H 4580 2250 20  0001 C CNN
F 3 "" H 4550 2100 50  0001 C CNN
F 4 "C105481" V 4550 2100 50  0001 C CNN "LCSC"
	1    4550 2100
	1    0    0    -1  
$EndComp
$Comp
L power:GND #PWR?
U 1 1 60760D77
P 7400 10500
AR Path="/60760D77" Ref="#PWR?"  Part="1" 
AR Path="/61CC7676/60760D77" Ref="#PWR?"  Part="1" 
AR Path="/60EBFB95/60760D77" Ref="#PWR?"  Part="1" 
AR Path="/612BBFB4/60760D77" Ref="#PWR?"  Part="1" 
AR Path="/612C8AD4/60760D77" Ref="#PWR?"  Part="1" 
AR Path="/612C96BD/60760D77" Ref="#PWR?"  Part="1" 
AR Path="/612CBD47/60760D77" Ref="#PWR?"  Part="1" 
AR Path="/612CBD5E/60760D77" Ref="#PWR?"  Part="1" 
AR Path="/60B9942B/60760D77" Ref="#PWR?"  Part="1" 
AR Path="/60B99431/60760D77" Ref="#PWR?"  Part="1" 
AR Path="/62863B64/60760D77" Ref="#PWR0120"  Part="1" 
F 0 "#PWR0120" H 7400 10250 50  0001 C CNN
F 1 "GND" H 7405 10327 50  0000 C CNN
F 2 "" H 7400 10500 50  0001 C CNN
F 3 "" H 7400 10500 50  0001 C CNN
	1    7400 10500
	1    0    0    -1  
$EndComp
Wire Wire Line
	7400 10500 7400 10400
Wire Wire Line
	7650 10500 7650 10450
$Comp
L power:GND #PWR?
U 1 1 60760D7F
P 7650 10500
AR Path="/60760D7F" Ref="#PWR?"  Part="1" 
AR Path="/698A2E9A/60760D7F" Ref="#PWR?"  Part="1" 
AR Path="/5CF802FC/60760D7F" Ref="#PWR?"  Part="1" 
AR Path="/697F25D5/60760D7F" Ref="#PWR?"  Part="1" 
AR Path="/60299051/60760D7F" Ref="#PWR?"  Part="1" 
AR Path="/62863B64/60760D7F" Ref="#PWR0121"  Part="1" 
AR Path="/60EBFB95/60760D7F" Ref="#PWR?"  Part="1" 
AR Path="/612BBFB4/60760D7F" Ref="#PWR?"  Part="1" 
AR Path="/612C8AD4/60760D7F" Ref="#PWR?"  Part="1" 
AR Path="/612C96BD/60760D7F" Ref="#PWR?"  Part="1" 
AR Path="/612CBD47/60760D7F" Ref="#PWR?"  Part="1" 
AR Path="/612CBD5E/60760D7F" Ref="#PWR?"  Part="1" 
AR Path="/60B9942B/60760D7F" Ref="#PWR?"  Part="1" 
AR Path="/60B99431/60760D7F" Ref="#PWR?"  Part="1" 
AR Path="/61CC7676/60760D7F" Ref="#PWR?"  Part="1" 
F 0 "#PWR0121" H 7650 10250 50  0001 C CNN
F 1 "GND" H 7655 10327 50  0000 C CNN
F 2 "" H 7650 10500 50  0001 C CNN
F 3 "" H 7650 10500 50  0001 C CNN
	1    7650 10500
	1    0    0    -1  
$EndComp
$Comp
L !ht3_diode:SUPPRESSOR-UNI D?
U 1 1 60760D86
P 7400 10300
AR Path="/60760D86" Ref="D?"  Part="1" 
AR Path="/5E6509AE/60760D86" Ref="D?"  Part="1" 
AR Path="/5D0EB132/60760D86" Ref="D?"  Part="1" 
AR Path="/5CF802FC/60760D86" Ref="D?"  Part="1" 
AR Path="/697F25D5/60760D86" Ref="D?"  Part="1" 
AR Path="/60299051/60760D86" Ref="D?"  Part="1" 
AR Path="/62863B64/60760D86" Ref="D28"  Part="1" 
AR Path="/60EBFB95/60760D86" Ref="D?"  Part="1" 
AR Path="/612BBFB4/60760D86" Ref="D?"  Part="1" 
AR Path="/612C8AD4/60760D86" Ref="D?"  Part="1" 
AR Path="/612C96BD/60760D86" Ref="D?"  Part="1" 
AR Path="/612CBD47/60760D86" Ref="D?"  Part="1" 
AR Path="/612CBD5E/60760D86" Ref="D?"  Part="1" 
AR Path="/60B9942B/60760D86" Ref="D?"  Part="1" 
AR Path="/60B99431/60760D86" Ref="D?"  Part="1" 
AR Path="/61CC7676/60760D86" Ref="D?"  Part="1" 
F 0 "D28" V 7350 10100 45  0000 L CNN
F 1 "BZX384-B3V3.115" V 7350 10400 45  0000 L CNN
F 2 "!ht3_diode:D_SOD-323F" H 7430 10450 20  0001 C CNN
F 3 "" H 7400 10300 50  0001 C CNN
F 4 "00-00054413" V 7400 10300 50  0001 C CNN "kosmodrom"
F 5 "00-00054413" H 7400 10300 50  0001 C CNN "Field4"
	1    7400 10300
	1    0    0    -1  
$EndComp
$Comp
L !ht3_passive:R R?
U 1 1 60760D8D
P 6900 9500
AR Path="/600B9C6A/60760D8D" Ref="R?"  Part="1" 
AR Path="/5FF89635/60760D8D" Ref="R?"  Part="1" 
AR Path="/60EBFB95/60760D8D" Ref="R?"  Part="1" 
AR Path="/612BBFB4/60760D8D" Ref="R?"  Part="1" 
AR Path="/612C8AD4/60760D8D" Ref="R?"  Part="1" 
AR Path="/612C96BD/60760D8D" Ref="R?"  Part="1" 
AR Path="/612CBD47/60760D8D" Ref="R?"  Part="1" 
AR Path="/612CBD5E/60760D8D" Ref="R?"  Part="1" 
AR Path="/60B9942B/60760D8D" Ref="R?"  Part="1" 
AR Path="/60B99431/60760D8D" Ref="R?"  Part="1" 
AR Path="/61CC7676/60760D8D" Ref="R?"  Part="1" 
AR Path="/62863B64/60760D8D" Ref="R66"  Part="1" 
F 0 "R66" H 6900 9400 45  0000 C CNN
F 1 "100/0603" H 6900 9600 45  0000 C CNN
F 2 "!ht3_smd:R_0603(1608)" H 6930 9650 20  0001 C CNN
F 3 "" H 6900 9500 50  0001 C CNN
F 4 "C269701" H 6900 9500 50  0001 C CNN "LCSC"
	1    6900 9500
	-1   0    0    1   
$EndComp
Connection ~ 7400 9500
$Comp
L !ht3_passive:C C?
U 1 1 60760D95
P 7650 10250
AR Path="/60760D95" Ref="C?"  Part="1" 
AR Path="/61CC7676/60760D95" Ref="C?"  Part="1" 
AR Path="/60EBFB95/60760D95" Ref="C?"  Part="1" 
AR Path="/612BBFB4/60760D95" Ref="C?"  Part="1" 
AR Path="/612C8AD4/60760D95" Ref="C?"  Part="1" 
AR Path="/612C96BD/60760D95" Ref="C?"  Part="1" 
AR Path="/612CBD47/60760D95" Ref="C?"  Part="1" 
AR Path="/612CBD5E/60760D95" Ref="C?"  Part="1" 
AR Path="/60B9942B/60760D95" Ref="C?"  Part="1" 
AR Path="/60B99431/60760D95" Ref="C?"  Part="1" 
AR Path="/62863B64/60760D95" Ref="C42"  Part="1" 
F 0 "C42" V 7600 10000 45  0000 L CNN
F 1 "10n/0603" V 7600 10250 45  0000 L CNN
F 2 "!ht3_smd:C_0603(1608)" H 7680 10400 20  0001 C CNN
F 3 "" H 7650 10250 50  0001 C CNN
F 4 "C30926" H 7650 10250 50  0001 C CNN "LCSC"
	1    7650 10250
	1    0    0    -1  
$EndComp
Wire Wire Line
	7400 9500 7400 10200
Wire Wire Line
	7400 9500 7650 9500
Wire Wire Line
	7650 10150 7650 9500
Connection ~ 7650 9500
Wire Wire Line
	7050 9500 7400 9500
Wire Wire Line
	7650 9500 8000 9500
Wire Notes Line
	4650 11000 9700 11000
Wire Notes Line
	9700 11000 9700 8350
Wire Notes Line
	9700 8350 4650 8350
Wire Wire Line
	6550 9500 6750 9500
Wire Wire Line
	5900 9500 6550 9500
$EndSCHEMATC
